{
  "name": "+4 Shield Special Abilities",
  "flags": {},
  "description": "",
  "results": [
    {
      "_id": "uUbiNLPlcnxObVFy",
      "flags": {},
      "type": 0,
      "text": "Energy Resistance",
      "weight": 50,
      "range": [1, 50],
      "drawn": false
    },
    {
      "_id": "6zWGrT6Gx46ssGwe",
      "flags": {},
      "type": 0,
      "text": "Spell Resistance (17)",
      "weight": 50,
      "range": [51, 100],
      "drawn": false
    }
  ],
  "formula": "1d100",
  "replacement": true,
  "displayRoll": true,
  "_id": "fgCE9DTIHLAmoHaP",
  "ownership": {
    "default": 0
  }
}
