{
  "name": "Bane Subtypes",
  "flags": {},
  "description": "",
  "results": [
    {
      "_id": "nUnLk1v2mozKde9O",
      "flags": {},
      "type": 0,
      "text": "Bane: Aberration",
      "img": "icons/svg/d20-black.svg",
      "resultId": "",
      "weight": 5,
      "range": [1, 5],
      "drawn": false
    },
    {
      "_id": "FskR3TnftTJPeT4g",
      "flags": {},
      "type": 0,
      "text": "Bane: Animal",
      "img": "icons/svg/d20-black.svg",
      "resultId": "",
      "weight": 4,
      "range": [6, 9],
      "drawn": false
    },
    {
      "_id": "siJDwG6YICm0F58q",
      "flags": {},
      "type": 0,
      "text": "Bane: Construct",
      "img": "icons/svg/d20-black.svg",
      "resultId": "",
      "weight": 7,
      "range": [10, 16],
      "drawn": false
    },
    {
      "_id": "LTaXh371ajPa2BhV",
      "flags": {},
      "type": 0,
      "text": "Bane: Dragon",
      "img": "icons/svg/d20-black.svg",
      "resultId": "",
      "weight": 11,
      "range": [17, 27],
      "drawn": false
    },
    {
      "_id": "2WBWokDsFATPpBRR",
      "flags": {},
      "type": 0,
      "text": "Bane: Fey",
      "img": "icons/svg/d20-black.svg",
      "resultId": "",
      "weight": 5,
      "range": [28, 32],
      "drawn": false
    },
    {
      "_id": "onZKlO7Z28iosIPV",
      "flags": {},
      "type": 0,
      "text": "Bane: Aquatic Humanoid",
      "img": "icons/svg/d20-black.svg",
      "resultId": "",
      "weight": 1,
      "range": [33, 33],
      "drawn": false
    },
    {
      "_id": "SuiNqFjS9S4xM57z",
      "flags": {},
      "type": 0,
      "text": "Bane: Dwarf",
      "img": "icons/svg/d20-black.svg",
      "resultId": "",
      "weight": 2,
      "range": [34, 35],
      "drawn": false
    },
    {
      "_id": "uOYHFJC9X35pc9OV",
      "flags": {},
      "type": 0,
      "text": "Bane: Elf",
      "img": "icons/svg/d20-black.svg",
      "resultId": "",
      "weight": 2,
      "range": [36, 37],
      "drawn": false
    },
    {
      "_id": "fAselvAYEf6uhDrL",
      "flags": {},
      "type": 0,
      "text": "Bane: Giant",
      "img": "icons/svg/d20-black.svg",
      "resultId": "",
      "weight": 7,
      "range": [38, 44],
      "drawn": false
    },
    {
      "_id": "LxhCOk3oeCRugOA8",
      "flags": {},
      "type": 0,
      "text": "Bane: Gnoll",
      "img": "icons/svg/d20-black.svg",
      "resultId": "",
      "weight": 1,
      "range": [45, 45],
      "drawn": false
    },
    {
      "_id": "DSKUAqmVo3xJftqx",
      "flags": {},
      "type": 0,
      "text": "Bane: Gnome",
      "img": "icons/svg/d20-black.svg",
      "resultId": "",
      "weight": 1,
      "range": [46, 46],
      "drawn": false
    },
    {
      "_id": "hnQ4Cmgahc7J27xp",
      "flags": {},
      "type": 0,
      "text": "Bane: Goblinoid",
      "img": "icons/svg/d20-black.svg",
      "resultId": "",
      "weight": 3,
      "range": [47, 49],
      "drawn": false
    },
    {
      "_id": "VXcKCJSUwsB3VtFI",
      "flags": {},
      "type": 0,
      "text": "Bane: Halfling",
      "img": "icons/svg/d20-black.svg",
      "resultId": "",
      "weight": 1,
      "range": [50, 50],
      "drawn": false
    },
    {
      "_id": "HzlZ3tkKDITpxiar",
      "flags": {},
      "type": 0,
      "text": "Bane: Human",
      "img": "icons/svg/d20-black.svg",
      "resultId": "",
      "weight": 4,
      "range": [51, 54],
      "drawn": false
    },
    {
      "_id": "8iVYbPk31SNs7dRg",
      "flags": {},
      "type": 0,
      "text": "Bane: Reptilian",
      "img": "icons/svg/d20-black.svg",
      "resultId": "",
      "weight": 3,
      "range": [55, 57],
      "drawn": false
    },
    {
      "_id": "nOwKRU9S7FxTSnIM",
      "flags": {},
      "type": 0,
      "text": "Bane: Orc",
      "img": "icons/svg/d20-black.svg",
      "resultId": "",
      "weight": 3,
      "range": [58, 60],
      "drawn": false
    },
    {
      "_id": "0wJJBFYjnTIzDTLQ",
      "flags": {},
      "type": 0,
      "text": "Bane: Magical Beast",
      "img": "icons/svg/d20-black.svg",
      "resultId": "",
      "weight": 5,
      "range": [61, 65],
      "drawn": false
    },
    {
      "_id": "NgSXntZaOiWnjYmh",
      "flags": {},
      "type": 0,
      "text": "Bane: Monstrous Humanoid",
      "img": "icons/svg/d20-black.svg",
      "resultId": "",
      "weight": 5,
      "range": [66, 70],
      "drawn": false
    },
    {
      "_id": "oDrqrNSjG54O1EYL",
      "flags": {},
      "type": 0,
      "text": "Bane: Ooze",
      "img": "icons/svg/d20-black.svg",
      "resultId": "",
      "weight": 2,
      "range": [71, 72],
      "drawn": false
    },
    {
      "_id": "mltIgLNuWfVCWxxl",
      "flags": {},
      "type": 0,
      "text": "Bane: Outsider (Air)",
      "img": "icons/svg/d20-black.svg",
      "resultId": "",
      "weight": 1,
      "range": [73, 73],
      "drawn": false
    },
    {
      "_id": "QQ48IUjRAixRno0K",
      "flags": {},
      "type": 0,
      "text": "Bane: Outsider (Chaotic)",
      "img": "icons/svg/d20-black.svg",
      "resultId": "",
      "weight": 3,
      "range": [74, 76],
      "drawn": false
    },
    {
      "_id": "ADZFK8kTFtTdzDF3",
      "flags": {},
      "type": 0,
      "text": "Bane: Outsider (Earth)",
      "img": "icons/svg/d20-black.svg",
      "resultId": "",
      "weight": 1,
      "range": [77, 77],
      "drawn": false
    },
    {
      "_id": "HJveb5RagMe9J3Fo",
      "flags": {},
      "type": 0,
      "text": "Bane: Outsider (Evil)",
      "img": "icons/svg/d20-black.svg",
      "resultId": "",
      "weight": 3,
      "range": [78, 80],
      "drawn": false
    },
    {
      "_id": "wozIE1MpJJjLQsKX",
      "flags": {},
      "type": 0,
      "text": "Bane: Outsider (Fire)",
      "img": "icons/svg/d20-black.svg",
      "resultId": "",
      "weight": 1,
      "range": [81, 81],
      "drawn": false
    },
    {
      "_id": "PMFfGJHW0B8CWRfH",
      "flags": {},
      "type": 0,
      "text": "Bane: Outsider (Good)",
      "img": "icons/svg/d20-black.svg",
      "resultId": "",
      "weight": 3,
      "range": [82, 84],
      "drawn": false
    },
    {
      "_id": "MoP1F31refpYt87C",
      "flags": {},
      "type": 0,
      "text": "Bane: Outsider (Lawful)",
      "img": "icons/svg/d20-black.svg",
      "resultId": "",
      "weight": 3,
      "range": [85, 87],
      "drawn": false
    },
    {
      "_id": "JO7T59ETToFprK57",
      "flags": {},
      "type": 0,
      "text": "Bane: Outsider (Water)",
      "img": "icons/svg/d20-black.svg",
      "resultId": "",
      "weight": 1,
      "range": [88, 88],
      "drawn": false
    },
    {
      "_id": "EHebN8roMoh114nw",
      "flags": {},
      "type": 0,
      "text": "Bane: Plant",
      "img": "icons/svg/d20-black.svg",
      "resultId": "",
      "weight": 2,
      "range": [89, 90],
      "drawn": false
    },
    {
      "_id": "iMh6KHovSPcY10Wh",
      "flags": {},
      "type": 0,
      "text": "Bane: Undead",
      "img": "icons/svg/d20-black.svg",
      "resultId": "",
      "weight": 8,
      "range": [91, 98],
      "drawn": false
    },
    {
      "_id": "Y7yenb2j9bwb9y1e",
      "flags": {},
      "type": 0,
      "text": "Bane: Vermin",
      "img": "icons/svg/d20-black.svg",
      "resultId": "",
      "weight": 2,
      "range": [99, 100],
      "drawn": false
    }
  ],
  "formula": "1d100",
  "replacement": true,
  "displayRoll": true,
  "_id": "9KbFFApRPfwhlQjF",
  "ownership": {
    "default": 0
  }
}
