{
  "name": "Common Level 0 Divine Scrolls",
  "flags": {},
  "description": "",
  "results": [
    {
      "_id": "UN7usqO3bo8PHRzK",
      "flags": {},
      "type": 0,
      "text": "Scroll of Bleed",
      "img": "icons/svg/d20-black.svg",
      "resultId": "",
      "weight": 11,
      "range": [1, 11],
      "drawn": false
    },
    {
      "_id": "pFVzUcgJaM9jflBU",
      "flags": {},
      "type": 0,
      "text": "Scroll of Create Water",
      "img": "icons/svg/d20-black.svg",
      "resultId": "",
      "weight": 10,
      "range": [12, 21],
      "drawn": false
    },
    {
      "_id": "SLhy8jsASX9my4Ic",
      "flags": {},
      "type": 0,
      "text": "Scroll of Detect Magic",
      "img": "icons/svg/d20-black.svg",
      "resultId": "",
      "weight": 13,
      "range": [22, 34],
      "drawn": false
    },
    {
      "_id": "ClyOkqTIML88Iekg",
      "flags": {},
      "type": 0,
      "text": "Scroll of Know Direction",
      "img": "icons/svg/d20-black.svg",
      "resultId": "",
      "weight": 10,
      "range": [35, 44],
      "drawn": false
    },
    {
      "_id": "f0viRHVgKrZjPguK",
      "flags": {},
      "type": 0,
      "text": "Scroll of Light",
      "img": "icons/svg/d20-black.svg",
      "resultId": "",
      "weight": 11,
      "range": [45, 55],
      "drawn": false
    },
    {
      "_id": "VfYlDEcTEEpukYiY",
      "flags": {},
      "type": 0,
      "text": "Scroll of Mending",
      "img": "icons/svg/d20-black.svg",
      "resultId": "",
      "weight": 10,
      "range": [56, 65],
      "drawn": false
    },
    {
      "_id": "Htgtlh8XevXYuEZY",
      "flags": {},
      "type": 0,
      "text": "Scroll of Purify Food and Drink",
      "img": "icons/svg/d20-black.svg",
      "resultId": "",
      "weight": 10,
      "range": [66, 75],
      "drawn": false
    },
    {
      "_id": "32EPiqrwNWnFidfT",
      "flags": {},
      "type": 0,
      "text": "Scroll of Read Magic",
      "img": "icons/svg/d20-black.svg",
      "resultId": "",
      "weight": 13,
      "range": [76, 88],
      "drawn": false
    },
    {
      "_id": "Vkz10zh6FHxQkVMw",
      "flags": {},
      "type": 0,
      "text": "Scroll of Stabilize",
      "img": "icons/svg/d20-black.svg",
      "resultId": "",
      "weight": 12,
      "range": [89, 100],
      "drawn": false
    }
  ],
  "formula": "1d201",
  "replacement": true,
  "displayRoll": true,
  "_id": "oQJAp9ehquwTQoEG",
  "ownership": {
    "default": 0
  }
}
