{
  "name": "Greater Major Eye",
  "flags": {},
  "description": "",
  "results": [
    {
      "_id": "hRLZKpDHJDiObUP0",
      "flags": {},
      "type": 0,
      "text": "Eyes of Charming",
      "weight": 18,
      "range": [1, 18],
      "drawn": false
    },
    {
      "_id": "gE096N1iDpBygiCp",
      "flags": {},
      "type": 0,
      "text": "Monocle of the Investigator",
      "weight": 16,
      "range": [19, 34],
      "drawn": false
    },
    {
      "_id": "LOcudbcPzEgQBo9b",
      "flags": {},
      "type": 0,
      "text": "Sea Tyrant's Patch",
      "weight": 14,
      "range": [35, 48],
      "drawn": false
    },
    {
      "_id": "KNU8lCKBqFdgjEOx",
      "flags": {},
      "type": 0,
      "text": "Swordmaster's Blindfold",
      "weight": 15,
      "range": [49, 63],
      "drawn": false
    },
    {
      "_id": "BC88DeYG3s5D7lbU",
      "flags": {},
      "type": 0,
      "text": "Mindmaster's Eyes",
      "weight": 14,
      "range": [64, 77],
      "drawn": false
    },
    {
      "_id": "URpmbVvAuGkdEeRR",
      "flags": {},
      "type": 0,
      "text": "Eyes of the Dragon",
      "weight": 13,
      "range": [78, 90],
      "drawn": false
    },
    {
      "_id": "KTr5z7FHzrqepulr",
      "flags": {},
      "type": 0,
      "text": "Truesight Goggles",
      "weight": 10,
      "range": [91, 100],
      "drawn": false
    }
  ],
  "formula": "1d100",
  "replacement": true,
  "displayRoll": true,
  "_id": "MXcM0LRMBPbUSR6I",
  "ownership": {
    "default": 0
  }
}
