{
  "_id": "rlSzmAn0ilkzUXOE",
  "name": "Greater Major Arcane Scrolls",
  "flags": {},
  "description": "",
  "results": [
    {
      "_id": "877WlIRA77JwXdFl",
      "flags": {},
      "type": 2,
      "text": "Uncommon Level 6 Arcane Scrolls",
      "img": "icons/svg/d20-black.svg",
      "collection": "pf1.ultimate-equipment",
      "resultId": "9ruauYSQzc8nZHNG",
      "weight": 5,
      "range": [1, 5],
      "drawn": false
    },
    {
      "_id": "A7hTZCwQcRkbGOEX",
      "flags": {},
      "type": 2,
      "text": "Uncommon Level 7 Arcane Scrolls",
      "img": "icons/svg/d20-black.svg",
      "collection": "pf1.ultimate-equipment",
      "resultId": "11CwwdZAoFkKZBub",
      "weight": 30,
      "range": [6, 35],
      "drawn": false
    },
    {
      "_id": "vzj2pKmEwNDY8WiW",
      "flags": {},
      "type": 2,
      "text": "Uncommon Level 8 Arcane Scrolls",
      "img": "icons/svg/d20-black.svg",
      "collection": "pf1.ultimate-equipment",
      "resultId": "7tvttdUlIEWLH73K",
      "weight": 35,
      "range": [36, 70],
      "drawn": false
    },
    {
      "_id": "l8WMOHlOSDy28ayF",
      "flags": {},
      "type": 2,
      "text": "Uncommon Level 9 Arcane Scrolls",
      "collection": "pf1.ultimate-equipment",
      "resultId": "m03d1an1Uhp0zKut",
      "weight": 30,
      "range": [71, 100],
      "drawn": false
    }
  ],
  "formula": "1d100",
  "replacement": true,
  "displayRoll": true,
  "ownership": {
    "default": 0
  }
}
