{
  "name": "Greater Major Shoulders",
  "flags": {},
  "description": "",
  "results": [
    {
      "_id": "aBdF7VWUlcZ88ata",
      "flags": {},
      "type": 0,
      "text": "\tCloak of Displacement, Major",
      "weight": 15,
      "range": [1, 15],
      "drawn": false
    },
    {
      "_id": "PVZ59SyDN771Y87v",
      "flags": {},
      "type": 0,
      "text": "\tWings of Flying",
      "weight": 20,
      "range": [16, 35],
      "drawn": false
    },
    {
      "_id": "NKFd1AN3vktR62fr",
      "flags": {},
      "type": 0,
      "text": "\tCloak of Etherealness",
      "weight": 20,
      "range": [36, 55],
      "drawn": false
    },
    {
      "_id": "vLnMbKrrIpdlbe0d",
      "flags": {},
      "type": 0,
      "text": "\tWings of the Gargoyle",
      "weight": 25,
      "range": [56, 80],
      "drawn": false
    },
    {
      "_id": "8LGoiUqOlt61u1ZB",
      "flags": {},
      "type": 0,
      "text": "\tWyvern Cloak",
      "weight": 20,
      "range": [81, 100],
      "drawn": false
    }
  ],
  "formula": "1d100",
  "replacement": true,
  "displayRoll": true,
  "_id": "DcS9DCq2sDXm5Qwl",
  "ownership": {
    "default": 0
  }
}
