{
  "name": "Greater Medium Chest",
  "flags": {},
  "description": "",
  "results": [
    {
      "_id": "DOMatAx7puFh1sV0",
      "flags": {},
      "type": 0,
      "text": "Vest of Stable Mutation",
      "weight": 50,
      "range": [1, 50],
      "drawn": false
    },
    {
      "_id": "JfIxoSuGIDTOJkgn",
      "flags": {},
      "type": 0,
      "text": "Spectral Shroud",
      "weight": 50,
      "range": [51, 100],
      "drawn": false
    }
  ],
  "formula": "1d100",
  "replacement": true,
  "displayRoll": true,
  "_id": "YIIbCw05vQw7rBpu",
  "ownership": {
    "default": 0
  }
}
