{
  "name": "Lesser Medium Headband",
  "flags": {},
  "description": "",
  "results": [
    {
      "_id": "h86mVNPhQE4Gajjw",
      "flags": {},
      "type": 0,
      "text": "\tHeadband of Havoc",
      "weight": 6,
      "range": [1, 6],
      "drawn": false
    },
    {
      "_id": "ZNui9nU30TOCZdxK",
      "flags": {},
      "type": 0,
      "text": "\tSerpent's Band",
      "weight": 6,
      "range": [7, 12],
      "drawn": false
    },
    {
      "_id": "rMiwtVylSYxEUHLl",
      "flags": {},
      "type": 0,
      "text": "\tHeadband of Mental Prowess +2",
      "weight": 8,
      "range": [13, 20],
      "drawn": false
    },
    {
      "_id": "hlqYpQIje2awuv2k",
      "flags": {},
      "type": 0,
      "text": "\tHunter's Band",
      "weight": 6,
      "range": [21, 26],
      "drawn": false
    },
    {
      "_id": "bmdZgvcYjpxreEvS",
      "flags": {},
      "type": 0,
      "text": "\tPhylactery of Negative Channeling",
      "weight": 8,
      "range": [27, 34],
      "drawn": false
    },
    {
      "_id": "7o8cF07NghBqsHqW",
      "flags": {},
      "type": 0,
      "text": "\tPhylactery of Positive Channeling",
      "weight": 8,
      "range": [35, 42],
      "drawn": false
    },
    {
      "_id": "sZxf9aJC9FTRhWEA",
      "flags": {},
      "type": 0,
      "text": "\tVeiled Eye",
      "weight": 6,
      "range": [43, 48],
      "drawn": false
    },
    {
      "_id": "9tWAszAH8ZhRjxSw",
      "flags": {},
      "type": 0,
      "text": "\tBand of the Stalwart Warrior",
      "weight": 6,
      "range": [49, 54],
      "drawn": false
    },
    {
      "_id": "0DDshnhOap68KiLi",
      "flags": {},
      "type": 0,
      "text": "\tHeadband of Ninjitsu",
      "weight": 6,
      "range": [55, 60],
      "drawn": false
    },
    {
      "_id": "xGmHkC7qC49hPpPT",
      "flags": {},
      "type": 0,
      "text": "\tHeadband of Alluring Charisma +4",
      "weight": 8,
      "range": [61, 68],
      "drawn": false
    },
    {
      "_id": "pt3BgNsnNAkNz3pO",
      "flags": {},
      "type": 0,
      "text": "\tHeadband of Inspired Wisdom +4",
      "weight": 8,
      "range": [69, 76],
      "drawn": false
    },
    {
      "_id": "7zIGYWuxenNYqbuw",
      "flags": {},
      "type": 0,
      "text": "\tHeadband of Mental Superiority +2",
      "weight": 9,
      "range": [77, 85],
      "drawn": false
    },
    {
      "_id": "KGdm5Xf1HUPHPYqw",
      "flags": {},
      "type": 0,
      "text": "\tHeadband of Vast Intelligence +4",
      "weight": 8,
      "range": [86, 93],
      "drawn": false
    },
    {
      "_id": "GgD4LxG107PNikrP",
      "flags": {},
      "type": 0,
      "text": "\tShift.r's Headband +4",
      "weight": 7,
      "range": [94, 100],
      "drawn": false
    }
  ],
  "formula": "1d100",
  "replacement": true,
  "displayRoll": true,
  "_id": "MtzZGwkaGWbraLdL",
  "ownership": {
    "default": 0
  }
}
