{
  "name": "Lesser Medium Neck",
  "flags": {},
  "description": "",
  "results": [
    {
      "_id": "l3hvHExBaajruJPi",
      "flags": {},
      "type": 0,
      "text": "\tAmulet of Natural Armor +2",
      "weight": 8,
      "range": [1, 8],
      "drawn": false
    },
    {
      "_id": "UdgspPlgReJdxvpT",
      "flags": {},
      "type": 0,
      "text": "\tAmulet of Proof Against Petrification",
      "weight": 4,
      "range": [9, 12],
      "drawn": false
    },
    {
      "_id": "tjSdvyvZEfOhgCka",
      "flags": {},
      "type": 0,
      "text": "\tEverwake Amulet",
      "weight": 3,
      "range": [13, 15],
      "drawn": false
    },
    {
      "_id": "GMcF0SBol6a0MIn5",
      "flags": {},
      "type": 0,
      "text": "\tGravewatch Pendant",
      "weight": 3,
      "range": [16, 18],
      "drawn": false
    },
    {
      "_id": "ovU2KbltyHduuqoA",
      "flags": {},
      "type": 0,
      "text": "\tHand of Glory",
      "weight": 5,
      "range": [19, 23],
      "drawn": false
    },
    {
      "_id": "jFcH97ujanljUcaY",
      "flags": {},
      "type": 0,
      "text": "\tTorc of Lionheart Fury",
      "weight": 3,
      "range": [24, 26],
      "drawn": false
    },
    {
      "_id": "S3FmZPJSscRY6ihe",
      "flags": {},
      "type": 0,
      "text": "\tNecklace of Fireballs (Type VI)",
      "weight": 7,
      "range": [27, 33],
      "drawn": false
    },
    {
      "_id": "DUXRsRO5lb5ghYAQ",
      "flags": {},
      "type": 0,
      "text": "\tNecklace of Fireballs (Type VII)",
      "weight": 7,
      "range": [34, 40],
      "drawn": false
    },
    {
      "_id": "pxWFq6RzBDfmetBY",
      "flags": {},
      "type": 0,
      "text": "\tAmulet of Hidden Strength",
      "weight": 3,
      "range": [41, 43],
      "drawn": false
    },
    {
      "_id": "FZiJWmGNb7sE4tIt",
      "flags": {},
      "type": 0,
      "text": "\tNecklace of Adaptation",
      "weight": 4,
      "range": [44, 47],
      "drawn": false
    },
    {
      "_id": "WD92Vz5nipxsA8KW",
      "flags": {},
      "type": 0,
      "text": "\tAmulet of Spell Cunning",
      "weight": 4,
      "range": [48, 51],
      "drawn": false
    },
    {
      "_id": "BT7gRPXiL5rvzKkU",
      "flags": {},
      "type": 0,
      "text": "\tCollar of the True Companion",
      "weight": 3,
      "range": [52, 54],
      "drawn": false
    },
    {
      "_id": "c9zRD4twv7EKkYQT",
      "flags": {},
      "type": 0,
      "text": "\tFrost Fist Amulet",
      "weight": 4,
      "range": [55, 58],
      "drawn": false
    },
    {
      "_id": "AvM1hnVqyo5pn1Ba",
      "flags": {},
      "type": 0,
      "text": "\tCrystal of Healing Hands",
      "weight": 5,
      "range": [59, 63],
      "drawn": false
    },
    {
      "_id": "eVyPGNQILhz4zTF2",
      "flags": {},
      "type": 0,
      "text": "\tGuardian Gorget",
      "weight": 3,
      "range": [64, 66],
      "drawn": false
    },
    {
      "_id": "c9ZzoGDUuumosVJ9",
      "flags": {},
      "type": 0,
      "text": "\tMedallion of Thoughts",
      "weight": 7,
      "range": [67, 73],
      "drawn": false
    },
    {
      "_id": "d2cnpdXsyE5EmT3h",
      "flags": {},
      "type": 0,
      "text": "\tPeriapt of Protection From Curses",
      "weight": 4,
      "range": [74, 77],
      "drawn": false
    },
    {
      "_id": "C4L6D6s0Ecl7MRXt",
      "flags": {},
      "type": 0,
      "text": "\tForge Fist Amulet",
      "weight": 4,
      "range": [78, 81],
      "drawn": false
    },
    {
      "_id": "3wIKCUxmkEXToKTZ",
      "flags": {},
      "type": 0,
      "text": "\tAmulet of Bullet Protection +3",
      "weight": 4,
      "range": [82, 85],
      "drawn": false
    },
    {
      "_id": "Yf2tCV6deW69pM77",
      "flags": {},
      "type": 0,
      "text": "\tPeriapt of Wound Closure",
      "weight": 7,
      "range": [86, 92],
      "drawn": false
    },
    {
      "_id": "kqMXORrp0T7sEZ8M",
      "flags": {},
      "type": 0,
      "text": "\tNecklace of Ki Serenity",
      "weight": 3,
      "range": [93, 95],
      "drawn": false
    },
    {
      "_id": "9LZJTEjKMbqUMEAp",
      "flags": {},
      "type": 0,
      "text": "\tBrooch of Amber Sparks",
      "weight": 3,
      "range": [96, 98],
      "drawn": false
    },
    {
      "_id": "jjQjRvFD6Xep1CzK",
      "flags": {},
      "type": 0,
      "text": "\tSymbol of Sanguine Protection",
      "weight": 2,
      "range": [99, 100],
      "drawn": false
    }
  ],
  "formula": "1d100",
  "replacement": true,
  "displayRoll": true,
  "_id": "Us0EQXxBecScscQQ",
  "ownership": {
    "default": 0
  }
}
