{
  "name": "Uncommon Level 7 Divine Scrolls",
  "flags": {},
  "description": "",
  "results": [
    {
      "_id": "BS5QCiiUMmzBuuUl",
      "flags": {},
      "type": 0,
      "text": "Scroll of Animate Plants",
      "img": "icons/svg/d20-black.svg",
      "resultId": "",
      "weight": 8,
      "range": [1, 8],
      "drawn": false
    },
    {
      "_id": "vEBC001jc9YzhhpZ",
      "flags": {},
      "type": 0,
      "text": "Scroll of Changestaff",
      "img": "icons/svg/d20-black.svg",
      "resultId": "",
      "weight": 9,
      "range": [9, 17],
      "drawn": false
    },
    {
      "_id": "xb9sLbKSQ2XOEu1R",
      "flags": {},
      "type": 0,
      "text": "Scroll of Circle of Clarity",
      "img": "icons/svg/d20-black.svg",
      "resultId": "",
      "weight": 7,
      "range": [18, 24],
      "drawn": false
    },
    {
      "_id": "7BoOjKittOLKv7P7",
      "flags": {},
      "type": 0,
      "text": "Scroll of Create Demiplane, Lesser",
      "img": "icons/svg/d20-black.svg",
      "resultId": "",
      "weight": 6,
      "range": [25, 30],
      "drawn": false
    },
    {
      "_id": "yfOxMEzd8GLExtVl",
      "flags": {},
      "type": 0,
      "text": "Scroll of Jolting Portent",
      "img": "icons/svg/d20-black.svg",
      "resultId": "",
      "weight": 8,
      "range": [31, 38],
      "drawn": false
    },
    {
      "_id": "Yn49YkN17wXstNzk",
      "flags": {},
      "type": 0,
      "text": "Scroll of Rampart",
      "img": "icons/svg/d20-black.svg",
      "resultId": "",
      "weight": 7,
      "range": [39, 45],
      "drawn": false
    },
    {
      "_id": "eoMzxa0mLlNLcDut",
      "flags": {},
      "type": 0,
      "text": "Scroll of Scouring Winds",
      "img": "icons/svg/d20-black.svg",
      "resultId": "",
      "weight": 8,
      "range": [46, 53],
      "drawn": false
    },
    {
      "_id": "qtCs1eZvoUDpGqnJ",
      "flags": {},
      "type": 0,
      "text": "Scroll of Siege of Trees",
      "img": "icons/svg/d20-black.svg",
      "resultId": "",
      "weight": 7,
      "range": [54, 60],
      "drawn": false
    },
    {
      "_id": "v5PEUZyAknSYrMds",
      "flags": {},
      "type": 0,
      "text": "Scroll of Transmute Metal To Wood",
      "img": "icons/svg/d20-black.svg",
      "resultId": "",
      "weight": 7,
      "range": [61, 67],
      "drawn": false
    },
    {
      "_id": "RBflwLlIzAekiQFs",
      "flags": {},
      "type": 0,
      "text": "Scroll of Vortex",
      "img": "icons/svg/d20-black.svg",
      "resultId": "",
      "weight": 9,
      "range": [68, 76],
      "drawn": false
    },
    {
      "_id": "XCg8puym3KFJzkEP",
      "flags": {},
      "type": 0,
      "text": "Scroll of Waves of Ecstasy",
      "img": "icons/svg/d20-black.svg",
      "resultId": "",
      "weight": 7,
      "range": [77, 83],
      "drawn": false
    },
    {
      "_id": "9va65ATYS5zHY62P",
      "flags": {},
      "type": 0,
      "text": "Scroll of Refuge",
      "img": "icons/svg/d20-black.svg",
      "resultId": "",
      "weight": 6,
      "range": [84, 89],
      "drawn": false
    },
    {
      "_id": "Y9Hx1vHUVMsaXA9f",
      "flags": {},
      "type": 0,
      "text": "Scroll of Symbol of Stunning",
      "img": "icons/svg/d20-black.svg",
      "resultId": "",
      "weight": 6,
      "range": [90, 95],
      "drawn": false
    },
    {
      "_id": "66b4V0x2eDPsEPCV",
      "flags": {},
      "type": 0,
      "text": "Scroll of Symbol of Weakness",
      "img": "icons/svg/d20-black.svg",
      "resultId": "",
      "weight": 5,
      "range": [96, 100],
      "drawn": false
    }
  ],
  "formula": "1d100",
  "replacement": true,
  "displayRoll": true,
  "_id": "rvHW9yquqHmQy2mI",
  "ownership": {
    "default": 0
  }
}
