{
  "_id": "YIHLiAF3zd2fJkXp",
  "name": "Haramaki",
  "type": "equipment",
  "img": "systems/pf1/icons/items/armor/haramaki.png",
  "effects": [],
  "folder": null,
  "sort": 0,
  "flags": {},
  "system": {
    "description": {
      "value": "<p>Also called a belly-warmer, a haramaki is a simple silken sash lined with chainmail or articulated metal plates and tied about the stomach to protect it.</p>"
    },
    "tags": [],
    "weight": {
      "value": 1
    },
    "price": 3,
    "hp": {
      "max": 5,
      "value": 5
    },
    "changes": [],
    "contextNotes": [],
    "actions": [],
    "attackNotes": [],
    "effectNotes": [],
    "links": {
      "children": [],
      "charges": []
    },
    "flags": {
      "boolean": [],
      "dictionary": []
    },
    "scriptCalls": [],
    "armor": {
      "value": 1
    },
    "slot": "armor"
  },
  "ownership": {
    "default": 0
  },
  "_stats": {
    "systemId": "pf1",
    "systemVersion": "0.82.1",
    "coreVersion": "10.285",
    "createdTime": 1663018757789,
    "modifiedTime": 1663018757987,
    "lastModifiedBy": "DbeAbHwpEqczKjsD"
  }
}
