{
  "_id": "2fK608aSYU9QDmzw",
  "name": "Heavy Steel Shield",
  "type": "equipment",
  "img": "systems/pf1/icons/items/armor/shield-heavy-metal.png",
  "effects": [],
  "folder": null,
  "sort": 0,
  "flags": {},
  "system": {
    "description": {
      "value": "<p>You strap a heavy steel shield to your forearm and grip it with your hand. A heavy steel shield is so heavy that you can’t use your shield hand for anything else. Whether wooden or steel, a heavy shield offers the same basic protection and attack benefits, though the two versions respond differently to some spells and effects (such as&nbsp;rusting grasp). A druid can use a heavy wooden shield, but not a heavy steel shield.</p>"
    },
    "tags": [],
    "weight": {
      "value": 15
    },
    "price": 20,
    "hp": {
      "max": 20,
      "value": 20
    },
    "hardness": 10,
    "changes": [],
    "contextNotes": [],
    "actions": [],
    "attackNotes": [],
    "effectNotes": [],
    "links": {
      "children": [],
      "charges": []
    },
    "flags": {
      "boolean": [],
      "dictionary": []
    },
    "scriptCalls": [],
    "equipmentType": "shield",
    "equipmentSubtype": "heavyShield",
    "armor": {
      "value": 2,
      "acp": 2
    },
    "spellFailure": 15,
    "slot": "shield"
  },
  "ownership": {
    "default": 0
  },
  "_stats": {
    "systemId": "pf1",
    "systemVersion": "0.82.1",
    "coreVersion": "10.285",
    "createdTime": 1663018757764,
    "modifiedTime": 1663018757983,
    "lastModifiedBy": "DbeAbHwpEqczKjsD"
  }
}
