{
  "_id": "ziXQ1DlDMGTAUOe9",
  "name": "Padded Armor",
  "type": "equipment",
  "img": "systems/pf1/icons/items/armor/padded.png",
  "effects": [],
  "folder": null,
  "sort": 0,
  "flags": {},
  "system": {
    "description": {
      "value": "<p>More than simple clothing, padded armor combines heavy, quilted cloth and layers of densely packed stuffing to create a cheap and basic protection. It is typically worn by those not intending to face lethal combat or those who wish their maneuverability to be impacted as little as possible.</p>"
    },
    "tags": [],
    "weight": {
      "value": 10
    },
    "price": 5,
    "hp": {
      "max": 5,
      "value": 5
    },
    "changes": [],
    "contextNotes": [],
    "actions": [],
    "attackNotes": [],
    "effectNotes": [],
    "links": {
      "children": [],
      "charges": []
    },
    "flags": {
      "boolean": [],
      "dictionary": []
    },
    "scriptCalls": [],
    "armor": {
      "value": 1,
      "dex": 8
    },
    "spellFailure": 5,
    "slot": "armor"
  },
  "ownership": {
    "default": 0
  },
  "_stats": {
    "systemId": "pf1",
    "systemVersion": "0.82.1",
    "coreVersion": "10.285",
    "createdTime": 1663018757818,
    "modifiedTime": 1663018757990,
    "lastModifiedBy": "DbeAbHwpEqczKjsD"
  }
}
