{
  "_id": "2LKdIUyCk6Imz6Gq",
  "name": "Reinforced Tunic",
  "type": "equipment",
  "img": "systems/pf1/icons/items/armor/reinforced-tunic.PNG",
  "effects": [],
  "folder": null,
  "sort": 0,
  "flags": {},
  "system": {
    "description": {
      "value": "<p>Sometimes called a leine, this belted tunic has thick cords woven through it that cover vital areas. A reinforced tunic’s armor bonus is increased by 2 against attack rolls made to confirm critical hits against the wearer.</p>"
    },
    "tags": [],
    "weight": {
      "value": 5
    },
    "price": 1,
    "hp": {
      "max": 5,
      "value": 5
    },
    "changes": [],
    "contextNotes": [],
    "actions": [],
    "attackNotes": [],
    "effectNotes": [],
    "links": {
      "children": [],
      "charges": []
    },
    "flags": {
      "boolean": [],
      "dictionary": []
    },
    "scriptCalls": [],
    "armor": {
      "value": 1,
      "dex": 5
    },
    "spellFailure": 5,
    "slot": "armor"
  },
  "ownership": {
    "default": 0
  },
  "_stats": {
    "systemId": "pf1",
    "systemVersion": "0.82.1",
    "coreVersion": "10.285",
    "createdTime": 1663018757763,
    "modifiedTime": 1663018757983,
    "lastModifiedBy": "DbeAbHwpEqczKjsD"
  }
}
