{
  "_id": "gcw5rPJ8u0i6IjhV",
  "name": "Rosewood Armor",
  "type": "equipment",
  "img": "systems/pf1/icons/items/armor/rosewood.png",
  "effects": [],
  "folder": null,
  "sort": 0,
  "flags": {},
  "system": {
    "description": {
      "value": "<p>This suit of leather armor is wrapped in special rose vines. Treat this as leather armor with armor spikes. The vines must be watered with at least 1 gallon of water each day or they wither and die, turning the armor into normal leather armor.</p>"
    },
    "tags": [],
    "weight": {
      "value": 15
    },
    "price": 50,
    "hardness": 2,
    "changes": [],
    "contextNotes": [],
    "actions": [],
    "attackNotes": [],
    "effectNotes": [],
    "links": {
      "children": [],
      "charges": []
    },
    "flags": {
      "boolean": [],
      "dictionary": []
    },
    "scriptCalls": [],
    "armor": {
      "value": 2,
      "dex": 6
    },
    "spellFailure": 10,
    "slot": "armor"
  },
  "ownership": {
    "default": 0
  },
  "_stats": {
    "systemId": "pf1",
    "systemVersion": "0.82.1",
    "coreVersion": "10.285",
    "createdTime": 1663018757795,
    "modifiedTime": 1663018757988,
    "lastModifiedBy": "DbeAbHwpEqczKjsD"
  }
}
