{
  "name": "Middle Age (Age Category)",
  "type": "feat",
  "img": "icons/magic/time/hourglass-tilted-gray.webp",
  "effects": [],
  "folder": null,
  "sort": 0,
  "flags": {},
  "_id": "gHAQp2ABmWxcrFAM",
  "system": {
    "description": {
      "value": "<p>You suffer a -1 penalty to your physical ability scores, and gain a +1 to your mental ability scores, due to your age category.</p>"
    },
    "tags": [],
    "actions": [],
    "attackNotes": [],
    "effectNotes": [],
    "changes": [
      {
        "_id": "ngi43p28",
        "formula": "-min(1, @abilities.str.total - 1)",
        "operator": "add",
        "subTarget": "str",
        "modifier": "untypedPerm",
        "priority": -500,
        "value": -1
      },
      {
        "_id": "kndqvezz",
        "formula": "-min(1, @abilities.dex.total - 1)",
        "operator": "add",
        "subTarget": "dex",
        "modifier": "untypedPerm",
        "priority": -500,
        "value": -1
      },
      {
        "_id": "1ose1les",
        "formula": "-min(1, @abilities.con.total - 1)",
        "operator": "add",
        "subTarget": "con",
        "modifier": "untypedPerm",
        "priority": -500,
        "value": -1
      },
      {
        "_id": "70k8rdw0",
        "formula": "1",
        "operator": "add",
        "subTarget": "int",
        "modifier": "untypedPerm",
        "priority": 0,
        "value": 1
      },
      {
        "_id": "81zqir3h",
        "formula": "1",
        "operator": "add",
        "subTarget": "wis",
        "modifier": "untypedPerm",
        "priority": 0,
        "value": 1
      },
      {
        "_id": "c8y6ubiw",
        "formula": "1",
        "operator": "add",
        "subTarget": "cha",
        "modifier": "untypedPerm",
        "priority": 0,
        "value": 1
      }
    ],
    "contextNotes": [],
    "links": {
      "children": [],
      "charges": []
    },
    "armorProf": {
      "value": []
    },
    "weaponProf": {
      "value": []
    },
    "languages": {
      "value": []
    },
    "flags": {
      "boolean": [],
      "dictionary": []
    },
    "scriptCalls": [],
    "featType": "misc",
    "associations": {
      "classes": []
    }
  },
  "ownership": {
    "default": 0
  },
  "_stats": {
    "systemId": "pf1",
    "systemVersion": "0.82.1",
    "coreVersion": "10.285",
    "createdTime": 1663018785778,
    "modifiedTime": 1663018786848,
    "lastModifiedBy": "DbeAbHwpEqczKjsD"
  }
}
