{
  "_id": "3fNdl7eIUJ5d5fwg",
  "name": "Improved Two-Weapon Fighting",
  "type": "feat",
  "img": "systems/pf1/icons/feats/improved-two-weapon-fighting.jpg",
  "effects": [],
  "folder": null,
  "sort": 0,
  "flags": {},
  "system": {
    "description": {
      "value": "\n                <i>You are skilled at fighting with two weapons.</i>\n                <br />\n                <br />\n                \n                <p><b>Prerequisites</b></p>\n                <p> Dex 17, Two-Weapon Fighting, base attack bonus +6.</p>\n                \n            <br />\n                <p><b>Benefits</b></p>\n                <p><p class=\"stat-block-1\"> In addition to the standard single extra attack you get with an off-hand weapon, you get a second attack with it, albeit at a &ndash;5 penalty.</p></p>\n                \n            <br />\n                <p><b>Normal</b></p>\n                <p><p class=\"stat-block-1\"> Without this feat, you can only get a single extra attack with an off-hand weapon.</p></p>\n                \n            \n            "
    },
    "tags": [["Combat"], ["Weapon"], ["Two Weapons"], ["Offensive"]],
    "actions": [],
    "attackNotes": [],
    "effectNotes": [],
    "changes": [],
    "contextNotes": [],
    "links": {
      "children": [],
      "charges": []
    },
    "tag": "feat_improvedTwoweaponFighting",
    "useCustomTag": true,
    "armorProf": {
      "value": []
    },
    "weaponProf": {
      "value": []
    },
    "languages": {
      "value": []
    },
    "scriptCalls": [],
    "associations": {
      "classes": []
    }
  },
  "ownership": {
    "default": 0
  },
  "_stats": {
    "systemId": "pf1",
    "systemVersion": "0.82.1",
    "coreVersion": "10.285",
    "createdTime": 1663018751745,
    "modifiedTime": 1663018752329,
    "lastModifiedBy": "DbeAbHwpEqczKjsD"
  }
}
