{
  "_id": "L10V7jTzmMYz62zz",
  "name": "Persuasive",
  "type": "feat",
  "img": "systems/pf1/icons/feats/persuasive.jpg",
  "effects": [],
  "folder": null,
  "sort": 0,
  "flags": {},
  "system": {
    "description": {
      "value": "\n                <i>You are skilled at swaying attitudes and intimidating others into your way of thinking.</i>\n                <br />\n                <br />\n                \n                <p><b>Benefits</b></p>\n                <p><p class=\"stat-block-1\"> You get a +2 bonus on Diplomacy and Intimidate skill checks. If you have 10 or more ranks in one of these skills, the bonus increases to +4 for that skill.</p></p>\n                \n            \n            "
    },
    "tags": [["General"], ["Skill"]],
    "actions": [],
    "attackNotes": [],
    "effectNotes": [],
    "changes": [
      {
        "_id": "dxpiteim",
        "formula": "@skills.dip.rank>=10?4:2",
        "operator": "add",
        "subTarget": "skill.dip",
        "modifier": "untyped",
        "priority": 0,
        "value": 0,
        "target": "skill"
      },
      {
        "_id": "phdvf0la",
        "formula": "@skills.int.rank>=10?4:2",
        "operator": "add",
        "subTarget": "skill.int",
        "modifier": "untyped",
        "priority": 0,
        "value": 0,
        "target": "skill"
      }
    ],
    "contextNotes": [],
    "links": {
      "children": [],
      "charges": []
    },
    "tag": "feat_persuasive",
    "useCustomTag": true,
    "armorProf": {
      "value": []
    },
    "weaponProf": {
      "value": []
    },
    "languages": {
      "value": []
    },
    "scriptCalls": [],
    "associations": {
      "classes": []
    }
  },
  "ownership": {
    "default": 0
  },
  "_stats": {
    "systemId": "pf1",
    "systemVersion": "0.82.1",
    "coreVersion": "10.285",
    "createdTime": 1663018751797,
    "modifiedTime": 1663018752332,
    "lastModifiedBy": "DbeAbHwpEqczKjsD"
  }
}
