{
  "_id": "8rsFtye3PwM6CKli",
  "name": "Point-Blank Shot",
  "type": "feat",
  "img": "systems/pf1/icons/feats/point-blank-shot.jpg",
  "effects": [],
  "folder": null,
  "sort": 0,
  "flags": {},
  "system": {
    "description": {
      "value": "<p><em>You are especially accurate when making ranged attacks against close targets.</em><br /><br /><strong>Benefits</strong><br />You get a +1 bonus on attack and damage rolls with ranged weapons at ranges of up to 30 feet.<br /><br /><strong>Combat Trick</strong><br />You can spend up to 6 stamina points to increase this feat's range by 5 feet for each stamina point you spent.</p>"
    },
    "tags": [["PFS"], ["Combat"]],
    "actions": [],
    "attackNotes": [],
    "effectNotes": [],
    "changes": [],
    "contextNotes": [
      {
        "subTarget": "attack",
        "target": "attacks",
        "text": "+1 bonus on attack and damage rolls with ranged weapons at ranges of up to 30 feet."
      }
    ],
    "links": {
      "children": [],
      "charges": []
    },
    "tag": "feat_pointblankShot",
    "useCustomTag": true,
    "armorProf": {
      "value": []
    },
    "weaponProf": {
      "value": []
    },
    "languages": {
      "value": []
    },
    "scriptCalls": [],
    "associations": {
      "classes": []
    }
  },
  "ownership": {
    "default": 0
  },
  "_stats": {
    "systemId": "pf1",
    "systemVersion": "0.82.1",
    "coreVersion": "10.285",
    "createdTime": 1663018751760,
    "modifiedTime": 1663018752330,
    "lastModifiedBy": "DbeAbHwpEqczKjsD"
  }
}
