{
  "_id": "9FBT6uqlRgaw9gug",
  "name": "Changeling",
  "type": "race",
  "img": "systems/pf1/icons/races/changeling.png",
  "effects": [],
  "folder": null,
  "sort": 0,
  "flags": {},
  "system": {
    "description": {
      "value": "<h2>Starting Age</h2>\n<table style=\"border-spacing: 0px; background-color: #ffffff; margin: 10px; table-layout: fixed; border-color: #888888; min-width: 200px; color: #333333; font-family: Varela, sans-serif;\" border=\"1\" cellpadding=\"5\">\n<thead style=\"box-sizing: border-box; background-color: #cfe2f3;\">\n<tr style=\"box-sizing: border-box;\">\n<th class=\"text\" style=\"box-sizing: border-box; padding: 2px; text-align: left; border: 1px solid #888888;\">Adulthood</th>\n<th class=\"text\" style=\"box-sizing: border-box; padding: 2px; text-align: left; border: 1px solid #888888;\">Intuitive<span style=\"box-sizing: border-box; position: relative; font-size: 10px; line-height: 0; vertical-align: baseline; top: -0.5em;\">1</span></th>\n<th class=\"text\" style=\"box-sizing: border-box; padding: 2px; text-align: left; border: 1px solid #888888;\">Self-Taught<span style=\"box-sizing: border-box; position: relative; font-size: 10px; line-height: 0; vertical-align: baseline; top: -0.5em;\">2</span></th>\n<th class=\"text\" style=\"box-sizing: border-box; padding: 2px; text-align: left; border: 1px solid #888888;\">Trained<span style=\"box-sizing: border-box; position: relative; font-size: 10px; line-height: 0; vertical-align: baseline; top: -0.5em;\">3</span></th>\n</tr>\n</thead>\n<tbody style=\"box-sizing: border-box;\">\n<tr style=\"box-sizing: border-box;\">\n<td class=\"text\" style=\"box-sizing: border-box; padding: 2px; vertical-align: top; border: 1px solid #888888;\">15 years</td>\n<td class=\"text\" style=\"box-sizing: border-box; padding: 2px; vertical-align: top; border: 1px solid #888888;\">+1d4 years<br style=\"box-sizing: border-box;\" />(16 &ndash; 19 years)</td>\n<td class=\"text\" style=\"box-sizing: border-box; padding: 2px; vertical-align: top; border: 1px solid #888888;\">+1d6 years<br style=\"box-sizing: border-box;\" />(16 &ndash; 21 years)</td>\n<td class=\"text\" style=\"box-sizing: border-box; padding: 2px; vertical-align: top; border: 1px solid #888888;\">+2d6 years<br style=\"box-sizing: border-box;\" />(17 &ndash; 27 years)</td>\n</tr>\n</tbody>\n</table>\n<p><sup style=\"box-sizing: border-box; user-select: text; color: #191813;\">1</sup><span style=\"color: #191813; font-size: 13px;\">&nbsp;This category includes barbarians, oracles, rogues, and sorcerers.</span><br style=\"box-sizing: border-box; user-select: text; color: #191813; font-size: 13px;\" /><sup style=\"box-sizing: border-box; user-select: text; color: #191813;\">2</sup><span style=\"color: #191813; font-size: 13px;\">&nbsp;This category includes bards, cavaliers, fighters, gunslingers, paladins, rangers, summoners, and witches.</span><br style=\"box-sizing: border-box; user-select: text; color: #191813; font-size: 13px;\" /><sup style=\"box-sizing: border-box; user-select: text; color: #191813;\">3</sup><span style=\"color: #191813; font-size: 13px;\"> This category includes alchemists, clerics, druids, inquisitors, magi, monks, and wizards.</span></p>\n<h2>Height and Weight</h2>\n<table style=\"border-spacing: 0px; background-color: #ffffff; margin: 10px; table-layout: fixed; border-color: #888888; min-width: 200px; color: #333333; font-family: Varela, sans-serif;\" border=\"1\" cellpadding=\"5\">\n<thead style=\"box-sizing: border-box; background-color: #cfe2f3;\">\n<tr style=\"box-sizing: border-box;\">\n<th class=\"text\" style=\"box-sizing: border-box; padding: 2px; text-align: left; border: 1px solid #888888;\">Base Height</th>\n<th class=\"text\" style=\"box-sizing: border-box; padding: 2px; text-align: left; border: 1px solid #888888;\">Height Modifier</th>\n<th class=\"text\" style=\"box-sizing: border-box; padding: 2px; text-align: left; border: 1px solid #888888;\">Base Weight</th>\n<th class=\"text\" style=\"box-sizing: border-box; padding: 2px; text-align: left; border: 1px solid #888888;\">Weight Modifier</th>\n</tr>\n</thead>\n<tbody style=\"box-sizing: border-box;\">\n<tr style=\"box-sizing: border-box;\">\n<td class=\"text\" style=\"box-sizing: border-box; padding: 2px; vertical-align: top; border: 1px solid #888888;\">5 ft. 2 in.</td>\n<td class=\"text\" style=\"box-sizing: border-box; padding: 2px; vertical-align: top; border: 1px solid #888888;\">+2d4 in.<br style=\"box-sizing: border-box;\" />(5 ft. 4 in. &ndash; 5 ft. 10 in.)</td>\n<td class=\"text\" style=\"box-sizing: border-box; padding: 2px; vertical-align: top; border: 1px solid #888888;\">85 lbs.</td>\n<td class=\"text\" style=\"box-sizing: border-box; padding: 2px; vertical-align: top; border: 1px solid #888888;\">+(2d4&times;5 lbs.)<br style=\"box-sizing: border-box;\" />(95 &ndash; 125 lbs.)</td>\n</tr>\n</tbody>\n</table>\n<h2>Standard Racial Traits</h2>\n<ul>\n<li><strong>Ability Score Modifiers</strong>: Changelings are frail, but are clever and comely. They gain +2&nbsp;<a href=\"https://www.d20pfsrd.com/basics-ability-scores/ability-scores#TOC-Wisdom-Wis-\">Wisdom</a>, +2&nbsp;<a href=\"https://www.d20pfsrd.com/basics-ability-scores/ability-scores#TOC-Charisma-Cha-\">Charisma</a>, &ndash;2&nbsp;<a href=\"https://www.d20pfsrd.com/basics-ability-scores/ability-scores#TOC-Constitution-Con-\">Constitution</a>.</li>\n<li><strong>Size:</strong> Changelings are Medium creatures and have no bonuses or penalties due to their size.</li>\n<li><strong>Type:</strong> Changelings are&nbsp;<a href=\"https://www.d20pfsrd.com/bestiary/rules-for-monsters/creature-types#TOC-Humanoid\">humanoids</a>&nbsp;with the changeling subtype.</li>\n<li><strong>Base Speed</strong>: Changelings have a base speed of 30 feet.</li>\n<li><strong>Languages:</strong> Changelings begin play speaking Common and the primary language of their host society. Changelings with high&nbsp;<a href=\"https://www.d20pfsrd.com/basics-ability-scores/ability-scores#TOC-Intelligence-Int-\">Intelligence</a>&nbsp;scores can choose from the following: Aklo, Draconic, Dwarven, Elven, Giant, Gnoll, Goblin, and Orc.</li>\n</ul>\n<h3>Defense Racial Traits</h3>\n<ul>\n<li><strong>Natural Armor</strong>: Changelings have a +1&nbsp;<a href=\"https://www.d20pfsrd.com/basics-ability-scores/glossary#TOC-Natural-Armor-Bonus\">natural armor bonus</a>.</li>\n</ul>\n<h3>Offense Racial Traits</h3>\n<ul>\n<li><strong>Claws:</strong> Changelings&rsquo; fingernails are hard and sharp, granting them two claw attacks (1d4 points of damage each).</li>\n</ul>\n<h3>Senses Racial Traits</h3>\n<ul>\n<li><strong>Darkvision:</strong> Changelings see perfectly in the dark up to 60 feet.</li>\n</ul>\n<h3>Other Racial Traits</h3>\n<p>A changeling inherits one of the following racial traits, depending on her mother&rsquo;s&nbsp;<a href=\"https://www.d20pfsrd.com/bestiary/monster-listings/monstrous-humanoids/hag\">hag</a>&nbsp;type:</p>\n<ul>\n<li>Hulking Changeling&nbsp;(<a href=\"https://www.d20pfsrd.com/bestiary/monster-listings/monstrous-humanoids/hag/hag-annis\">Annis Hag</a>): The changeling gains a +1&nbsp;<a href=\"https://www.d20pfsrd.com/basics-ability-scores/glossary#TOC-Racial-Bonus\">racial bonus</a>&nbsp;on melee damage.</li>\n<li>Pyrophile&nbsp;(<a href=\"https://www.d20pfsrd.com/bestiary/monster-listings/monstrous-humanoids/hag/hag-ash\">Ash Hag</a>): The changeling gains a +1&nbsp;<a href=\"https://www.d20pfsrd.com/basics-ability-scores/glossary#TOC-Racial-Bonus\">racial bonus</a>&nbsp;on damage rolls when using spells with the&nbsp;<a href=\"https://www.d20pfsrd.com/magic#TOC-Magic-Descriptor-Fire\">fire descriptor</a>. This bonus increases by 1 for every 4 levels the changeling has beyond 1st.</li>\n<li>Green Widow&nbsp;(<a href=\"https://www.d20pfsrd.com/bestiary/monster-listings/monstrous-humanoids/hag/hag-green\">Green Hag</a>): The changeling gains a +2&nbsp;<a href=\"https://www.d20pfsrd.com/basics-ability-scores/glossary#TOC-Racial-Bonus\">racial bonus</a> on @Compendium[pf1.skills.pAB2PYkZO3lsmeaC]{Bluff}&nbsp;checks against creatures that are sexually attracted to her.</li>\n<li>Sea Lungs&nbsp;(<a href=\"https://www.d20pfsrd.com/bestiary/monster-listings/monstrous-humanoids/hag/hag-sea\">Sea Hag</a>): The changeling may hold her breath for a number of rounds equal to three times her&nbsp;<a href=\"https://www.d20pfsrd.com/basics-ability-scores/ability-scores#TOC-Constitution-Con-\">Constitution</a>&nbsp;before she risks drowning.</li>\n<li>Gaze Blindness&nbsp;(<a href=\"https://www.d20pfsrd.com/bestiary/monster-listings/monstrous-humanoids/hag/hag-mute\">Mute Hag</a>): The changeling gains a +2 racial bonus on saving throws against gaze attacks.</li>\n<li>Heartstone Heritor&nbsp;(<a href=\"https://www.d20pfsrd.com/bestiary/monster-listings/monstrous-humanoids/hag/hag-night\">Night Hag</a>): The changeling gains a +2 racial bonus on saving throws against disease.</li>\n<li>Ice Climber&nbsp;(<a href=\"https://www.d20pfsrd.com/bestiary/monster-listings/monstrous-humanoids/hag/winter-hag\">Winter Hag</a>): The changeling gains a +5 racial bonus on @Compendium[pf1.skills.xvua9V5Zggkc77Gt]{Climb} checks on icy or slippery surfaces.</li>\n<li>Inscrutable&nbsp;(<a href=\"https://www.d20pfsrd.com/bestiary/monster-listings/monstrous-humanoids/hag/hag-blood\">Blood Hag</a>): The @Compendium[pf1.skills.R8HGxGCKayOl15AO]{Sense Motive} check DC to gain a hunch about the changeling increases by 5.</li>\n<li>Wind Breaker&nbsp;(<a href=\"https://www.d20pfsrd.com/bestiary/monster-listings/monstrous-humanoids/hag/hag-storm\">Storm Hag</a>): The changeling is treated as two size categories larger for the purpose of resolving wind effects.</li>\n</ul>"
    },
    "tags": [],
    "changes": [
      {
        "_id": "wu6qp5qn",
        "formula": "2",
        "operator": "add",
        "subTarget": "wis",
        "modifier": "racial",
        "priority": 0,
        "value": 0,
        "target": "ability"
      },
      {
        "_id": "hkksqjy8",
        "formula": "2",
        "operator": "add",
        "subTarget": "cha",
        "modifier": "racial",
        "priority": 0,
        "value": 0,
        "target": "ability"
      },
      {
        "_id": "kphearck",
        "formula": "-2",
        "operator": "add",
        "subTarget": "con",
        "modifier": "racial",
        "priority": 0,
        "value": 0,
        "target": "ability"
      },
      {
        "_id": "mi36e33k",
        "formula": "1",
        "operator": "add",
        "subTarget": "nac",
        "modifier": "base",
        "priority": 0,
        "value": 0,
        "target": "ac"
      }
    ],
    "contextNotes": [],
    "links": {
      "children": []
    },
    "armorProf": {
      "value": []
    },
    "weaponProf": {
      "value": []
    },
    "languages": {
      "value": ["common"]
    },
    "flags": {
      "boolean": [],
      "dictionary": []
    },
    "scriptCalls": [],
    "subTypes": [["Changeling"]]
  },
  "ownership": {
    "default": 0
  },
  "_stats": {
    "systemId": "pf1",
    "systemVersion": "0.82.1",
    "coreVersion": "10.285",
    "createdTime": 1663018760910,
    "modifiedTime": 1663018761156,
    "lastModifiedBy": "DbeAbHwpEqczKjsD"
  }
}
