{
  "_id": "aQ8RQYKVd2hqI4jh",
  "name": "Samsaran",
  "type": "race",
  "img": "systems/pf1/icons/feats/blinding-critical.jpg",
  "effects": [],
  "folder": null,
  "sort": 0,
  "flags": {},
  "system": {
    "description": {
      "value": "<h2>Starting Age</h2>\n<table style=\"border-spacing: 0px; background-color: #ffffff; margin: 10px; table-layout: fixed; border-color: #888888; min-width: 200px; color: #333333; font-family: Varela, sans-serif;\" border=\"1\" cellpadding=\"5\">\n<thead style=\"box-sizing: border-box; background-color: #cfe2f3;\">\n<tr style=\"box-sizing: border-box;\">\n<th class=\"text\" style=\"box-sizing: border-box; padding: 2px; text-align: left; border: 1px solid #888888;\">Adulthood</th>\n<th class=\"text\" style=\"box-sizing: border-box; padding: 2px; text-align: left; border: 1px solid #888888;\">Intuitive<span style=\"box-sizing: border-box; position: relative; font-size: 10px; line-height: 0; vertical-align: baseline; top: -0.5em;\">1</span></th>\n<th class=\"text\" style=\"box-sizing: border-box; padding: 2px; text-align: left; border: 1px solid #888888;\">Self-Taught<span style=\"box-sizing: border-box; position: relative; font-size: 10px; line-height: 0; vertical-align: baseline; top: -0.5em;\">2</span></th>\n<th class=\"text\" style=\"box-sizing: border-box; padding: 2px; text-align: left; border: 1px solid #888888;\">Trained<span style=\"box-sizing: border-box; position: relative; font-size: 10px; line-height: 0; vertical-align: baseline; top: -0.5em;\">3</span></th>\n</tr>\n</thead>\n<tbody style=\"box-sizing: border-box;\">\n<tr style=\"box-sizing: border-box;\">\n<td class=\"text\" style=\"box-sizing: border-box; padding: 2px; vertical-align: top; border: 1px solid #888888;\">60 years</td>\n<td class=\"text\" style=\"box-sizing: border-box; padding: 2px; vertical-align: top; border: 1px solid #888888;\">+4d6 years<br style=\"box-sizing: border-box;\">(64 – 84 years)</td>\n<td class=\"text\" style=\"box-sizing: border-box; padding: 2px; vertical-align: top; border: 1px solid #888888;\">+6d6 years<br style=\"box-sizing: border-box;\">(66 – 96 years)</td>\n<td class=\"text\" style=\"box-sizing: border-box; padding: 2px; vertical-align: top; border: 1px solid #888888;\">+8d6 years<br style=\"box-sizing: border-box;\">(68 – 108 years)</td>\n</tr>\n</tbody>\n</table>\n<p><sup style=\"box-sizing: border-box; user-select: text; color: #191813;\">1</sup><span style=\"color: #191813; font-size: 13px;\">&nbsp;This category includes barbarians, oracles, rogues, and sorcerers.</span><br style=\"box-sizing: border-box; user-select: text; color: #191813; font-size: 13px;\"><sup style=\"box-sizing: border-box; user-select: text; color: #191813;\">2</sup><span style=\"color: #191813; font-size: 13px;\">&nbsp;This category includes bards, cavaliers, fighters, gunslingers, paladins, rangers, summoners, and witches.</span><br style=\"box-sizing: border-box; user-select: text; color: #191813; font-size: 13px;\"><sup style=\"box-sizing: border-box; user-select: text; color: #191813;\">3</sup><span style=\"color: #191813; font-size: 13px;\"> This category includes alchemists, clerics, druids, inquisitors, magi, monks, and wizards.</span></p>\n<h2>Height and Weight</h2>\n<table style=\"border-spacing: 0px; background-color: #ffffff; margin: 10px; table-layout: fixed; border-color: #888888; min-width: 200px; color: #333333; font-family: Varela, sans-serif;\" border=\"1\" cellpadding=\"5\">\n<thead style=\"box-sizing: border-box; background-color: #cfe2f3;\">\n<tr style=\"box-sizing: border-box;\">\n<th class=\"text\" style=\"box-sizing: border-box; padding: 2px; text-align: left; border: 1px solid #888888;\">Gender</th>\n<th class=\"text\" style=\"box-sizing: border-box; padding: 2px; text-align: left; border: 1px solid #888888;\">Base Height</th>\n<th class=\"text\" style=\"box-sizing: border-box; padding: 2px; text-align: left; border: 1px solid #888888;\">Height Modifier</th>\n<th class=\"text\" style=\"box-sizing: border-box; padding: 2px; text-align: left; border: 1px solid #888888;\">Base Weight</th>\n<th class=\"text\" style=\"box-sizing: border-box; padding: 2px; text-align: left; border: 1px solid #888888;\">Weight Modifier</th>\n</tr>\n</thead>\n<tbody style=\"box-sizing: border-box;\">\n<tr style=\"box-sizing: border-box;\">\n<td class=\"text\" style=\"box-sizing: border-box; padding: 2px; vertical-align: top; border: 1px solid #888888;\">Male</td>\n<td class=\"text\" style=\"box-sizing: border-box; padding: 2px; vertical-align: top; border: 1px solid #888888;\">5 ft. 4 in.</td>\n<td class=\"text\" style=\"box-sizing: border-box; padding: 2px; vertical-align: top; border: 1px solid #888888;\">+2d8 in.<br style=\"box-sizing: border-box;\">(5 ft. 6 in. – 6 ft. 8 in.)</td>\n<td class=\"text\" style=\"box-sizing: border-box; padding: 2px; vertical-align: top; border: 1px solid #888888;\">110 lbs.</td>\n<td class=\"text\" style=\"box-sizing: border-box; padding: 2px; vertical-align: top; border: 1px solid #888888;\">+(2d8×5 lbs.)<br style=\"box-sizing: border-box;\">(120 – 190 lbs.)</td>\n</tr>\n<tr style=\"box-sizing: border-box; background-color: #f3f3f3;\">\n<td class=\"text\" style=\"box-sizing: border-box; padding: 2px; vertical-align: top; border: 1px solid #888888;\">Female</td>\n<td class=\"text\" style=\"box-sizing: border-box; padding: 2px; vertical-align: top; border: 1px solid #888888;\">5 ft. 6 in.</td>\n<td class=\"text\" style=\"box-sizing: border-box; padding: 2px; vertical-align: top; border: 1px solid #888888;\">+2d8 in.<br style=\"box-sizing: border-box;\">(5 ft. 8 in. – 6 ft. 10 in.)</td>\n<td class=\"text\" style=\"box-sizing: border-box; padding: 2px; vertical-align: top; border: 1px solid #888888;\">110 lbs.</td>\n<td class=\"text\" style=\"box-sizing: border-box; padding: 2px; vertical-align: top; border: 1px solid #888888;\">+(2d8×5 lbs.)<br style=\"box-sizing: border-box;\">(120 – 190 lbs.)</td>\n</tr>\n</tbody>\n</table>\n<h2>Standard Racial Traits</h2>\n<ul>\n<li><strong>Ability Score Modifiers:</strong> Samsarans are insightful and strong-minded, but their bodies tend to be frail. They gain +2&nbsp;<a href=\"https://www.d20pfsrd.com/basics-ability-scores/ability-scores#TOC-Intelligence-Int-\">Intelligence</a>, +2&nbsp;<a href=\"https://www.d20pfsrd.com/basics-ability-scores/ability-scores#TOC-Wisdom-Wis-\">Wisdom</a>, and –2&nbsp;<a href=\"https://www.d20pfsrd.com/basics-ability-scores/ability-scores#TOC-Constitution-Con-\">Constitution</a>.</li>\n<li><strong>Size:</strong> Samsarans are Medium creatures and thus have no bonuses or penalties due to their size.</li>\n<li><strong>Type:</strong> Samsarans are&nbsp;<a href=\"https://www.d20pfsrd.com/bestiary/rules-for-monsters/creature-types#TOC-Humanoid\">humanoids</a>&nbsp;with the samsaran subtype.</li>\n<li><strong>Base Speed:</strong> Samsarans have a base speed of 30 feet.</li>\n<li><strong>Languages:</strong> Samsarans begin play speaking Common and Samsaran. Samsarans with high&nbsp;<a href=\"https://www.d20pfsrd.com/basics-ability-scores/ability-scores#TOC-Intelligence-Int-\">Intelligence</a>&nbsp;scores can choose from the following: any&nbsp;<a href=\"https://www.d20pfsrd.com/races/core-races/human\">human</a>&nbsp;language, Abyssal, Aquan, Auran, Celestial, Draconic, Giant, Ignan, Infernal, Nagaji, Tengu, and Terran. See the&nbsp;<a href=\"https://www.d20pfsrd.com/skills/linguistics\">Linguistics skill page</a>&nbsp;for more information about these languages.</li>\n</ul>\n<h3>Skill Racial Traits</h3>\n<ul>\n<li><strong>Shards of the Past (Ex):</strong> A samsaran’s past lives grant her bonuses on two particular skills. A samsaran chooses two skills—she gains a +2&nbsp;<a href=\"https://www.d20pfsrd.com/basics-ability-scores/glossary#TOC-Racial-Bonus\">racial bonus</a>&nbsp;on both of these skills, and they are treated as class skills regardless of what class she actually takes.</li>\n</ul>\n<h3>Magical Racial Traits</h3>\n<ul>\n<li><strong>Samsaran Magic (Sp):</strong> Samsarans with a&nbsp;<a href=\"https://www.d20pfsrd.com/basics-ability-scores/ability-scores#TOC-Charisma-Cha-\">Charisma</a>&nbsp;score of 11 or higher gain the following&nbsp;<a href=\"https://www.d20pfsrd.com/magic#TOC-Spell-Like-Abilities-Sp-\">spell-like abilities</a>:&nbsp;1/day—<a href=\"https://www.d20pfsrd.com/magic/all-spells/c/comprehend-languages\">comprehend languages</a>,&nbsp;<a href=\"https://www.d20pfsrd.com/magic/all-spells/d/deathwatch\">deathwatch</a>, and&nbsp;<a href=\"https://www.d20pfsrd.com/magic/all-spells/s/stabilize\">stabilize</a>. The&nbsp;<a href=\"https://www.d20pfsrd.com/magic#TOC-Caster-Level\">caster level</a>&nbsp;for these effects is equal to the samsaran’s level.</li>\n</ul>\n<h3>Defensive Racial Traits</h3>\n<ul>\n<li><strong>Lifebound (Ex):</strong> Samsarans gain a +2&nbsp;<a href=\"https://www.d20pfsrd.com/basics-ability-scores/glossary#TOC-Racial-Bonus\">racial bonus</a>&nbsp;on all saving throws made to resist death effects, saving throws against negative energy effects,&nbsp;<a href=\"https://www.d20pfsrd.com/gamemastering/combat#TOC-Fortitude\">Fortitude</a>&nbsp;saves made to remove&nbsp;<a href=\"https://www.d20pfsrd.com/gamemastering/special-abilities#TOC-Energy-Drain-and-Negative-Levels\">negative levels</a>, and&nbsp;<a href=\"https://www.d20pfsrd.com/basics-ability-scores/ability-scores#TOC-Constitution-Con-\">Constitution</a>&nbsp;checks made to&nbsp;<a href=\"https://www.d20pfsrd.com/gamemastering/conditions#TOC-Stable\">stabilize</a>&nbsp;if reduced to negative&nbsp;<a href=\"https://www.d20pfsrd.com/gamemastering/combat#TOC-Hit-Points\">hit points</a>.</li>\n</ul>\n<h3>Senses Racial Traits</h3>\n<ul>\n<li><strong>Low-Light Vision:</strong> Samsarans can see twice as far as&nbsp;<a href=\"https://www.d20pfsrd.com/races/core-races/human\">humans</a>&nbsp;in conditions of dim light.</li>\n</ul>"
    },
    "tags": [],
    "changes": [
      {
        "_id": "i7ogkbqa",
        "formula": "2",
        "operator": "+",
        "subTarget": "int",
        "modifier": "racial",
        "priority": 0,
        "value": 0,
        "target": "ability"
      },
      {
        "_id": "y67wmzss",
        "formula": "2",
        "operator": "+",
        "subTarget": "wis",
        "modifier": "racial",
        "priority": 0,
        "value": 0,
        "target": "ability"
      },
      {
        "_id": "8pc9oise",
        "formula": "-2",
        "operator": "+",
        "subTarget": "con",
        "modifier": "racial",
        "priority": 0,
        "value": 0,
        "target": "ability"
      }
    ],
    "contextNotes": [],
    "links": {
      "children": []
    },
    "armorProf": {
      "value": []
    },
    "weaponProf": {
      "value": []
    },
    "languages": {
      "value": ["common"],
      "custom": "Samsaran"
    },
    "flags": {
      "boolean": [],
      "dictionary": []
    },
    "scriptCalls": [],
    "subTypes": [["Samsaran"]]
  },
  "ownership": {
    "default": 0
  },
  "_stats": {
    "systemId": "pf1",
    "systemVersion": "0.82.1",
    "coreVersion": "10.285",
    "createdTime": 1663018760948,
    "modifiedTime": 1663018761159,
    "lastModifiedBy": "DbeAbHwpEqczKjsD"
  }
}
