{
  "_id": "TaRfSanfIvyJeCdm",
  "name": "Blunt Arrow",
  "type": "loot",
  "img": "systems/pf1/icons/items/weapons/arrow.PNG",
  "effects": [],
  "folder": null,
  "sort": 0,
  "flags": {},
  "system": {
    "description": {
      "value": "<p><strong>Source</strong> <em>Ultimate Equipment pg. 22</em>, <em>Advanced Player's Guide pg. 176</em></p>\n<h3 class=\"framing\"><img style=\"margin: 3px 3px 0px 3px;\" title=\"PFS Legal\" src=\"https://www.aonprd.com/images/PathfinderSocietySymbol.gif\" />Statistics</h3>\n<p><strong>Cost</strong> 2 gp <strong>Weight</strong> 3 lbs.</p>\n<p><strong>Category</strong> Ammunition; <strong>Proficiency</strong> Ammunition</p>\n<h3 class=\"framing\">Description</h3>\n<p>These arrows have rounded wooden tips that deal bludgeoning damage rather than piercing.</p>\n<p>An archer can use a blunt arrow to deal nonlethal damage (at the normal -4 attack penalty for using a lethal weapon to deal nonlethal damage).</p>"
    },
    "tags": [],
    "quantity": 20,
    "weight": {
      "value": 0.15
    },
    "price": 0.1,
    "equipped": false,
    "hp": {
      "max": "1",
      "value": "1"
    },
    "hardness": 5,
    "unidentified": {
      "price": 0.1
    },
    "identifiedName": "Blunt Arrow",
    "changes": [],
    "contextNotes": [],
    "links": {
      "children": []
    },
    "tag": "bluntArrows20",
    "flags": {
      "boolean": [],
      "dictionary": []
    },
    "scriptCalls": [],
    "subType": "ammo",
    "extraType": "arrow"
  },
  "ownership": {
    "default": 0
  },
  "_stats": {
    "systemId": "pf1",
    "systemVersion": "0.82.1",
    "coreVersion": "10.285",
    "createdTime": 1663018758501,
    "modifiedTime": 1663018759941,
    "lastModifiedBy": "DbeAbHwpEqczKjsD"
  }
}
