{
  "_id": "KkLxcudnFBKuK7JI",
  "name": "Boarding Axe",
  "type": "weapon",
  "img": "systems/pf1/icons/items/weapons/boarding-axe.PNG",
  "effects": [],
  "folder": null,
  "sort": 0,
  "flags": {},
  "system": {
    "description": {
      "value": "<p><strong>Source</strong> <em>Adventurer's Armory 2 pg. 8</em>, <em>Pirates of the Inner Sea pg. 19</em>, <em>Skull and Shackles Player's Guide pg. 6</em></p><h3 class=\"framing\">Statistics</h3><p><strong>Cost</strong> 6 gp <strong>Weight</strong> 3 lbs.</p><p><strong>Damage</strong> 1d4 (small), 1d6 (medium); <strong>Critical</strong> x3; <strong>Range</strong> -; <strong>Type</strong> P or S; <strong>Special</strong> -</p><p><strong>Category</strong> Light; <strong>Proficiency</strong> Martial</p><p><strong>Weapon Groups</strong> Axes</p><h3 class=\"framing\">Description</h3><p>A boarding axe is similar to a handaxe, but features a spike that allows the weapon to do either slashing or piercing damage. When in hand, a boarding axe grants a +2 circumstance bonus on Climb checks to scale wooden or other penetrable surfaces, such as ice.</p>"
    },
    "tags": [],
    "weight": {
      "value": 3
    },
    "price": 6,
    "hp": {
      "max": "2",
      "value": "2"
    },
    "hardness": 10,
    "identifiedName": "Boarding Axe",
    "changes": [],
    "actions": [
      {
        "_id": "84tedp19yjn6lixb",
        "name": "Attack",
        "img": "systems/pf1/icons/items/weapons/boarding-axe.PNG",
        "description": "",
        "tag": "",
        "activation": {
          "cost": 1,
          "type": "attack"
        },
        "unchainedAction": {
          "activation": {
            "cost": 1,
            "type": ""
          }
        },
        "duration": {
          "value": null,
          "units": "inst"
        },
        "target": {
          "value": ""
        },
        "range": {
          "value": 0,
          "units": "melee",
          "maxIncrements": 1,
          "minValue": null,
          "minUnits": ""
        },
        "uses": {
          "autoDeductCharges": true,
          "autoDeductChargesCost": "1",
          "self": {
            "value": 0,
            "maxFormula": "",
            "per": null
          },
          "per": "",
          "value": 0,
          "maxFormula": ""
        },
        "measureTemplate": {
          "type": "",
          "size": "",
          "overrideColor": false,
          "customColor": "",
          "overrideTexture": false,
          "customTexture": ""
        },
        "attackName": "",
        "actionType": "mwak",
        "attackBonus": "",
        "critConfirmBonus": "",
        "damage": {
          "parts": [
            [
              "sizeRoll(1, 6, @size)",
              {
                "values": ["piercing", "slashing"],
                "custom": ""
              }
            ]
          ],
          "critParts": [],
          "nonCritParts": []
        },
        "attackParts": [],
        "formulaicAttacks": {
          "count": {
            "formula": "min(3, ceil(@attributes.bab.total / 5) - 1)"
          },
          "bonus": {
            "formula": "@formulaicAttack * -5"
          },
          "label": null
        },
        "formula": "",
        "ability": {
          "attack": "str",
          "damage": "str",
          "damageMult": 1,
          "critRange": 20,
          "critMult": 3
        },
        "save": {
          "dc": "0",
          "type": "",
          "description": ""
        },
        "effectNotes": [],
        "attackNotes": [],
        "soundEffect": "",
        "powerAttack": {
          "multiplier": "",
          "damageBonus": 2,
          "critMultiplier": 1
        },
        "naturalAttack": {
          "primaryAttack": true,
          "secondary": {
            "attackBonus": "-5",
            "damageMult": 0.5
          }
        },
        "nonlethal": false,
        "usesAmmo": false,
        "spellEffect": "",
        "spellArea": "",
        "conditionals": [],
        "enh": {
          "value": null
        }
      }
    ],
    "uses": {
      "per": ""
    },
    "attackNotes": [],
    "effectNotes": [],
    "contextNotes": [],
    "links": {
      "children": []
    },
    "tag": "boardingAxe",
    "scriptCalls": [],
    "weaponGroups": {
      "value": ["axes"]
    },
    "weaponType": "martial"
  },
  "ownership": {
    "default": 0
  },
  "_stats": {
    "systemId": "pf1",
    "systemVersion": "0.82.1",
    "coreVersion": "10.285",
    "createdTime": 1663018758396,
    "modifiedTime": 1663018759930,
    "lastModifiedBy": "DbeAbHwpEqczKjsD"
  }
}
