{
  "_id": "0MFbQaJ3MUWV2fGM",
  "name": "Heavy Crank Crossbow",
  "type": "weapon",
  "img": "systems/pf1/icons/items/weapons/crossbow-crank.PNG",
  "effects": [],
  "folder": null,
  "sort": 0,
  "flags": {},
  "system": {
    "description": {
      "value": "<p><strong>Source</strong> <em>Ranged Tactics Toolbox pg. 18</em></p>\n<h3 class=\"framing\"><img style=\"margin: 3px 3px 0px 3px;\" title=\"PFS Legal\" src=\"https://www.aonprd.com/images/PathfinderSocietySymbol.gif\" />Statistics</h3>\n<p><strong>Cost</strong> 400 gp <strong>Weight</strong> 12 lbs.</p>\n<p><strong>Damage</strong> 1d8 (small), 1d10 (medium); <strong>Critical</strong> 19-20/x2; <strong>Range</strong> 120 ft.; <strong>Type</strong> P; <strong>Special</strong> -</p>\n<p><strong>Category</strong> Ranged; <strong>Proficiency</strong> Exotic</p>\n<h3 class=\"framing\">Description</h3>\n<p>This heavy crossbow has a winch mounted below the stock. Up to 50 feet of silk rope can be wound onto the winch as a full-round action that provokes attacks of opportunity. The wound rope can be attached to a @Compendium[pf1.weapons-and-ammo.84twkW8rwnUEX4EY]{Barbed Bolt} or grappling bolt<sup>UE</sup> as part of a loading action. After firing such a bolt, the wielder can use the winch to retract the rope or pull herself along the rope if the bolt is secure. When used with a barbed bolt, the winch provides a +2 bonus on grapple combat maneuver checks to pull the target toward you. When used with a grappling bolt<sup>UE</sup>, the winch provides a +2 bonus on @Compendium[pf1.skills.xvua9V5Zggkc77Gt]{Climb} checks.</p>"
    },
    "tags": [],
    "weight": {
      "value": 12
    },
    "price": 400,
    "hp": {
      "max": "5",
      "value": "5"
    },
    "hardness": 5,
    "identifiedName": "Heavy Crank Crossbow",
    "changes": [],
    "actions": [
      {
        "_id": "258bzy432g24o6bi",
        "name": "Attack",
        "img": "systems/pf1/icons/items/weapons/crossbow-crank.PNG",
        "description": "",
        "tag": "",
        "activation": {
          "cost": 1,
          "type": "attack"
        },
        "unchainedAction": {
          "activation": {
            "cost": 1,
            "type": ""
          }
        },
        "duration": {
          "value": null,
          "units": "inst"
        },
        "target": {
          "value": ""
        },
        "range": {
          "value": "120",
          "units": "ft",
          "maxIncrements": 1,
          "minValue": null,
          "minUnits": ""
        },
        "uses": {
          "autoDeductCharges": true,
          "autoDeductChargesCost": "1",
          "self": {
            "value": 0,
            "maxFormula": "",
            "per": null
          },
          "per": "",
          "value": 0,
          "maxFormula": ""
        },
        "measureTemplate": {
          "type": "",
          "size": "",
          "overrideColor": false,
          "customColor": "",
          "overrideTexture": false,
          "customTexture": ""
        },
        "attackName": "",
        "actionType": "rwak",
        "attackBonus": "",
        "critConfirmBonus": "",
        "damage": {
          "parts": [
            [
              "sizeRoll(1, 10, @size)",
              {
                "values": ["piercing"],
                "custom": ""
              }
            ]
          ],
          "critParts": [],
          "nonCritParts": []
        },
        "attackParts": [],
        "formulaicAttacks": {
          "count": {
            "formula": "min(3, ceil(@attributes.bab.total / 5) - 1)"
          },
          "bonus": {
            "formula": "@formulaicAttack * -5"
          },
          "label": null
        },
        "formula": "",
        "ability": {
          "attack": "dex",
          "damage": "",
          "damageMult": 1,
          "critRange": 19,
          "critMult": 2
        },
        "save": {
          "dc": "0",
          "type": "",
          "description": ""
        },
        "effectNotes": [],
        "attackNotes": [],
        "soundEffect": "",
        "powerAttack": {
          "multiplier": "",
          "damageBonus": 2,
          "critMultiplier": 1
        },
        "naturalAttack": {
          "primaryAttack": true,
          "secondary": {
            "attackBonus": "-5",
            "damageMult": 0.5
          }
        },
        "nonlethal": false,
        "usesAmmo": true,
        "spellEffect": "",
        "spellArea": "",
        "conditionals": [],
        "enh": {
          "value": null
        }
      }
    ],
    "uses": {
      "per": ""
    },
    "attackNotes": [],
    "effectNotes": [],
    "contextNotes": [],
    "links": {
      "children": []
    },
    "tag": "heavyCrankCrossbow",
    "scriptCalls": [],
    "weaponGroups": {
      "value": ["crossbows"]
    },
    "weaponType": "exotic",
    "weaponSubtype": "ranged",
    "ammoType": "bolt"
  },
  "ownership": {
    "default": 0
  },
  "_stats": {
    "systemId": "pf1",
    "systemVersion": "0.82.1",
    "coreVersion": "10.285",
    "createdTime": 1663018758215,
    "modifiedTime": 1663018759908,
    "lastModifiedBy": "DbeAbHwpEqczKjsD"
  }
}
