{
  "_id": "9meWuDhxKqBDil51",
  "name": "Poisoned Sand Tube",
  "type": "weapon",
  "img": "systems/pf1/icons/items/weapons/blowgun.PNG",
  "effects": [],
  "folder": null,
  "sort": 0,
  "flags": {},
  "system": {
    "description": {
      "value": "<p><strong>Source</strong> <em>Ranged Tactics Toolbox pg. 0</em>, <em>Ultimate Combat pg. 133</em>, <em>Ultimate Equipment pg. 19</em></p><h3 class=\"framing\"><img src=\"https://www.aonprd.com/images/PathfinderSocietySymbol.gif\" title=\"PFS Legal\" style=\"margin:3px 3px 0px 3px;\">Statistics</h3><p><strong>Cost</strong> 1 gp <strong>Weight</strong> 1 lb.</p><p><strong>Damage</strong> special (small), special (medium); <strong>Critical</strong> -; <strong>Range</strong> -; <strong>Type</strong> -; <strong>Special</strong> see text</p><p><strong>Category</strong> Ranged; <strong>Proficiency</strong> Martial</p><p><strong>Weapon Groups</strong> Thrown</p><h3 class=\"framing\">Description</h3><p>Resembling a slim scroll case made of bamboo or metal, this tube is filled with fine sand that is soaked or coated with inhaled or contact poison. When loaded with 3 doses of these types of poison, you can blow into the tube to disperse the poisoned sand into your enemies' faces in a 15-foot cone. Each creature in the cone is affected as if afflicted with 1 dose of the poison. Even when loaded with unpoisoned sand, the tube lets loose a powerful irritant, and an opponent struck must succeed at a DC 12 Fortitude saving throw or be dazzled for 1 round. Once expended, the tube must be repacked before it can be used again. Repacking a tube requires a full-round action, or a standard action if you have the Rapid Reload feat.</p>"
    },
    "tags": [],
    "weight": {
      "value": 1
    },
    "price": 1,
    "hp": {
      "max": "5",
      "value": "5"
    },
    "hardness": 5,
    "identifiedName": "Poisoned Sand Tube",
    "changes": [],
    "actions": [
      {
        "_id": "xmgzzurict914bso",
        "name": "Attack",
        "img": "systems/pf1/icons/items/weapons/blowgun.PNG",
        "description": "",
        "tag": "",
        "activation": {
          "cost": 1,
          "type": "attack"
        },
        "unchainedAction": {
          "activation": {
            "cost": 1,
            "type": ""
          }
        },
        "duration": {
          "value": null,
          "units": "inst"
        },
        "target": {
          "value": ""
        },
        "range": {
          "value": "0",
          "units": "ft",
          "maxIncrements": 1,
          "minValue": null,
          "minUnits": ""
        },
        "uses": {
          "autoDeductCharges": true,
          "autoDeductChargesCost": "1",
          "self": {
            "value": 0,
            "maxFormula": "",
            "per": null
          },
          "per": "",
          "value": 0,
          "maxFormula": ""
        },
        "measureTemplate": {
          "type": "",
          "size": "",
          "overrideColor": false,
          "customColor": "",
          "overrideTexture": false,
          "customTexture": ""
        },
        "attackName": "",
        "actionType": "rwak",
        "attackBonus": "",
        "critConfirmBonus": "",
        "damage": {
          "parts": [
            [
              "NULL",
              {
                "values": ["untyped"],
                "custom": ""
              }
            ]
          ],
          "critParts": [],
          "nonCritParts": []
        },
        "attackParts": [],
        "formulaicAttacks": {
          "count": {
            "formula": "min(3, ceil(@attributes.bab.total / 5) - 1)"
          },
          "bonus": {
            "formula": "@formulaicAttack * -5"
          },
          "label": null
        },
        "formula": "",
        "ability": {
          "attack": "dex",
          "damage": "str",
          "damageMult": 1,
          "critRange": 20,
          "critMult": 0
        },
        "save": {
          "dc": "0",
          "type": "",
          "description": ""
        },
        "effectNotes": [],
        "attackNotes": [],
        "soundEffect": "",
        "powerAttack": {
          "multiplier": "",
          "damageBonus": 2,
          "critMultiplier": 1
        },
        "naturalAttack": {
          "primaryAttack": true,
          "secondary": {
            "attackBonus": "-5",
            "damageMult": 0.5
          }
        },
        "nonlethal": false,
        "usesAmmo": false,
        "spellEffect": "",
        "spellArea": "",
        "conditionals": [],
        "enh": {
          "value": null
        }
      }
    ],
    "uses": {
      "per": ""
    },
    "attackNotes": [],
    "effectNotes": [],
    "contextNotes": [],
    "links": {
      "children": []
    },
    "tag": "poisonedSandTube",
    "scriptCalls": [],
    "weaponGroups": {
      "value": ["thrown"]
    },
    "weaponType": "martial",
    "weaponSubtype": "ranged"
  },
  "ownership": {
    "default": 0
  },
  "_stats": {
    "systemId": "pf1",
    "systemVersion": "0.82.1",
    "coreVersion": "10.285",
    "createdTime": 1663018758305,
    "modifiedTime": 1663018759917,
    "lastModifiedBy": "DbeAbHwpEqczKjsD"
  }
}
