{
  "_id": "cy4pO52j4iAedcHZ",
  "name": "Stonebow",
  "type": "weapon",
  "img": "systems/pf1/icons/items/weapons/stonebow.PNG",
  "effects": [],
  "folder": null,
  "sort": 0,
  "flags": {},
  "system": {
    "description": {
      "value": "<p><strong>Source</strong> <em>Ranged Tactics Toolbox pg. 19</em></p><h3 class=\"framing\"><img src=\"https://www.aonprd.com/images/PathfinderSocietySymbol.gif\" title=\"PFS Legal\" style=\"margin:3px 3px 0px 3px;\">Statistics</h3><p><strong>Cost</strong> 35 gp <strong>Weight</strong> 4 lbs.</p><p><strong>Damage</strong> 1d4 (small), 1d6 (medium); <strong>Critical</strong> x2; <strong>Range</strong> 50 ft.; <strong>Type</strong> B; <strong>Special</strong> -</p><p><strong>Category</strong> Ranged; <strong>Proficiency</strong> Simple</p><h3 class=\"framing\">Description</h3><p>A stonebow, or bullet crossbow, resembles a light crossbow except for the distinct U-shaped bend in the stock. Instead of bolts, the stonebow shoots sling bullets. The bow has two strings with a leather pocket between them to hold the bullet. Loading a stonebow is a move action (a free action if you have the Rapid Reload feat) that provokes attacks of opportunity.</p><p></p><p> You can shoot ordinary stones with a stonebow, but stones aren't as dense or as round as bullets. When using stones, you take a -1 penalty on attack rolls and deal damage as if the weapon were designed for a creature one size category smaller than you.</p><p></p><p> You can shoot, but not load, a stonebow with one hand, but doing so imposes a -2 penalty on your attack rolls. You can shoot a stonebow with each hand, but you take a penalty on attack rolls as if attacking with two light weapons. This penalty is cumulative with the penalty for firing one-handed.</p>"
    },
    "tags": [],
    "weight": {
      "value": 4
    },
    "price": 35,
    "hp": {
      "max": "5",
      "value": "5"
    },
    "hardness": 5,
    "identifiedName": "Stonebow",
    "changes": [],
    "actions": [
      {
        "_id": "vzb6olatqzbpkuc8",
        "name": "Attack",
        "img": "systems/pf1/icons/items/weapons/stonebow.PNG",
        "description": "",
        "tag": "",
        "activation": {
          "cost": 1,
          "type": "attack"
        },
        "unchainedAction": {
          "activation": {
            "cost": 1,
            "type": ""
          }
        },
        "duration": {
          "value": null,
          "units": "inst"
        },
        "target": {
          "value": ""
        },
        "range": {
          "value": "50",
          "units": "ft",
          "maxIncrements": 1,
          "minValue": null,
          "minUnits": ""
        },
        "uses": {
          "autoDeductCharges": true,
          "autoDeductChargesCost": "1",
          "self": {
            "value": 0,
            "maxFormula": "",
            "per": null
          },
          "per": "",
          "value": 0,
          "maxFormula": ""
        },
        "measureTemplate": {
          "type": "",
          "size": "",
          "overrideColor": false,
          "customColor": "",
          "overrideTexture": false,
          "customTexture": ""
        },
        "attackName": "",
        "actionType": "rwak",
        "attackBonus": "",
        "critConfirmBonus": "",
        "damage": {
          "parts": [
            [
              "sizeRoll(1, 6, @size)",
              {
                "values": ["bludgeoning"],
                "custom": ""
              }
            ]
          ],
          "critParts": [],
          "nonCritParts": []
        },
        "attackParts": [],
        "formulaicAttacks": {
          "count": {
            "formula": "min(3, ceil(@attributes.bab.total / 5) - 1)"
          },
          "bonus": {
            "formula": "@formulaicAttack * -5"
          },
          "label": ""
        },
        "formula": "",
        "ability": {
          "attack": "dex",
          "damage": "",
          "damageMult": 1,
          "critRange": 20,
          "critMult": 2
        },
        "save": {
          "dc": "0",
          "type": "",
          "description": ""
        },
        "effectNotes": [],
        "attackNotes": [],
        "soundEffect": "",
        "powerAttack": {
          "multiplier": "",
          "damageBonus": 2,
          "critMultiplier": 1
        },
        "naturalAttack": {
          "primaryAttack": true,
          "secondary": {
            "attackBonus": "-5",
            "damageMult": 0.5
          }
        },
        "nonlethal": false,
        "usesAmmo": true,
        "spellEffect": "",
        "spellArea": "",
        "conditionals": [],
        "enh": {
          "value": null
        },
        "ammoType": "slingBullet"
      }
    ],
    "uses": {
      "per": ""
    },
    "attackNotes": [],
    "effectNotes": [],
    "contextNotes": [],
    "links": {
      "children": []
    },
    "tag": "stonebow",
    "scriptCalls": [],
    "weaponGroups": {
      "value": ["crossbows"]
    },
    "weaponSubtype": "ranged",
    "ammoType": "slingBullet"
  },
  "ownership": {
    "default": 0
  },
  "_stats": {
    "systemId": "pf1",
    "systemVersion": "0.82.1",
    "coreVersion": "10.285",
    "createdTime": 1663018758654,
    "modifiedTime": 1663018759950,
    "lastModifiedBy": "DbeAbHwpEqczKjsD"
  }
}
