{
  "_id": "thkjalwubrhogzhh",
  "name": "Acrobat's Pillar",
  "type": "loot",
  "img": "systems/pf1/icons/items/inventory/dice.jpg",
  "effects": [],
  "folder": null,
  "sort": 0,
  "flags": {},
  "system": {
    "description": {
      "value": "\r\n<p class=\"source\"><b>Source</b>: <a title=\"PZO1110\" href=\"http://www.amazon.com/gp/product/1601251505/ref=as_li_qf_sp_asin_il_tl?ie=UTF8&amp;camp=1789&amp;creative=9325&amp;creativeASIN=1601251505&amp;linkCode=as2&amp;tag=httpwwwd20pfs-20\" target=\"_blank\" rel=\"noopener\">PZO1110</a></p>\r\n<p><b>Price</b> 50 gp; <b>Weight</b> 40 lbs.</p>\r\n<p>This training contraption consists of a stout, 7-foot-tall wooden pillar with spring-powered wood-and-brass arms jutting sideways at different heights. When the springs are wound, the arms wave erratically through the area within 10 feet of the pillar. The arms don't swing with sufficient force to cause damage, but you can practice your acrobatic technique by moving up to and around the pillar while the arms are in motion, attempting to avoid being tagged. The mechanism operates for 10 minutes before winding down. The entire contraption can be dismantled and stowed in a chest the size of a large foot locker for transport.</p>\r\n<p>Using the pillar to hone your acrobatic techniques requires 1 hour of practice and a DC 20 <a href=\"https://www.d20pfsrd.com/skills/acrobatics\">Acrobatics</a> check. If you succeed at the check, you gain a +2 <a href=\"https://www.d20pfsrd.com/basics-ability-scores/glossary#TOC-Circumstance-Bonus\">circumstance bonus</a> on <a href=\"https://www.d20pfsrd.com/skills/acrobatics\">Acrobatics</a> checks to avoid <a href=\"https://www.d20pfsrd.com/gamemastering/combat#TOC-Attacks-of-Opportunity\">attacks of opportunity</a> provoked by moving out of or through an opponent's <a href=\"https://www.d20pfsrd.com/gamemastering/combat#TOC-Threatened-Squares\">threatened</a> area. This bonus lasts for 24 hours or until you fail an <a href=\"https://www.d20pfsrd.com/skills/acrobatics\">Acrobatics</a> check.</p>\r\n\r\n"
    },
    "tags": [],
    "weight": {
      "value": 40
    },
    "price": 50,
    "equipped": false,
    "changes": [],
    "contextNotes": [],
    "links": {
      "children": []
    },
    "flags": {
      "boolean": [],
      "dictionary": []
    },
    "scriptCalls": [],
    "subType": "gear"
  },
  "ownership": {
    "default": 0
  },
  "_stats": {
    "systemId": "pf1",
    "systemVersion": "0.82.1",
    "coreVersion": "10.285",
    "createdTime": 1663018753537,
    "modifiedTime": 1663018755711,
    "lastModifiedBy": "DbeAbHwpEqczKjsD"
  }
}
