{
  "_id": "vsanawzysjtywomw",
  "name": "Alchemist's Lab",
  "type": "loot",
  "img": "systems/pf1/icons/items/inventory/dice.jpg",
  "effects": [],
  "folder": null,
  "sort": 0,
  "flags": {},
  "system": {
    "description": {
      "value": "\r\n<p class=\"source\"><b>Source</b> <a title=\"PZO1110\" href=\"http://www.amazon.com/gp/product/1601251505/ref=as_li_qf_sp_asin_il_tl?ie=UTF8&amp;camp=1789&amp;creative=9325&amp;creativeASIN=1601251505&amp;linkCode=as2&amp;tag=httpwwwd20pfs-20\" target=\"_blank\" rel=\"noopener\">PZO1110</a></p>\r\n<p>This lab is used for making alchemical items, and provides a +2 <a href=\"https://www.d20pfsrd.com/basics-ability-scores/glossary#TOC-Circumstance-Bonus\">circumstance bonus</a> on <a href=\"https://www.d20pfsrd.com/skills/craft\">Craft</a> (alchemy) checks. It has no bearing on the costs related to the <a href=\"https://www.d20pfsrd.com/skills/craft\">Craft</a> (alchemy) skill. Without this lab, a character with the <a href=\"https://www.d20pfsrd.com/skills/craft\">Craft</a> (alchemy) skill is assumed to have enough tools to use the skill but not enough to get the +2 bonus that the lab provides.</p>\r\n"
    },
    "tags": [],
    "weight": {
      "value": 40
    },
    "price": 200,
    "equipped": false,
    "identifiedName": "Alchemist's Lab",
    "changes": [
      {
        "_id": "495kqpu8",
        "formula": "2",
        "operator": "add",
        "subTarget": "crf",
        "modifier": "circumstance",
        "priority": 0,
        "value": 0,
        "target": "skill"
      }
    ],
    "contextNotes": [],
    "links": {
      "children": []
    },
    "tag": "alchemistsLab",
    "flags": {
      "boolean": [],
      "dictionary": []
    },
    "scriptCalls": [],
    "subType": "gear"
  },
  "ownership": {
    "default": 0
  },
  "_stats": {
    "systemId": "pf1",
    "systemVersion": "0.82.1",
    "coreVersion": "10.285",
    "createdTime": 1663018753617,
    "modifiedTime": 1663018755715,
    "lastModifiedBy": "DbeAbHwpEqczKjsD"
  }
}
