{
  "_id": "VcxoEbprzt6d9kFh",
  "name": "Banner (Complex)",
  "type": "loot",
  "img": "systems/pf1/icons/items/inventory/dice.jpg",
  "effects": [],
  "folder": null,
  "sort": 0,
  "flags": {},
  "system": {
    "description": {
      "value": "<p>Source&nbsp;<a href=\"http://paizo.com/products/btpy8tmc?Pathfinder-Roleplaying-Game-Ultimate-Equipment\" target=\"_blank\" rel=\"noopener\">Ultimate Equipment pg. 56</a><br>Price&nbsp;1–20 gp;&nbsp;Weight&nbsp;2 lbs.<br>Category&nbsp;Adventuring Gear</p>\n<h3>Description</h3>\n<p>This is a banner, flag, or pennant. You tie it to a pole, lance, or polearm. Most are woven, dyed, or painted with a pattern or symbol, such as a knight’s crest or a country’s flag. A simple banner with one field color and a simple insignia such as a weapon or shield costs 1 gp. A banner with two to four field colors and a complex insignia such as a lion or dragon costs 5 gp. A detailed banner with four or more field colors and a very complex insignia, such as a heraldic device with eight or more sections, costs 20 gp.</p>"
    },
    "tags": [],
    "weight": {
      "value": 2
    },
    "price": 5,
    "equipped": false,
    "identifiedName": "Banner (Complex)",
    "changes": [],
    "contextNotes": [],
    "links": {
      "children": []
    },
    "flags": {
      "boolean": [],
      "dictionary": []
    },
    "scriptCalls": [],
    "subType": "gear"
  },
  "ownership": {
    "default": 0
  },
  "_stats": {
    "systemId": "pf1",
    "systemVersion": "0.82.1",
    "coreVersion": "10.285",
    "createdTime": 1663018752879,
    "modifiedTime": 1663018755664,
    "lastModifiedBy": "DbeAbHwpEqczKjsD"
  }
}
