{
  "_id": "T42Wv6W7rnwfobSt",
  "name": "Belt of Mighty Constitution +6",
  "type": "equipment",
  "img": "systems/pf1/icons/items/equipment/belt-plain.jpg",
  "effects": [],
  "folder": null,
  "sort": 0,
  "flags": {},
  "system": {
    "description": {
      "value": "<p>This belt’s golden buckle depicts a bear’s head. The belt grants the wearer an&nbsp;<a href=\"https://www.d20pfsrd.com/basics-ability-scores/glossary#TOC-Enhancement-Bonus\">enhancement bonus</a>&nbsp;to&nbsp;<a href=\"https://www.d20pfsrd.com/basics-ability-scores/ability-scores#TOC-Constitution-Con-\">Constitution</a>&nbsp;of +2, +4, or +6. Treat this as a temporary ability bonus for the first 24 hours the belt is worn.</p>",
      "unidentified": "<p>This belt’s golden buckle depicts a bear’s head.</p>"
    },
    "tags": [],
    "weight": {
      "value": 1
    },
    "price": 36000,
    "resizing": true,
    "unidentified": {
      "name": "Belt"
    },
    "identifiedName": "Belt of Mighty Constitution +6",
    "cl": 8,
    "aura": {
      "school": "trs"
    },
    "changes": [
      {
        "_id": "aykkhwz4",
        "formula": "6",
        "operator": "add",
        "subTarget": "con",
        "modifier": "enh",
        "priority": 0,
        "value": 0,
        "target": "ability"
      }
    ],
    "contextNotes": [],
    "actions": [],
    "attackNotes": [],
    "effectNotes": [],
    "links": {
      "children": [],
      "charges": []
    },
    "flags": {
      "boolean": [],
      "dictionary": []
    },
    "scriptCalls": [],
    "equipmentType": "misc",
    "equipmentSubtype": "wondrous",
    "slot": "belt"
  },
  "ownership": {
    "default": 0
  },
  "_stats": {
    "systemId": "pf1",
    "systemVersion": "0.82.1",
    "coreVersion": "10.285",
    "createdTime": 1663018752861,
    "modifiedTime": 1663018755662,
    "lastModifiedBy": "DbeAbHwpEqczKjsD"
  }
}
