{
  "_id": "lbauzobqjbfrghth",
  "name": "Bomb Launcher",
  "type": "loot",
  "img": "systems/pf1/icons/items/inventory/dice.jpg",
  "effects": [],
  "folder": null,
  "sort": 0,
  "flags": {},
  "system": {
    "description": {
      "value": "\r\n<p class=\"source\"><b>Source</b> <a title=\"PZO1121\" href=\"http://www.amazon.com/gp/product/1601253907/ref=as_li_qf_sp_asin_il_tl?ie=UTF8&amp;camp=1789&amp;creative=9325&amp;creativeASIN=1601253907&amp;linkCode=as2&amp;tag=httpwwwd20pfs-20\" target=\"_blank\" rel=\"noopener\">PZO1121</a></p>\r\n<p>These odd looking, egg-shaped contraptions have cleverly placed fins that improve bombs' accuracy. <a href=\"https://www.d20pfsrd.com/bestiary/monster-listings/humanoids/goblin\">Goblin</a> <a href=\"https://www.d20pfsrd.com/classes/base-classes/alchemist\">alchemists</a> use these special containers to make their bombs more accurate when thrown long distances. Using a bomb launcher when throwing a bomb increases the bomb's range increment to 30 feet (or increases the range increment of a bomb with the rocket bomb discovery to 70 feet). Bomb launchers are destroyed when used.</p>\r\n"
    },
    "tags": [],
    "weight": {
      "value": 0.5
    },
    "price": 10,
    "equipped": false,
    "changes": [],
    "contextNotes": [],
    "links": {
      "children": []
    },
    "flags": {
      "boolean": [],
      "dictionary": []
    },
    "scriptCalls": [],
    "subType": "gear"
  },
  "ownership": {
    "default": 0
  },
  "_stats": {
    "systemId": "pf1",
    "systemVersion": "0.82.1",
    "coreVersion": "10.285",
    "createdTime": 1663018753256,
    "modifiedTime": 1663018755690,
    "lastModifiedBy": "DbeAbHwpEqczKjsD"
  }
}
