{
  "_id": "djcqqgwwpftzjslm",
  "name": "Chain Belt",
  "type": "loot",
  "img": "systems/pf1/icons/items/inventory/dice.jpg",
  "effects": [],
  "folder": null,
  "sort": 0,
  "flags": {},
  "system": {
    "description": {
      "value": "\r\n<p class=\"source\"><b>Source</b>: <a title=\"PZO1121\" href=\"http://www.amazon.com/gp/product/1601253907/ref=as_li_qf_sp_asin_il_tl?ie=UTF8&amp;camp=1789&amp;creative=9325&amp;creativeASIN=1601253907&amp;linkCode=as2&amp;tag=httpwwwd20pfs-20\" target=\"_blank\" rel=\"noopener\">PZO1121</a></p>\r\n<p>While undines dress sparingly, they often wear 10-foot-long belts of fine linked chain about their waists. The belts contain hinged links to which the wearer can affix various objects such as tools, small weapons, and other valuables, including links of silver and platinum, or small hammered plates of gold set with gems. If worn properly, the belt can hold up to 30 pounds of small items. A swimming <a href=\"https://www.d20pfsrd.com/bestiary/monster-listings/outsiders/undine\">undine</a> can unwrap the belt as <a href=\"https://www.d20pfsrd.com/gamemastering/combat#TOC-Swift-Actions\">swift action</a> if she needs to remove it to decrease her weight load.</p>\r\n\r\n"
    },
    "tags": [],
    "equipped": false,
    "changes": [],
    "contextNotes": [],
    "links": {
      "children": []
    },
    "flags": {
      "boolean": [],
      "dictionary": []
    },
    "scriptCalls": [],
    "subType": "gear"
  },
  "ownership": {
    "default": 0
  },
  "_stats": {
    "systemId": "pf1",
    "systemVersion": "0.82.1",
    "coreVersion": "10.285",
    "createdTime": 1663018752982,
    "modifiedTime": 1663018755676,
    "lastModifiedBy": "DbeAbHwpEqczKjsD"
  }
}
