{
  "_id": "gjntilmfnmbrrtnj",
  "name": "Falconry Gauntlet",
  "type": "loot",
  "img": "systems/pf1/icons/items/inventory/dice.jpg",
  "effects": [],
  "folder": null,
  "sort": 0,
  "flags": {},
  "system": {
    "description": {
      "value": "\r\n<p><b>Price</b> 10 gp; <b>Weight</b> 1 lb.</p>\r\n<p>This gauntlet, made from layers of thick leather, is worn on the falconer's off hand to give a falcon a place to stand before and after a hunt. The gauntlet also has a tassel and a ring attached to the falcon's tether.</p>\r\n\r\n"
    },
    "tags": [],
    "weight": {
      "value": 1
    },
    "price": 10,
    "equipped": false,
    "changes": [],
    "contextNotes": [],
    "links": {
      "children": []
    },
    "flags": {
      "boolean": [],
      "dictionary": []
    },
    "scriptCalls": [],
    "subType": "gear"
  },
  "ownership": {
    "default": 0
  },
  "_stats": {
    "systemId": "pf1",
    "systemVersion": "0.82.1",
    "coreVersion": "10.285",
    "createdTime": 1663018753148,
    "modifiedTime": 1663018755682,
    "lastModifiedBy": "DbeAbHwpEqczKjsD"
  }
}
