{
  "_id": "yazetnstqsojpnyd",
  "name": "Feed, Bird",
  "type": "loot",
  "img": "systems/pf1/icons/items/inventory/dice.jpg",
  "effects": [],
  "folder": null,
  "sort": 0,
  "flags": {},
  "system": {
    "description": {
      "value": "\r\n<p class=\"source\"><b>Source</b> <a href=\"http://www.amazon.com/gp/product/1601254881/ref=as_li_qf_sp_asin_il_tl?ie=UTF8&amp;camp=1789&amp;creative=9325&amp;creativeASIN=1601254881&amp;linkCode=as2&amp;tag=httpwwwd20pfs-20\" target=\"_blank\" rel=\"noopener\">PPZO9410</a></p>\r\n<p><b>Price</b> 5 cp/day; <b>Weight</b> 1/2 lb.</p>\r\n<p>This mixture of seed and dead insects is suitable food for small birds such as <a href=\"https://www.d20pfsrd.com/bestiary/monster-listings/animals/raven\">ravens</a>, crows, and chickens. Birds of prey such as falcons, <a href=\"https://www.d20pfsrd.com/bestiary/monster-listings/animals/hawk\">hawks</a>, and <a href=\"https://www.d20pfsrd.com/bestiary/monster-listings/animals/owl\">owls</a> can also sustain themselves on bird feed, though they typically require at least two servings per day. Larger avian creatures such as <a href=\"https://www.d20pfsrd.com/bestiary/monster-listings/animals/axe-beak\">axe beaks</a> and <a href=\"https://www.d20pfsrd.com/bestiary/monster-list/magical-beasts/griffon\">griffons</a> require larger portions of meat, and cannot survive on bird feed alone.</p>\r\n\r\n"
    },
    "tags": [],
    "weight": {
      "value": 0.5
    },
    "price": 0.05,
    "equipped": false,
    "changes": [],
    "contextNotes": [],
    "links": {
      "children": []
    },
    "flags": {
      "boolean": [],
      "dictionary": []
    },
    "scriptCalls": [],
    "subType": "gear"
  },
  "ownership": {
    "default": 0
  },
  "_stats": {
    "systemId": "pf1",
    "systemVersion": "0.82.1",
    "coreVersion": "10.285",
    "createdTime": 1663018753660,
    "modifiedTime": 1663018755719,
    "lastModifiedBy": "DbeAbHwpEqczKjsD"
  }
}
