{
  "_id": "ugfcxwedwbkcqqlz",
  "name": "Focusing Flask",
  "type": "loot",
  "img": "systems/pf1/icons/items/inventory/dice.jpg",
  "effects": [],
  "folder": null,
  "sort": 0,
  "flags": {},
  "system": {
    "description": {
      "value": " \n<p class=\"source\"><b>Source</b> <a title=\"PPC:AM\" href=\"http://www.amazon.com/gp/product/1601256051/ref=as_li_qf_sp_asin_il_tl?ie=UTF8&amp;camp=1789&amp;creative=9325&amp;creativeASIN=1601256051&amp;linkCode=as2&amp;tag=httpwwwd20pfs-20\" target=\"_blank\" rel=\"noopener\">PPC:AM</a></p> \n<p><b>Price</b> 700 gp; <b>Slot</b> none; <b>CL</b> 7th; <b>Weight</b> 1 lb.; <b>Aura</b> moderate <a href=\"https://www.d20pfsrd.com/magic#TOC-Transmutation\">transmutation</a></p> \n<p>This round, rainbow-hued glass flask allows up to three alchemical <a href=\"https://www.d20pfsrd.com/gamemastering/combat#TOC-Throw-Splash-Weapon\">splash weapons</a> of the same type to be poured into it, concentrating them such that they never increase its weight noticeably. If multiple types of alchemical items are poured in, all the contents are ruined. The flask can be thrown as a normal <a href=\"https://www.d20pfsrd.com/gamemastering/combat#TOC-Throw-Splash-Weapon\">splash weapon</a>, and when it breaks, it releases all of the contained <a href=\"https://www.d20pfsrd.com/gamemastering/combat#TOC-Throw-Splash-Weapon\">splash weapons</a> in the same space, and the <i>focusing flask</i> is destroyed. If the items held within the flask normally allow a saving throw to reduce or negate the effects, the target of a <i>focusing flask</i> needs to succeed at only a single saving throw, regardless of the number of items held within the <i>focusing flask</i>. The DC of the saving throw increases by 2 if the flask contains two alchemical items, or by 4 if it contains three items.</p> \n<p class=\"divider\">CONSTRUCTION REQUIREMENTS</p> \n<p><b>Feats</b> <a href=\"https://www.d20pfsrd.com/feats/item-creation-feats/craft-wondrous-item-item-creation\">Craft Wondrous Item</a>; <b>Spells</b> <a class=\"spell\" href=\"https://www.d20pfsrd.com/magic/all-spells/s/shrink-item\">shrink item</a>; <b>Cost</b> 350 gp</p> \n"
    },
    "tags": [],
    "equipped": false,
    "changes": [],
    "contextNotes": [],
    "links": {
      "children": []
    },
    "flags": {
      "boolean": [],
      "dictionary": []
    },
    "scriptCalls": [],
    "subType": "gear"
  },
  "ownership": {
    "default": 0
  },
  "_stats": {
    "systemId": "pf1",
    "systemVersion": "0.82.1",
    "coreVersion": "10.285",
    "createdTime": 1663018753558,
    "modifiedTime": 1663018755712,
    "lastModifiedBy": "DbeAbHwpEqczKjsD"
  }
}
