{
  "_id": "gfdiamfwxinzmyfz",
  "name": "Ifrit's Blood",
  "type": "loot",
  "img": "systems/pf1/icons/items/inventory/dice.jpg",
  "effects": [],
  "folder": null,
  "sort": 0,
  "flags": {},
  "system": {
    "description": {
      "value": "\r\n<p class=\"source\"><b>Source</b> <a title=\"PZO1121\" href=\"http://www.amazon.com/gp/product/1601253907/ref=as_li_qf_sp_asin_il_tl?ie=UTF8&amp;camp=1789&amp;creative=9325&amp;creativeASIN=1601253907&amp;linkCode=as2&amp;tag=httpwwwd20pfs-20\" target=\"_blank\" rel=\"noopener\">PZO1121</a></p>\r\n<p>Ifrit <a href=\"https://www.d20pfsrd.com/classes/base-classes/alchemist\">alchemists</a> claim to make this thick red oil from their own blood-hence the morbid name-but this claim is almost certainly false. Ifrit's blood ignites upon contact with air, but burns slowly and is unsuitable for use as a <a href=\"https://www.d20pfsrd.com/gamemastering/combat#TOC-Throw-Splash-Weapon\">splash weapon</a>. A creature can apply a flask of ifrit's blood to a weapon as a <a href=\"https://www.d20pfsrd.com/gamemastering/combat#TOC-Standard-Actions\">standard action</a>, wreathing the weapon in vibrant red flames for 1 minute. The oil deals 1 point of fire damage on each successful attack with the weapon and deals 1 point of fire damage to the weapon itself, bypassing the weapon's <a href=\"https://www.d20pfsrd.com/equipment/damaging-objects#TOC-Hardness\">hardness</a> if any part of it is made of wood. If the oil is applied to a creature's <a href=\"https://www.d20pfsrd.com/bestiary/rules-for-monsters/universal-monster-rules#TOC-Natural-Attacks\">natural weapons</a> or unarmed strikes, the creature takes 1 point of fire damage each round (though its fire <a href=\"https://www.d20pfsrd.com/bestiary/rules-for-monsters/universal-monster-rules#TOC-Immunity-Ex-or-Su-\">immunity</a> or <a href=\"https://www.d20pfsrd.com/gamemastering/special-abilities#TOC-Energy-Resistance\">resistance</a> still applies).</p>\r\n"
    },
    "tags": [],
    "weight": {
      "value": 1
    },
    "price": 50,
    "equipped": false,
    "changes": [],
    "contextNotes": [],
    "links": {
      "children": []
    },
    "flags": {
      "boolean": [],
      "dictionary": []
    },
    "scriptCalls": [],
    "subType": "gear"
  },
  "ownership": {
    "default": 0
  },
  "_stats": {
    "systemId": "pf1",
    "systemVersion": "0.82.1",
    "coreVersion": "10.285",
    "createdTime": 1663018753142,
    "modifiedTime": 1663018755682,
    "lastModifiedBy": "DbeAbHwpEqczKjsD"
  }
}
