{
  "_id": "wdhvbcdxpntgzbxj",
  "name": "Ink, Invisible",
  "type": "loot",
  "img": "systems/pf1/icons/items/inventory/dice.jpg",
  "effects": [],
  "folder": null,
  "sort": 0,
  "flags": {},
  "system": {
    "description": {
      "value": "\r\n<p class=\"source\"><b>Source</b> <a title=\"PZO9410\" href=\"http://www.amazon.com/gp/product/1601252226/ref=as_li_qf_sp_asin_il_tl?ie=UTF8&amp;camp=1789&amp;creative=9325&amp;creativeASIN=1601252226&amp;linkCode=as2&amp;tag=httpwwwd20pfs-20\" target=\"_blank\" rel=\"noopener\">PZO9410</a></p>\r\n<p>Messages written with invisible ink only become visible under specific circumstances. Revealing the secret message with the proper triggering agent is a <a href=\"https://www.d20pfsrd.com/gamemastering/combat#TOC-Full-Round-Actions\">full-round action</a> per page of text.</p>\r\n<ul>\r\n<li><b>Simple</b>: <b>Create</b> <a href=\"https://www.d20pfsrd.com/skills/craft\">Craft</a> (alchemy) DC 15; This ink is keyed to a single, fairly common trigger, such heat or vinegar. A successful DC 20 <a href=\"https://www.d20pfsrd.com/skills/craft\">Craft</a> (alchemy) check takes 1 hour and reveals the message without the proper trigger.</li>\r\n<li><b>Average</b>: <b>Create</b> <a href=\"https://www.d20pfsrd.com/skills/craft\">Craft</a> (alchemy) DC 20; This ink is keyed to either two common triggers or one uncommon trigger, such as blood or acid. A successful DC 25 <a href=\"https://www.d20pfsrd.com/skills/craft\">Craft</a> (alchemy) check takes 1 hour and reveals the message without the proper trigger.</li>\r\n<li><b>Good</b>: <b>Create</b> <a href=\"https://www.d20pfsrd.com/skills/craft\">Craft</a> (alchemy) DC 20; This ink is keyed to either two uncommon triggers or one rare trigger, such as a specific vintage of wine or a specific kind of monster's blood. A successful DC 30 <a href=\"https://www.d20pfsrd.com/skills/craft\">Craft</a> (alchemy) check takes 1 hour and reveals the message without the proper trigger.</li>\r\n<li><b>Superior</b>: <b>Create</b> <a href=\"https://www.d20pfsrd.com/skills/craft\">Craft</a> (alchemy) DC 25; This ink is keyed to either two rare triggers or one unique trigger, such as the blood of a specific person. A successful DC 35 <a href=\"https://www.d20pfsrd.com/skills/craft\">Craft</a> (alchemy) check takes 1 hour and reveals the message without the proper trigger.</li>\r\n</ul>\r\n"
    },
    "tags": [],
    "price": 8,
    "equipped": false,
    "identifiedName": "Ink, Invisible",
    "changes": [],
    "contextNotes": [],
    "links": {
      "children": []
    },
    "flags": {
      "boolean": [],
      "dictionary": []
    },
    "scriptCalls": [],
    "subType": "gear"
  },
  "ownership": {
    "default": 0
  },
  "_stats": {
    "systemId": "pf1",
    "systemVersion": "0.82.1",
    "coreVersion": "10.285",
    "createdTime": 1663018753630,
    "modifiedTime": 1663018755715,
    "lastModifiedBy": "DbeAbHwpEqczKjsD"
  }
}
