{
  "_id": "If6OouoBlHtNlyPt",
  "name": "Ioun Torch",
  "type": "loot",
  "img": "systems/pf1/icons/items/inventory/dice.jpg",
  "effects": [],
  "folder": null,
  "sort": 0,
  "flags": {},
  "system": {
    "description": {
      "value": "<p>Source&nbsp;<a href=\"http://paizo.com/products/btpy8tmc?Pathfinder-Roleplaying-Game-Ultimate-Equipment\" target=\"_blank\" rel=\"noopener\">Ultimate Equipment pg. 305</a>,&nbsp;<a href=\"http://paizo.com/pathfinderRPG/v5748btpy8fo1\" target=\"_blank\" rel=\"noopener\">Advanced Player's Guide pg. 306</a><br>Aura&nbsp;strong universal;&nbsp;CL&nbsp;12th<br>Slot&nbsp;none;&nbsp;Price&nbsp;75 gp;&nbsp;Weight&nbsp;—</p>\n<h3>Description</h3>\n<p>This item is merely a burned out, dull gray&nbsp;ioun stone&nbsp;with a&nbsp;continual flame&nbsp;spell cast upon it. It retains the ability to float and orbit, and allows the bearer to carry light and still have his hands free. It may be in any crystalline shape common to&nbsp;ioun stones&nbsp;(ellipsoid, prism, sphere, and so on).</p>\n<h3>Construction</h3>\n<p>Requirements&nbsp;Craft Wondrous Item,&nbsp;continual flame, creator must be 12th level;&nbsp;Cost&nbsp;62 gp, 5 SP</p>"
    },
    "tags": [],
    "price": 75,
    "equipped": false,
    "identifiedName": "Ioun Torch",
    "changes": [],
    "contextNotes": [],
    "links": {
      "children": []
    },
    "flags": {
      "boolean": [],
      "dictionary": []
    },
    "scriptCalls": [],
    "subType": "gear"
  },
  "ownership": {
    "default": 0
  },
  "_stats": {
    "systemId": "pf1",
    "systemVersion": "0.82.1",
    "coreVersion": "10.285",
    "createdTime": 1663018752791,
    "modifiedTime": 1663018755656,
    "lastModifiedBy": "DbeAbHwpEqczKjsD"
  }
}
