{
  "_id": "lrywqaxczwqljlsm",
  "name": "Key, Wax Blank",
  "type": "loot",
  "img": "systems/pf1/icons/items/inventory/dice.jpg",
  "effects": [],
  "folder": null,
  "sort": 0,
  "flags": {},
  "system": {
    "description": {
      "value": "\r\n<p class=\"source\"><b>Source</b>: <a title=\"PZO9410\" href=\"http://www.amazon.com/gp/product/1601252226/ref=as_li_qf_sp_asin_il_tl?ie=UTF8&amp;camp=1789&amp;creative=9325&amp;creativeASIN=1601252226&amp;linkCode=as2&amp;tag=httpwwwd20pfs-20\" target=\"_blank\" rel=\"noopener\">PZO9410</a></p>\r\n<p>This two-sided case contains a soft wax that readily takes and keeps an impression of an object pressed between the two halves, creating an excellent mold of the item. A skilled artisan may then make a copy of the item from the mold (and destroying the mold in the process). Making an impression surreptitiously requires a DC 25 <a href=\"https://www.d20pfsrd.com/skills/sleight-of-hand\">Sleight of Hand</a> check.</p>\r\n\r\n"
    },
    "tags": [],
    "equipped": false,
    "changes": [],
    "contextNotes": [],
    "links": {
      "children": []
    },
    "flags": {
      "boolean": [],
      "dictionary": []
    },
    "scriptCalls": [],
    "subType": "gear"
  },
  "ownership": {
    "default": 0
  },
  "_stats": {
    "systemId": "pf1",
    "systemVersion": "0.82.1",
    "coreVersion": "10.285",
    "createdTime": 1663018753272,
    "modifiedTime": 1663018755691,
    "lastModifiedBy": "DbeAbHwpEqczKjsD"
  }
}
