{
  "_id": "eoonmdkcxktaqlma",
  "name": "Kit, Breaker's",
  "type": "loot",
  "img": "systems/pf1/icons/items/inventory/dice.jpg",
  "effects": [],
  "folder": null,
  "sort": 0,
  "flags": {},
  "system": {
    "description": {
      "value": "\r\n<p class=\"source\"><b>Source</b>: <a title=\"PZO9430\" href=\"http://www.amazon.com/gp/product/1601255101/ref=as_li_qf_sp_asin_il_tl?ie=UTF8&amp;camp=1789&amp;creative=9325&amp;creativeASIN=1601255101&amp;linkCode=as2&amp;tag=httpwwwd20pfs-20\" target=\"_blank\" rel=\"noopener\">PZO9430</a></p>\r\n<p><b>Price</b> 353 gp; <b>Weight</b> 40 lbs.</p>\r\n<p>This kit contains all manner of items useful for smashing down doors, creating diversions, and blowing things up. It includes a dose of alchemist's glue, a flask of alchemist's fire, a crowbar, a drill, a fuse grenade, a glass cutter, a jetcaster, a vial of phosphorescent gel, 4 pints of oil, a portable ram, a dose of rusting powder, 5 tindertwigs, and a wire</p>\r\n\r\n"
    },
    "tags": [],
    "weight": {
      "value": 40
    },
    "price": 353,
    "equipped": false,
    "changes": [],
    "contextNotes": [],
    "links": {
      "children": []
    },
    "flags": {
      "boolean": [],
      "dictionary": []
    },
    "scriptCalls": [],
    "subType": "gear"
  },
  "ownership": {
    "default": 0
  },
  "_stats": {
    "systemId": "pf1",
    "systemVersion": "0.82.1",
    "coreVersion": "10.285",
    "createdTime": 1663018753022,
    "modifiedTime": 1663018755679,
    "lastModifiedBy": "DbeAbHwpEqczKjsD"
  }
}
