{
  "_id": "dggirkxotdvbedup",
  "name": "Mask, Monster",
  "type": "loot",
  "img": "systems/pf1/icons/items/inventory/mask-bone.jpg",
  "effects": [],
  "folder": null,
  "sort": 0,
  "flags": {},
  "system": {
    "description": {
      "value": " \n<p><b>Price</b> varies; <b>Weight</b> 1 lb.</p> \n<p>This articulated mask resembles a specific type of <a href=\"https://www.d20pfsrd.com/bestiary/rules-for-monsters/creature-types#TOC-Humanoid\">humanoid</a> monster, such as a <a href=\"https://www.d20pfsrd.com/bestiary/monster-listings/humanoids/bugbear\">bugbear</a>, <a href=\"https://www.d20pfsrd.com/races/other-races/featured-races/arg-goblin\">goblin</a>, <a href=\"https://www.d20pfsrd.com/races/other-races/featured-races/arg-orc\">orc</a>, or <a href=\"https://www.d20pfsrd.com/races/other-races/featured-races/arg-hobgoblin\">hobgoblin</a>. The mouth opens and closes when you move your jaw and its skin is actually carefully-painted cloth. Though such masks are usually intended for theater performances where an actor plays the role of a monster, adventurers have been known to use them to help blend in with monsters of the appropriate type. The mask negates the -2 <a href=\"https://www.d20pfsrd.com/skills/disguise\">Disguise</a> DC for disguising yourself as a different race, but only at a distance of at least 20 feet or when you have <a href=\"https://www.d20pfsrd.com/gamemastering/combat#TOC-Concealment\">concealment</a>; closer than this distance or in clearer circumstances, the mask is obviously a false representation. It only covers your face and is normally worn with a wig or helmet to disguise or cover the rest of your head. Each mask is most suitable for a wearer of a particular size, though some size and monster combinations are less believable than others (a Small creature in an orc mask may be able to pass as an <a href=\"https://www.d20pfsrd.com/races/other-races/featured-races/arg-orc\">orc</a> child, but a Medium creature in a goblin mask at best looks like a deformed <a href=\"https://www.d20pfsrd.com/races/other-races/featured-races/arg-hobgoblin\">hobgoblin</a>).</p> \n"
    },
    "tags": [],
    "weight": {
      "value": 1
    },
    "price": 5,
    "equipped": false,
    "identifiedName": "Mask, Monster",
    "changes": [],
    "contextNotes": [],
    "links": {
      "children": []
    },
    "flags": {
      "boolean": [],
      "dictionary": []
    },
    "scriptCalls": [],
    "subType": "gear"
  },
  "ownership": {
    "default": 0
  },
  "_stats": {
    "systemId": "pf1",
    "systemVersion": "0.82.1",
    "coreVersion": "10.285",
    "createdTime": 1663018752979,
    "modifiedTime": 1663018755675,
    "lastModifiedBy": "DbeAbHwpEqczKjsD"
  }
}
