{
  "_id": "detecfeexzqvpogf",
  "name": "Mead, Linnorm",
  "type": "loot",
  "img": "systems/pf1/icons/items/inventory/dice.jpg",
  "effects": [],
  "folder": null,
  "sort": 0,
  "flags": {},
  "system": {
    "description": {
      "value": "<h4><span id=\"Mead_Linnorm\"><a name=\"TOC-Mead-Linnorm\"></a>Mead, Linnorm</span></h4>\r\n<p class=\"source\"><b>Source</b> <a title=\"PPZO9410\" href=\"http://www.amazon.com/gp/product/1601252226/ref=as_li_qf_sp_asin_il_tl?ie=UTF8&amp;camp=1789&amp;creative=9325&amp;creativeASIN=1601252226&amp;linkCode=as2&amp;tag=httpwwwd20pfs-20\" target=\"_blank\" rel=\"noopener\">PPZO9410</a></p>\r\n<p>This honey mead is sweet and strong and, according to <a href=\"https://www.d20pfsrd.com/classes/core-classes/bard\">bards</a>, is an indisputable aid to singing.</p>\r\n<p>The listed prices are for a tavern or restaurant in an average city.</p>\r\n"
    },
    "tags": [],
    "equipped": false,
    "changes": [],
    "contextNotes": [],
    "links": {
      "children": []
    },
    "flags": {
      "boolean": [],
      "dictionary": []
    },
    "scriptCalls": [],
    "subType": "gear"
  },
  "ownership": {
    "default": 0
  },
  "_stats": {
    "systemId": "pf1",
    "systemVersion": "0.82.1",
    "coreVersion": "10.285",
    "createdTime": 1663018752976,
    "modifiedTime": 1663018755675,
    "lastModifiedBy": "DbeAbHwpEqczKjsD"
  }
}
