{
  "_id": "bvtdtkfrvjesnawz",
  "name": "Moonrod",
  "type": "loot",
  "img": "systems/pf1/icons/items/inventory/dice.jpg",
  "effects": [],
  "folder": null,
  "sort": 0,
  "flags": {},
  "system": {
    "description": {
      "value": "<h4><span id=\"Moonrod\"><a name=\"TOC-Moonrod\"></a>Moonrod</span></h4>\r\n<p class=\"source\"><b>Source</b> <a title=\"PZO1121\" href=\"http://www.amazon.com/gp/product/1601253907/ref=as_li_qf_sp_asin_il_tl?ie=UTF8&amp;camp=1789&amp;creative=9325&amp;creativeASIN=1601253907&amp;linkCode=as2&amp;tag=httpwwwd20pfs-20\" target=\"_blank\" rel=\"noopener\">PZO1121</a></p>\r\n<p>This 1-foot-long, silver-tipped tin rod glows dimly when struck as a <a href=\"https://www.d20pfsrd.com/gamemastering/combat#TOC-Standard-Actions\">standard action</a>. It sheds dim light in a 30-foot radius. However, the light given off by a moonrod is particularly easily to perceive for creatures with <a href=\"https://www.d20pfsrd.com/gamemastering/special-abilities#TOC-Low-Light-Vision\">low-light vision</a>. For such creatures, a moonrod increases the light level by one step (to a maximum of normal) for a 60-foot radius. It glows for 6 hours, after which the silver tip is burned out and worthless.</p>\r\n"
    },
    "tags": [],
    "equipped": false,
    "changes": [],
    "contextNotes": [],
    "links": {
      "children": []
    },
    "flags": {
      "boolean": [],
      "dictionary": []
    },
    "scriptCalls": [],
    "subType": "gear"
  },
  "ownership": {
    "default": 0
  },
  "_stats": {
    "systemId": "pf1",
    "systemVersion": "0.82.1",
    "coreVersion": "10.285",
    "createdTime": 1663018752947,
    "modifiedTime": 1663018755673,
    "lastModifiedBy": "DbeAbHwpEqczKjsD"
  }
}
