{
  "_id": "cdjqfzethpqxgpxu",
  "name": "Mugwort Extract",
  "type": "loot",
  "img": "systems/pf1/icons/items/inventory/dice.jpg",
  "effects": [],
  "folder": null,
  "sort": 0,
  "flags": {},
  "system": {
    "description": {
      "value": "\r\n<p class=\"source\"><b>Source</b> <a href=\"http://www.amazon.com/gp/product/1601256051/ref=as_li_qf_sp_asin_il_tl?ie=UTF8&amp;camp=1789&amp;creative=9325&amp;creativeASIN=1601256051&amp;linkCode=as2&amp;tag=httpwwwd20pfs-20\" target=\"_blank\" rel=\"noopener\">PZO9445</a></p>\r\n<p><b>Price</b> 2 gp; <b>Weight</b> -</p>\r\n<p>Many varieties of mugwort exist; some are used in acupuncture, while others are key ingredients in herbal remedies that ward off <a href=\"https://www.d20pfsrd.com/gamemastering/conditions#TOC-Fatigued\">fatigue</a>, cold, or even <a href=\"https://www.d20pfsrd.com/magic#TOC-Supernatural-Abilities-Su-\">supernatural</a> dangers.</p>\r\n<p class=\"header\">Alchemical Power Component</p>\r\n<p><b>Doses</b> 2 (4gp); <b>Spells</b> <a href=\"https://www.d20pfsrd.com/magic#TOC-Abjuration\">abjuration</a> school</p>\r\n<p>Spells of the <a href=\"https://www.d20pfsrd.com/magic#TOC-Abjuration\">abjuration</a> school are cast at +1 <a href=\"https://www.d20pfsrd.com/magic#TOC-Caster-Level\">caster level</a> for the purpose of determining range.</p>\r\n"
    },
    "tags": [],
    "price": 2,
    "equipped": false,
    "changes": [],
    "contextNotes": [],
    "links": {
      "children": []
    },
    "flags": {
      "boolean": [],
      "dictionary": []
    },
    "scriptCalls": [],
    "subType": "gear"
  },
  "ownership": {
    "default": 0
  },
  "_stats": {
    "systemId": "pf1",
    "systemVersion": "0.82.1",
    "coreVersion": "10.285",
    "createdTime": 1663018752950,
    "modifiedTime": 1663018755673,
    "lastModifiedBy": "DbeAbHwpEqczKjsD"
  }
}
