{
  "_id": "pszdpdmgxixwpyis",
  "name": "Oil, Anointing",
  "type": "loot",
  "img": "systems/pf1/icons/items/inventory/dice.jpg",
  "effects": [],
  "folder": null,
  "sort": 0,
  "flags": {},
  "system": {
    "description": {
      "value": "\r\n<p class=\"source\"><b>Source</b> <a title=\"PZO1121\" href=\"http://www.amazon.com/gp/product/1601253907/ref=as_li_qf_sp_asin_il_tl?ie=UTF8&amp;camp=1789&amp;creative=9325&amp;creativeASIN=1601253907&amp;linkCode=as2&amp;tag=httpwwwd20pfs-20\" target=\"_blank\" rel=\"noopener\">PZO1121</a></p>\r\n<p>This sacred oil, infused with aromatic spices and distilled holy water, may be applied to a creature while casting a harmless divine spell with a range of touch, increasing the <a href=\"https://www.d20pfsrd.com/magic#TOC-Casting-Time\">casting time</a> to a <a href=\"https://www.d20pfsrd.com/gamemastering/combat#TOC-Full-Round-Actions\">full-round action</a> but also increasing the caster's effective <a href=\"https://www.d20pfsrd.com/magic#TOC-Caster-Level\">caster level</a> by +1 for that spell.</p>\r\n"
    },
    "tags": [],
    "weight": {
      "value": 1
    },
    "price": 25,
    "equipped": false,
    "changes": [],
    "contextNotes": [],
    "links": {
      "children": []
    },
    "flags": {
      "boolean": [],
      "dictionary": []
    },
    "scriptCalls": [],
    "subType": "gear"
  },
  "ownership": {
    "default": 0
  },
  "_stats": {
    "systemId": "pf1",
    "systemVersion": "0.82.1",
    "coreVersion": "10.285",
    "createdTime": 1663018753350,
    "modifiedTime": 1663018755703,
    "lastModifiedBy": "DbeAbHwpEqczKjsD"
  }
}
