{
  "_id": "dycegcdbemfgwphs",
  "name": "Paste, Blackfingers",
  "type": "loot",
  "img": "systems/pf1/icons/items/inventory/dice.jpg",
  "effects": [],
  "folder": null,
  "sort": 0,
  "flags": {},
  "system": {
    "description": {
      "value": "\r\n<p class=\"source\"><b>Source</b> PZO9232</p>\r\n<p>This inky paste aids unskilled <a href=\"https://www.d20pfsrd.com/gamemastering/afflictions/poison\">poison</a>-users. When smeared on the fingers, a dose of blackfingers paste prevents accidental poisoning while applying <a href=\"https://www.d20pfsrd.com/gamemastering/afflictions/poison\">poison</a> to a weapon, as if the user possessed the poison use ability. A single dose of blackfingers paste lasts for 1d6 hours, but the black stains the stuff creates on the user's fingers lasts for days. A single dose of this alchemical item costs 50 gp.</p>\r\n"
    },
    "tags": [],
    "price": 50,
    "equipped": false,
    "changes": [],
    "contextNotes": [],
    "links": {
      "children": []
    },
    "flags": {
      "boolean": [],
      "dictionary": []
    },
    "scriptCalls": [],
    "subType": "gear"
  },
  "ownership": {
    "default": 0
  },
  "_stats": {
    "systemId": "pf1",
    "systemVersion": "0.82.1",
    "coreVersion": "10.285",
    "createdTime": 1663018752993,
    "modifiedTime": 1663018755677,
    "lastModifiedBy": "DbeAbHwpEqczKjsD"
  }
}
