{
  "_id": "emnNEjzwJW7Vj9Y4",
  "name": "Pedzahr",
  "type": "loot",
  "img": "systems/pf1/icons/items/inventory/dice.jpg",
  "effects": [],
  "folder": null,
  "sort": 0,
  "flags": {},
  "system": {
    "description": {
      "value": "<p>Source&nbsp;<a href=\"http://paizo.com/products/btpy8tmc?Pathfinder-Roleplaying-Game-Ultimate-Equipment\" target=\"_blank\" rel=\"noopener\">Ultimate Equipment pg. 101</a><br>Price&nbsp;80 gp;&nbsp;Weight&nbsp;—<br>Category&nbsp;Alchemical Remedies</p>\n<h3>Description</h3>\n<p>Drinking this crystal-clear liquid accelerates the natural process of healing Constitution damage. Resting for 1 hour after drinking a vial heals you of 1 point of Constitution damage as if you had benefited from a full night’s rest. Taking multiple doses in an hour does not increase the rate of healing; you must take each individually, followed by an hour of rest, for it to have any effect. Using more than 4 doses of padzahr in 1 day has no effect.</p>\n<h3>Construction</h3>\n<p>Craft (Alchemy)&nbsp;DC 25</p>"
    },
    "tags": [],
    "price": 80,
    "equipped": false,
    "identifiedName": "Pedzahr",
    "changes": [],
    "contextNotes": [],
    "links": {
      "children": []
    },
    "flags": {
      "boolean": [],
      "dictionary": []
    },
    "scriptCalls": [],
    "subType": "gear"
  },
  "ownership": {
    "default": 0
  },
  "_stats": {
    "systemId": "pf1",
    "systemVersion": "0.82.1",
    "coreVersion": "10.285",
    "createdTime": 1663018753019,
    "modifiedTime": 1663018755679,
    "lastModifiedBy": "DbeAbHwpEqczKjsD"
  }
}
