{
  "_id": "luvkdcbykroosccf",
  "name": "Peptus Salix",
  "type": "loot",
  "img": "systems/pf1/icons/items/inventory/dice.jpg",
  "effects": [],
  "folder": null,
  "sort": 0,
  "flags": {},
  "system": {
    "description": {
      "value": "\r\n<p><b>Price</b> 30 gp; <b>Weight</b> -</p>\r\n<p>This pink liquid has a horrible chalky taste, but is quite effective at counteracting nausea, indigestion, and diarrhea. A vial taken in small doses during the day, alleviates these symptoms. If you drink an entire vial, for 1 hour you get a +2 <a href=\"https://www.d20pfsrd.com/basics-ability-scores/glossary#TOC-Bonus-Alchemical-\">alchemical bonus</a> on <a href=\"https://www.d20pfsrd.com/gamemastering/combat#TOC-Fortitude\">Fortitude</a> saving throws against effects that inflict the <a href=\"https://www.d20pfsrd.com/gamemastering/conditions#TOC-Nauseated\">nauseated</a> or <a href=\"https://www.d20pfsrd.com/gamemastering/conditions#TOC-Sickened\">sickened</a> condition. If you drink a vial of it while suffering from the <a href=\"https://www.d20pfsrd.com/gamemastering/conditions#TOC-Nauseated\">nauseated</a> or <a href=\"https://www.d20pfsrd.com/gamemastering/conditions#TOC-Sickened\">sickened</a> condition, you may immediately roll another saving throw (with the +2 bonus) against the effect; you may gain this particular benefit only once per day. Drinking a vial (whether over the course of a day or all at once) usually turns your tongue black for about a day, though this is a harmless side effect.</p>\r\n"
    },
    "tags": [],
    "price": 30,
    "equipped": false,
    "changes": [],
    "contextNotes": [],
    "links": {
      "children": []
    },
    "flags": {
      "boolean": [],
      "dictionary": []
    },
    "scriptCalls": [],
    "subType": "gear"
  },
  "ownership": {
    "default": 0
  },
  "_stats": {
    "systemId": "pf1",
    "systemVersion": "0.82.1",
    "coreVersion": "10.285",
    "createdTime": 1663018753275,
    "modifiedTime": 1663018755692,
    "lastModifiedBy": "DbeAbHwpEqczKjsD"
  }
}
