{
  "_id": "ytzbgxovjovhwasq",
  "name": "Powder, Rusting",
  "type": "loot",
  "img": "systems/pf1/icons/items/inventory/dice.jpg",
  "effects": [],
  "folder": null,
  "sort": 0,
  "flags": {},
  "system": {
    "description": {
      "value": "\r\n<p><b>Price</b> 60 gp; <b>Weight</b> -</p>\r\n<p>This flaky brown powder derived from rust monster fluids causes iron and similar metals to corrode and fall apart. If you apply a dose of rusting powder to a metal lock or trap as part of using the Disable Device skill, you gain a +5 alchemical bonus to open the lock or disable the trap, but there is a 75% chance that the mechanism is destroyed and cannot be used afterward. If the check fails, the mechanism is destroyed. A destroyed lock cannot be unlocked (but still counts as locked for the purpose opening the locked object). A destroyed trap mechanism immediately triggers the trap. If you fail the DC by 5 or more, the powder also lands on an object in your square (including possibly your armor or weapon), dealing 5 hit points of damage to the object.</p>\r\n<p>Rusting powder is sold in a paper tube; you apply it by tearing the ends off the tube and blowing the flakes into the target device. Rusting powder does not affect gold, silver, copper, bronze, brass, or mithral, but easily affects iron, steel, and adamantine.</p>\r\n"
    },
    "tags": [],
    "price": 60,
    "equipped": false,
    "changes": [],
    "contextNotes": [],
    "links": {
      "children": []
    },
    "flags": {
      "boolean": [],
      "dictionary": []
    },
    "scriptCalls": [],
    "subType": "gear"
  },
  "ownership": {
    "default": 0
  },
  "_stats": {
    "systemId": "pf1",
    "systemVersion": "0.82.1",
    "coreVersion": "10.285",
    "createdTime": 1663018753667,
    "modifiedTime": 1663018755720,
    "lastModifiedBy": "DbeAbHwpEqczKjsD"
  }
}
