{
  "_id": "pmmhtjogemjnlicl",
  "name": "Tabard",
  "type": "loot",
  "img": "systems/pf1/icons/items/inventory/dice.jpg",
  "effects": [],
  "folder": null,
  "sort": 0,
  "flags": {},
  "system": {
    "description": {
      "value": " \n<p><b>Price</b> 5 gp; <b>Weight</b> 1 lb.</p> \n<p>Often worn over <a href=\"https://www.d20pfsrd.com/basics-ability-scores/glossary#TOC-Armor-Bonus\">armor</a>, this outer garment is usually sleeveless and open at the sides. The broad front provides a <a href=\"https://www.d20pfsrd.com/equipment/goods-and-services/hunting-camping-survival-geaR/#TOC-Canvas-sq.-yd.-\">canvas</a> for insignias and coats of arms, making a wearer's membership in an order readily apparent.</p> \n"
    },
    "tags": [],
    "weight": {
      "value": 1
    },
    "price": 5,
    "equipped": false,
    "changes": [],
    "contextNotes": [],
    "links": {
      "children": []
    },
    "flags": {
      "boolean": [],
      "dictionary": []
    },
    "scriptCalls": [],
    "subType": "gear"
  },
  "ownership": {
    "default": 0
  },
  "_stats": {
    "systemId": "pf1",
    "systemVersion": "0.82.1",
    "coreVersion": "10.285",
    "createdTime": 1663018753348,
    "modifiedTime": 1663018755702,
    "lastModifiedBy": "DbeAbHwpEqczKjsD"
  }
}
