{
  "_id": "dxgyonpqubjscduu",
  "name": "Tools, Surgeon's",
  "type": "loot",
  "img": "systems/pf1/icons/items/inventory/dice.jpg",
  "effects": [],
  "folder": null,
  "sort": 0,
  "flags": {},
  "system": {
    "description": {
      "value": "\r\n<p><b>Price</b> 20 gp; <b>Weight</b> 5 lbs.</p>\r\n<p>When used in conjunction with a healer's kit, surgeon's tools raise the kit's bonus to a +3 <a href=\"https://www.d20pfsrd.com/basics-ability-scores/glossary#TOC-Circumstance-Bonus\">circumstance bonus</a> on <a href=\"https://www.d20pfsrd.com/skills/heal\">Heal</a> checks to treat wounds or deadly wounds.</p>\r\n\r\n"
    },
    "tags": [],
    "weight": {
      "value": 5
    },
    "price": 20,
    "equipped": false,
    "changes": [],
    "contextNotes": [],
    "links": {
      "children": []
    },
    "flags": {
      "boolean": [],
      "dictionary": []
    },
    "scriptCalls": [],
    "subType": "gear"
  },
  "ownership": {
    "default": 0
  },
  "_stats": {
    "systemId": "pf1",
    "systemVersion": "0.82.1",
    "coreVersion": "10.285",
    "createdTime": 1663018752991,
    "modifiedTime": 1663018755677,
    "lastModifiedBy": "DbeAbHwpEqczKjsD"
  }
}
