{
  "_id": "urnyegqxtbxjyokm",
  "name": "Tools, Thieves' (Common)",
  "type": "loot",
  "img": "systems/pf1/icons/items/inventory/lockpick.jpg",
  "effects": [],
  "folder": null,
  "sort": 0,
  "flags": {},
  "system": {
    "description": {
      "value": "<p>This kit contains lockpicks and other tools you need to use the @Compendium[pf1.skills.CCy1fajKKU3K02iQ]{Disable Device} skill. Without these tools, you must use improvised tools, and you take a -2 circumstance penalty on @Compendium[pf1.skills.CCy1fajKKU3K02iQ]{Disable Device}&nbsp;checks.</p>"
    },
    "tags": [],
    "weight": {
      "value": 1
    },
    "price": 30,
    "equipped": false,
    "identifiedName": "Tools, Thieves' (Common)",
    "changes": [],
    "contextNotes": [],
    "links": {
      "children": []
    },
    "flags": {
      "boolean": [],
      "dictionary": []
    },
    "scriptCalls": [],
    "subType": "gear"
  },
  "ownership": {
    "default": 0
  },
  "_stats": {
    "systemId": "pf1",
    "systemVersion": "0.82.1",
    "coreVersion": "10.285",
    "createdTime": 1663018753581,
    "modifiedTime": 1663018755712,
    "lastModifiedBy": "DbeAbHwpEqczKjsD"
  }
}
