{
  "_id": "ircamssdnmgdzehw",
  "name": "Urea",
  "type": "loot",
  "img": "systems/pf1/icons/items/inventory/dice.jpg",
  "effects": [],
  "folder": null,
  "sort": 0,
  "flags": {},
  "system": {
    "description": {
      "value": "\r\n<p class=\"source\"><b>Source</b> <a href=\"http://www.amazon.com/gp/product/1601256051/ref=as_li_qf_sp_asin_il_tl?ie=UTF8&amp;camp=1789&amp;creative=9325&amp;creativeASIN=1601256051&amp;linkCode=as2&amp;tag=httpwwwd20pfs-20\" target=\"_blank\" rel=\"noopener\">PZO9445</a></p>\r\n<p><b>Price</b> 5 sp; <b>Weight</b> -</p>\r\n<p>Urea is a highly versatile reagent most commonly used in salves and as a stabilizer for particularly volatile alchemical reactions.</p>\r\n<p class=\"header\">Alchemical Power Component</p>\r\n<p><b>Doses</b> 4 (2 gp); <b>Spells</b> cold descriptor</p>\r\n<p>Spells with the [cold] descriptor are cast at +1 caster level for the purpose of all effects.</p>\r\n<h3 style=\"margin-top: 30px;border-bottom-style: solid;border-bottom-width: thin\"><span id=\"Misc_Substances\"><a name=\"TOC-Misc.-Substances\"></a>Misc. Substances</span></h3>\r\n"
    },
    "tags": [],
    "price": 0.5,
    "equipped": false,
    "changes": [],
    "contextNotes": [],
    "links": {
      "children": []
    },
    "flags": {
      "boolean": [],
      "dictionary": []
    },
    "scriptCalls": [],
    "subType": "gear"
  },
  "ownership": {
    "default": 0
  },
  "_stats": {
    "systemId": "pf1",
    "systemVersion": "0.82.1",
    "coreVersion": "10.285",
    "createdTime": 1663018753208,
    "modifiedTime": 1663018755687,
    "lastModifiedBy": "DbeAbHwpEqczKjsD"
  }
}
