{
  "_id": "qfewkrocvrgcrfxm",
  "name": "Whistle",
  "type": "loot",
  "img": "systems/pf1/icons/items/inventory/dice.jpg",
  "effects": [],
  "folder": null,
  "sort": 0,
  "flags": {},
  "system": {
    "description": {
      "value": "<h4><span id=\"Whistle\"><a name=\"TOC-Whistle\"></a>Whistle</span></h4>\r\n<p><b>Beast Whistle</b> This small wooden whistle emits a high-pitched sound like that of a signal whistle, except the signal is audible only to a specific type of creature-other types of creatures hear only a quiet hissing sound. Beast whistles come in six different varieties: avian, canine, feline, rodent, reptile, and ungulate (other varieties may be available at the GM's discretion). <a href=\"https://www.d20pfsrd.com/bestiary/rules-for-monsters/creature-types#TOC-Animal\">Animals</a> and magical beasts that match a beast whistle's type can hear the whistle as a <a href=\"https://www.d20pfsrd.com/races/core-races/human\">human</a> hears a <a href=\"https://www.d20pfsrd.com/equipment/goods-and-services/toys-games-puzzles#TOC-Whistle-Signal\">signal whistle</a>. Creatures that fit into multiple categories (such as <a href=\"https://www.d20pfsrd.com/bestiary/monster-list/magical-beasts/griffon\">griffons</a>) can usually hear the call of multiple types of whistles, though <a href=\"https://www.d20pfsrd.com/bestiary/rules-for-monsters/creature-types#TOC-Magical-Beast\">magical beasts</a> who don't fit into any of the above categories cannot hear a beast whistle. Beast whistles don't function underwater, except if surrounded by an air bubble or similar effect, though creatures underwater may hear a beast whistle sounded from above the surface if they are close enough. <b>Price</b> 5 gp; <b>Weight</b> -; <b>Source</b> <a title=\"PPC:PPC:FF\" href=\"http://www.amazon.com/gp/product/1601257317/ref=as_li_qf_sp_asin_il_tl?ie=UTF8&amp;camp=1789&amp;creative=9325&amp;creativeASIN=1601257317&amp;linkCode=as2&amp;tag=httpwwwd20pfs-20&amp;linkId=AAR3V2AZDSYEVIBQ\" target=\"_blank\" rel=\"noopener\">PPC:FF</a></p>\r\n<p><b>Signal Whistle</b> With a DC 5 <a href=\"https://www.d20pfsrd.com/skills/perform\">Perform</a> (wind instruments) check, you can use a whistle to signal the same sorts of situations as signal horns. A whistle's piercing report can be clearly heard (<a href=\"https://www.d20pfsrd.com/skills/perception\">Perception</a> DC 0) up to a quarter-mile away. For each quarter-mile beyond, <a href=\"https://www.d20pfsrd.com/skills/perception\">Perception</a> checks to hear a whistle take a -2 penalty. Silent whistles that only animals and other creatures with keen hearing can hear also exist. <b>Price</b> 8 sp; <b>Weight</b> -; <b>Source</b> <a title=\"PZO1123\" href=\"http://www.amazon.com/gp/product/1601254490/ref=as_li_qf_sp_asin_il_tl?ie=UTF8&amp;camp=1789&amp;creative=9325&amp;creativeASIN=1601254490&amp;linkCode=as2&amp;tag=httpwwwd20pfs-20\" target=\"_blank\" rel=\"noopener\">PZO1123</a></p>\r\n<p><b>Silent Whistle</b> Only animals and other creatures with keen hearing can hear this whistle. <b>Price</b> 9 sp; <b>Weight</b> -; <b>Source</b> <a title=\"PZO1123\" href=\"http://www.amazon.com/gp/product/1601254490/ref=as_li_qf_sp_asin_il_tl?ie=UTF8&amp;camp=1789&amp;creative=9325&amp;creativeASIN=1601254490&amp;linkCode=as2&amp;tag=httpwwwd20pfs-20\" target=\"_blank\" rel=\"noopener\">PZO1123</a></p>\r\n"
    },
    "tags": [],
    "price": 5,
    "equipped": false,
    "changes": [],
    "contextNotes": [],
    "links": {
      "children": []
    },
    "flags": {
      "boolean": [],
      "dictionary": []
    },
    "scriptCalls": [],
    "subType": "gear"
  },
  "ownership": {
    "default": 0
  },
  "_stats": {
    "systemId": "pf1",
    "systemVersion": "0.82.1",
    "coreVersion": "10.285",
    "createdTime": 1663018753361,
    "modifiedTime": 1663018755704,
    "lastModifiedBy": "DbeAbHwpEqczKjsD"
  }
}
