{
  "_id": "00cwDcF8VOVvAc28",
  "name": "Accursed Bloodline",
  "type": "feat",
  "img": "systems/pf1/icons/skills/blue_02.jpg",
  "effects": [],
  "folder": null,
  "sort": 0,
  "flags": {},
  "system": {
    "description": {
      "value": "<p><em>Misfortune, pestilence, and nightmares follow your family like vermin drawn to carrion. Somewhere in your family history, a hag’s foul influence entered your bloodline. You may actually be related to the hag, or you may still be suffering the effects of a curse that a hag laid upon your kin in generations past. Now the hag’s powers are part of your heritage.</em></p>\n<p><strong>Class Skill:</strong>&nbsp;<a href=\"https://www.d20pfsrd.com/skills/perception\">Perception</a>.</p>\n<p><strong>Bonus Spells:</strong></p>\n<ul>\n<li>@Compendium[pf1.spells.mczdgwo3xl8c6e26]{Ray Of Enfeeblement}(3rd),</li>\n<li>@Compendium[pf1.spells.648x72rflah0ggyz]{Touch of Idiocy} (5th),</li>\n<li>@Compendium[pf1.spells.vlzave855irdc7yu]{Ray of Exhaustion} (7th),</li>\n<li>@Compendium[pf1.spells.lsboosfk26m0ycqv]{Bestow Curse} (9th),</li>\n<li>@Compendium[pf1.spells.66vvhyiy5q8yzbq2]{Feeblemind} (11th),</li>\n<li>@Compendium[pf1.spells.z8xnkfpufuqapseq]{Eyebite} (13th),</li>\n<li>@Compendium[pf1.spells.s6q72tw2zra9sycu]{Insanity}(15th),</li>\n<li>@Compendium[pf1.spells.ef75tkrzjuotgra2]{Dimensional Lock} (17th),</li>\n<li>@Compendium[pf1.spells.khfprkujokr9uigq]{Energy Drain}&nbsp;(19th).</li>\n</ul>\n<p><strong>Bonus Feats: </strong></p>\n<ul>\n<li>@Compendium[pf1.feats.Q1cY8r0Pvb66pMG0]{Alertness},</li>\n<li>@Compendium[pf1.feats.pmAO1Sni8xx71pLF]{Blind-Fight},</li>\n<li>@Compendium[pf1.feats.u7rGDZUL296QIuA0]{Combat Casting},</li>\n<li>@Compendium[pf1.feats.SUACufUXl12sUvnQ]{Deceitful},</li>\n<li>@Compendium[pf1.feats.F9mKy0SmRo4bTdni]{Defensive Combat Training},</li>\n<li>@Compendium[pf1.feats.ehqx8txNRGMaNOPt]{Endurance},</li>\n<li>@Compendium[pf1.feats.fVRnBIHR4Jq6btvm]{Great Fortitude},</li>\n<li>@Compendium[pf1.feats.0spsP9ylE3goD3jc]{Mounted Combat}.</li>\n</ul>\n<p><strong>Bloodline Arcana: </strong>You count as a hag for the purpose of joining a hag’s coven. The coven must contain at least one hag. In addition, whenever you are within 30 feet of another sorcerer with this bloodline or a&nbsp;<a href=\"https://www.d20pfsrd.com/classes/base-classes/witch\">witch</a>&nbsp;with the coven hex, you can use the&nbsp;<a href=\"https://www.d20pfsrd.com/gamemastering/combat#TOC-Aid-Another\">aid another</a>&nbsp;action to grant a +1 bonus to the other spellcaster’s&nbsp;<a href=\"https://www.d20pfsrd.com/magic#TOC-Caster-Level\">caster level</a>&nbsp;for 1 round.</p>"
    },
    "tags": [],
    "actions": [],
    "attackNotes": [],
    "effectNotes": [],
    "changes": [],
    "contextNotes": [],
    "links": {
      "children": [],
      "charges": []
    },
    "tag": "classFeat_accursedBloodline",
    "useCustomTag": true,
    "armorProf": {
      "value": []
    },
    "weaponProf": {
      "value": []
    },
    "languages": {
      "value": []
    },
    "scriptCalls": [],
    "featType": "classFeat",
    "associations": {
      "classes": [["Sorcerer"]]
    }
  },
  "ownership": {
    "default": 0
  },
  "_stats": {
    "systemId": "pf1",
    "systemVersion": "0.82.1",
    "coreVersion": "10.285",
    "createdTime": 1663018761804,
    "modifiedTime": 1663018778063,
    "lastModifiedBy": "DbeAbHwpEqczKjsD"
  }
}
