{
  "_id": "VVmms0Hmol8UBKqW",
  "name": "Atheist Inspiration",
  "type": "feat",
  "img": "systems/pf1/icons/items/weapons/sword-cane.png",
  "effects": [],
  "folder": null,
  "sort": 0,
  "flags": {},
  "system": {
    "description": {
      "value": "<p>The investigator can use her inspiration on saving throws against divine spells without expending uses of inspiration. This talent counts as the Divine Defiance feat (Pathfinder Player Companion: Faiths &amp; Philosophies 7) for the purpose of meeting the prerequisites of other feats.</p>"
    },
    "tags": [],
    "actions": [],
    "attackNotes": [],
    "effectNotes": [],
    "changes": [],
    "contextNotes": [],
    "links": {
      "children": [],
      "charges": []
    },
    "tag": "classFeat_atheistInspiration",
    "useCustomTag": true,
    "armorProf": {
      "value": []
    },
    "weaponProf": {
      "value": []
    },
    "languages": {
      "value": []
    },
    "scriptCalls": [],
    "featType": "classFeat",
    "associations": {
      "classes": [["Investigator"]]
    },
    "abilityType": "ex"
  },
  "ownership": {
    "default": 0
  },
  "_stats": {
    "systemId": "pf1",
    "systemVersion": "0.82.1",
    "coreVersion": "10.285",
    "createdTime": 1663018765809,
    "modifiedTime": 1663018778285,
    "lastModifiedBy": "DbeAbHwpEqczKjsD"
  }
}
