{
  "_id": "agQIxngdEhTcwqPl",
  "name": "Battle Mystery",
  "type": "feat",
  "img": "systems/pf1/icons/spells/light-magenta-2.jpg",
  "effects": [],
  "folder": null,
  "sort": 0,
  "flags": {},
  "system": {
    "description": {
      "value": "<p><strong>Class Skills:</strong> An oracle with the battle mystery adds Intimidate, Knowledge (engineering), Perception, and Ride to her list of class skills.<br><br><strong>Bonus Spells:</strong>&nbsp;</p>\n<ul>\n<li>@Compendium[pf1.spells.jnlr9cuepka1l26e]{Enlarge Person} (2nd),&nbsp;</li>\n<li>@Compendium[pf1.spells.g33euis7yi9pwddy]{Fog Cloud} (4th),&nbsp;</li>\n<li>@Compendium[pf1.spells.73han2zqxg59u18g]{Magic Vestment} (6th),&nbsp;</li>\n<li>@Compendium[pf1.spells.92hth51cs9oi0nfe]{Wall Of Fire} (8th),&nbsp;</li>\n<li>@Compendium[pf1.spells.6ax0ythzw8n4bta8]{Righteous Might} (10th),&nbsp;</li>\n<li>@Compendium[pf1.spells.8xjcrqg79ugxu5qu]{Bull's Strength, Mass} (12th),&nbsp;</li>\n<li>@Compendium[pf1.spells.578t0lra5ll3aifs]{Control Weather} (14th),&nbsp;</li>\n<li>@Compendium[pf1.spells.a5gcbpwfhu4hh5ic]{Earthquake} (16th),&nbsp;</li>\n<li>@Compendium[pf1.spells.n4e35m6qu9nmkhgm]{Storm Of Vengeance} (18th).</li>\n</ul>"
    },
    "tags": [],
    "actions": [],
    "attackNotes": [],
    "effectNotes": [],
    "changes": [],
    "contextNotes": [],
    "links": {
      "children": [],
      "charges": []
    },
    "tag": "classFeat_battleMystery",
    "useCustomTag": true,
    "armorProf": {
      "value": []
    },
    "weaponProf": {
      "value": []
    },
    "languages": {
      "value": []
    },
    "scriptCalls": [],
    "featType": "classFeat",
    "associations": {
      "classes": [["Oracle"]]
    }
  },
  "ownership": {
    "default": 0
  },
  "_stats": {
    "systemId": "pf1",
    "systemVersion": "0.82.1",
    "coreVersion": "10.285",
    "createdTime": 1663018766630,
    "modifiedTime": 1663018778359,
    "lastModifiedBy": "DbeAbHwpEqczKjsD"
  }
}
