{
  "_id": "XJaZhJfVP0nNbqBw",
  "name": "Bite (1 pt)",
  "type": "feat",
  "img": "systems/pf1/icons/skills/blue_26.jpg",
  "effects": [],
  "folder": null,
  "sort": 0,
  "flags": {},
  "system": {
    "description": {
      "value": "<p>An eidolon's maw is full of razor-sharp teeth, giving it a bite attack. This attack is a primary attack. The bite deals 1d6 points of damage (1d8 if Large, 2d6 if Huge). If the eidolon already has a bite attack, this evolution allows it to deal 1-1/2 times its Strength modifier on damage rolls made with its bite.</p>"
    },
    "tags": [],
    "actions": [],
    "attackNotes": [],
    "effectNotes": [],
    "changes": [],
    "contextNotes": [],
    "links": {
      "children": [],
      "charges": []
    },
    "tag": "classFeat_bite1Pt",
    "useCustomTag": true,
    "armorProf": {
      "value": []
    },
    "weaponProf": {
      "value": []
    },
    "languages": {
      "value": []
    },
    "scriptCalls": [],
    "featType": "classFeat",
    "associations": {
      "classes": [["Eidolon"]]
    },
    "abilityType": "ex"
  },
  "ownership": {
    "default": 0
  },
  "_stats": {
    "systemId": "pf1",
    "systemVersion": "0.82.1",
    "coreVersion": "10.285",
    "createdTime": 1663018766164,
    "modifiedTime": 1663018778304,
    "lastModifiedBy": "DbeAbHwpEqczKjsD"
  }
}
