{
  "_id": "bb7IvQMYGGX9EQvW",
  "name": "Black Market Connections",
  "type": "feat",
  "img": "systems/pf1/icons/items/weapons/dagger.PNG",
  "effects": [],
  "folder": null,
  "sort": 0,
  "flags": {},
  "system": {
    "description": {
      "value": "<p>A rogue with this talent gains better access to magic items from black market connections. She treats every settlement as one size greater for the purpose of determining the gp limit of the base value of items for sale, as well as the number of minor, medium, and major magic items for sale in the settlement. If the settlement is already a metropolis, all minor and medium magic items are for sale, as well as 3d8 major magic items. With a successful Diplomacy check, the rogue can treat the settlement as two sizes larger. If the settlement is already a metropolis and she succeeds at the check, all magic items are for sale. If the settlement is already a large city and she succeeds at the check, all minor and medium magic items are for sale, as well as 3d8 major magic items. With a successful check, the rogue can also sell stolen items on the black market. If the check fails by 5 or more, the rogue does something to spook the market, and treats the city as normal for 1 week. Furthermore, those in control of the black market may alert the authorities to the rogue’s presence in an act of reprisal for spooking the market or to divert attention away from their illicit activities. The DCs of the checks are by settlement size and are given in the table below.<br style=\"color: #ffffff; font-family: 'Century Gothic', CenturyGothic, AppleGothic, sans-serif; font-size: 15px; background-color: #0f0f0f;\"><br style=\"color: #ffffff; font-family: 'Century Gothic', CenturyGothic, AppleGothic, sans-serif; font-size: 15px; background-color: #0f0f0f;\"></p>\n<table class=\"inner\" style=\"border-color: white; color: #ffffff; font-family: 'Century Gothic', CenturyGothic, AppleGothic, sans-serif; font-size: 15px; background-color: #0f0f0f;\">\n<tbody style=\"margin-top: 0px;\">\n<tr style=\"margin-top: 0px;\">\n<td style=\"margin: 0px; border: 1px solid white; padding: 1px 5px; text-align: center;\"><strong style=\"margin-top: 0px;\">Community Size</strong></td>\n<td style=\"border: 1px solid white; padding: 1px 5px; margin: 0px; text-align: center;\"><strong style=\"margin-top: 0px;\">DC</strong></td>\n</tr>\n<tr style=\"background: #3e3e3e;\">\n<td style=\"margin: 0px; border: 1px solid white; padding: 1px 5px; text-align: center;\">Thorp</td>\n<td style=\"border: 1px solid white; padding: 1px 5px; margin: 0px; text-align: center;\">10</td>\n</tr>\n<tr>\n<td style=\"margin: 0px; border: 1px solid white; padding: 1px 5px; text-align: center;\">Hamlet</td>\n<td style=\"border: 1px solid white; padding: 1px 5px; margin: 0px; text-align: center;\">12</td>\n</tr>\n<tr style=\"background: #3e3e3e;\">\n<td style=\"margin: 0px; border: 1px solid white; padding: 1px 5px; text-align: center;\">Village</td>\n<td style=\"border: 1px solid white; padding: 1px 5px; margin: 0px; text-align: center;\">15</td>\n</tr>\n<tr>\n<td style=\"margin: 0px; border: 1px solid white; padding: 1px 5px; text-align: center;\">Small town</td>\n<td style=\"border: 1px solid white; padding: 1px 5px; margin: 0px; text-align: center;\">18</td>\n</tr>\n<tr style=\"background: #3e3e3e;\">\n<td style=\"margin: 0px; border: 1px solid white; padding: 1px 5px; text-align: center;\">Large town</td>\n<td style=\"border: 1px solid white; padding: 1px 5px; margin: 0px; text-align: center;\">20</td>\n</tr>\n<tr>\n<td style=\"margin: 0px; border: 1px solid white; padding: 1px 5px; text-align: center;\">Small city</td>\n<td style=\"border: 1px solid white; padding: 1px 5px; margin: 0px; text-align: center;\">25</td>\n</tr>\n<tr style=\"background: #3e3e3e;\">\n<td style=\"margin: 0px; border: 1px solid white; padding: 1px 5px; text-align: center;\">Large city</td>\n<td style=\"border: 1px solid white; padding: 1px 5px; margin: 0px; text-align: center;\">30</td>\n</tr>\n<tr>\n<td style=\"margin: 0px; border: 1px solid white; padding: 1px 5px; text-align: center;\">Metropolis</td>\n<td style=\"border: 1px solid white; padding: 1px 5px; margin: 0px; text-align: center;\">35</td>\n</tr>\n</tbody>\n</table>"
    },
    "tags": [],
    "actions": [],
    "attackNotes": [],
    "effectNotes": [],
    "changes": [],
    "contextNotes": [],
    "links": {
      "children": [],
      "charges": []
    },
    "tag": "classFeat_blackMarketConnections",
    "useCustomTag": true,
    "armorProf": {
      "value": []
    },
    "weaponProf": {
      "value": []
    },
    "languages": {
      "value": []
    },
    "scriptCalls": [],
    "featType": "classFeat",
    "associations": {
      "classes": [["Rogue"]]
    },
    "abilityType": "ex"
  },
  "ownership": {
    "default": 0
  },
  "_stats": {
    "systemId": "pf1",
    "systemVersion": "0.82.1",
    "coreVersion": "10.285",
    "createdTime": 1663018766676,
    "modifiedTime": 1663018778397,
    "lastModifiedBy": "DbeAbHwpEqczKjsD"
  }
}
