{
  "_id": "ekSRUkLy9QM7HcUB",
  "name": "Call Fire",
  "type": "feat",
  "img": "systems/pf1/icons/spells/beam-red-1.jpg",
  "effects": [],
  "folder": null,
  "sort": 0,
  "flags": {},
  "system": {
    "description": {
      "value": "<p>As a standard action, you can stretch out your hand toward any visible fire source within 60 feet and beckon it toward you. This causes a ribbon-thin streak of fire to approach you in a straight line through the air. Any creature directly in the fire ribbon’s path takes 1d4 points of fire damage; a successful Reflex save (DC = 10 + half your class level + your Wisdom modifier) negates this damage. When the ribbon of fire reaches your hand, it either extinguishes or lights a flammable object of your choice that you’re holding. You can use this ability a number of times per day equal to 3 + your Wisdom modifier.</p>\n<p>This power replaces the Fire Bolt power of the Fire Domain.</p>"
    },
    "tags": [],
    "actions": [
      {
        "_id": "3201d46nly2o2yxu",
        "name": "Use",
        "img": "systems/pf1/icons/spells/beam-red-1.jpg",
        "description": "",
        "tag": "",
        "activation": {
          "cost": 1,
          "type": "standard"
        },
        "unchainedAction": {
          "activation": {
            "cost": 2,
            "type": "action"
          }
        },
        "duration": {
          "value": null,
          "units": "inst"
        },
        "target": {
          "value": "one creature"
        },
        "range": {
          "value": "60",
          "units": "ft",
          "maxIncrements": 1,
          "minValue": null,
          "minUnits": ""
        },
        "uses": {
          "autoDeductCharges": true,
          "autoDeductChargesCost": "1",
          "self": {
            "value": 0,
            "maxFormula": "",
            "per": null
          },
          "per": "day",
          "value": 0,
          "maxFormula": "3 + @abilities.wis.mod"
        },
        "measureTemplate": {
          "type": "",
          "size": "0",
          "overrideColor": false,
          "customColor": "",
          "overrideTexture": false,
          "customTexture": ""
        },
        "attackName": "",
        "actionType": "",
        "attackBonus": "",
        "critConfirmBonus": "",
        "damage": {
          "parts": [],
          "critParts": [],
          "nonCritParts": []
        },
        "attackParts": [],
        "formulaicAttacks": {
          "count": {
            "formula": ""
          },
          "bonus": {
            "formula": ""
          },
          "label": null
        },
        "formula": "",
        "ability": {
          "attack": null,
          "damage": null,
          "damageMult": 1,
          "critRange": 20,
          "critMult": 2
        },
        "save": {
          "dc": 0,
          "type": "",
          "description": ""
        },
        "effectNotes": [],
        "attackNotes": [],
        "soundEffect": "",
        "powerAttack": {
          "multiplier": "",
          "damageBonus": 2,
          "critMultiplier": 1
        },
        "naturalAttack": {
          "primaryAttack": true,
          "secondary": {
            "attackBonus": "-5",
            "damageMult": 0.5
          }
        },
        "nonlethal": false,
        "usesAmmo": false,
        "spellEffect": "",
        "spellArea": "",
        "conditionals": [],
        "enh": {
          "value": null
        }
      }
    ],
    "uses": {
      "per": "day",
      "maxFormula": "3 + @abilities.wis.mod"
    },
    "attackNotes": [],
    "effectNotes": [],
    "changes": [],
    "contextNotes": [],
    "links": {
      "children": [],
      "charges": []
    },
    "tag": "classFeat_callFire",
    "useCustomTag": true,
    "armorProf": {
      "value": []
    },
    "weaponProf": {
      "value": []
    },
    "languages": {
      "value": []
    },
    "scriptCalls": [],
    "featType": "classFeat",
    "associations": {
      "classes": [["Cleric"]]
    },
    "abilityType": "su"
  },
  "ownership": {
    "default": 0
  },
  "_stats": {
    "systemId": "pf1",
    "systemVersion": "0.82.1",
    "coreVersion": "10.285",
    "createdTime": 1663018767140,
    "modifiedTime": 1663018778446,
    "lastModifiedBy": "DbeAbHwpEqczKjsD"
  }
}
