{
  "_id": "XvQaeFqp005WoOc0",
  "name": "Companion Animal",
  "type": "feat",
  "img": "systems/pf1/icons/skills/violet_20.jpg",
  "effects": [],
  "folder": null,
  "sort": 0,
  "flags": {},
  "system": {
    "description": {
      "value": "<p>The shaman’s spirit animal takes the form of an animal companion (Core Rulebook&nbsp;51) of her choice, using her shaman level as her effective druid level. The animal retains all the special abilities and the Intelligence score of the spirit animal, but also has the statistics and abilities of an animal companion.</p>\n<p>If the animal is dismissed, is lost, or dies, it can be replaced in the same way as a normal spirit animal.</p>"
    },
    "tags": [],
    "actions": [],
    "attackNotes": [],
    "effectNotes": [],
    "changes": [],
    "contextNotes": [],
    "links": {
      "children": [],
      "charges": []
    },
    "tag": "classFeat_companionAnimal",
    "useCustomTag": true,
    "armorProf": {
      "value": []
    },
    "weaponProf": {
      "value": []
    },
    "languages": {
      "value": []
    },
    "scriptCalls": [],
    "featType": "classFeat",
    "associations": {
      "classes": [["Shaman"]]
    },
    "abilityType": "su"
  },
  "ownership": {
    "default": 0
  },
  "_stats": {
    "systemId": "pf1",
    "systemVersion": "0.82.1",
    "coreVersion": "10.285",
    "createdTime": 1663018766196,
    "modifiedTime": 1663018778310,
    "lastModifiedBy": "DbeAbHwpEqczKjsD"
  }
}
