{
  "_id": "xaA0Sgif8b2HgcQu",
  "name": "Concealing Veil",
  "type": "feat",
  "img": "systems/pf1/icons/skills/violet_26.jpg",
  "effects": [],
  "folder": null,
  "sort": 0,
  "flags": {},
  "system": {
    "description": {
      "value": "<p>When this trick is triggered, the subject is affected by a&nbsp;nondetection&nbsp;spell for 1 round per mesmerist level.</p>"
    },
    "tags": [],
    "actions": [],
    "attackNotes": [],
    "effectNotes": [],
    "changes": [],
    "contextNotes": [],
    "links": {
      "children": [],
      "charges": []
    },
    "tag": "classFeat_concealingVeil",
    "useCustomTag": true,
    "armorProf": {
      "value": []
    },
    "weaponProf": {
      "value": []
    },
    "languages": {
      "value": []
    },
    "scriptCalls": [],
    "featType": "classFeat",
    "associations": {
      "classes": [["Mesmerist"]]
    }
  },
  "ownership": {
    "default": 0
  },
  "_stats": {
    "systemId": "pf1",
    "systemVersion": "0.82.1",
    "coreVersion": "10.285",
    "createdTime": 1663018769717,
    "modifiedTime": 1663018778568,
    "lastModifiedBy": "DbeAbHwpEqczKjsD"
  }
}
