{
  "_id": "4yz8wFz8CC89RcON",
  "name": "Crippling Blow (UC)",
  "type": "feat",
  "img": "systems/pf1/icons/feats/deafening-critical.jpg",
  "effects": [],
  "folder": null,
  "sort": 0,
  "flags": {},
  "system": {
    "description": {
      "value": "<p>Once per day when the barbarian hits with an attack, she can deal 1 point of ability damage to the target’s Strength or Dexterity score. This damage increases by 1 point for every 4 levels the barbarian has.</p>\n<p>A barbarian must be at least 8th level to select this rage power.</p>"
    },
    "tags": [],
    "actions": [],
    "attackNotes": [],
    "effectNotes": [],
    "changes": [],
    "contextNotes": [],
    "links": {
      "children": [],
      "charges": []
    },
    "tag": "classFeat_cripplingBlowUc",
    "useCustomTag": true,
    "armorProf": {
      "value": []
    },
    "weaponProf": {
      "value": []
    },
    "languages": {
      "value": []
    },
    "scriptCalls": [],
    "featType": "classFeat",
    "associations": {
      "classes": [["Barbarian (Unchained)"]]
    },
    "abilityType": "ex"
  },
  "ownership": {
    "default": 0
  },
  "_stats": {
    "systemId": "pf1",
    "systemVersion": "0.82.1",
    "coreVersion": "10.285",
    "createdTime": 1663018762450,
    "modifiedTime": 1663018778103,
    "lastModifiedBy": "DbeAbHwpEqczKjsD"
  }
}
