{
  "_id": "4RSsmGUZBhTiGmSj",
  "name": "Detect Good",
  "type": "feat",
  "img": "systems/pf1/icons/skills/shadow_03.jpg",
  "effects": [],
  "folder": null,
  "sort": 0,
  "flags": {},
  "system": {
    "description": {
      "value": "<p>At will, an antipaladin can use @Compendium[pf1.spells.mkgysr5o92kxxn59]{Detect Good}, as the spell. An antipaladin can, as a move action, concentrate on a single item or individual within 60 feet and determine if it is good, learning the strength of its aura as if having studied it for 3 rounds. While focusing on one individual or object, the antipaladin does not detect good in any other object or individual within range.</p>"
    },
    "tags": [],
    "actions": [],
    "attackNotes": [],
    "effectNotes": [],
    "changes": [],
    "contextNotes": [],
    "links": {
      "children": [],
      "charges": []
    },
    "tag": "classFeat_detectGood",
    "useCustomTag": true,
    "armorProf": {
      "value": []
    },
    "weaponProf": {
      "value": []
    },
    "languages": {
      "value": []
    },
    "scriptCalls": [],
    "featType": "classFeat",
    "associations": {
      "classes": [["Antipaladin"]]
    },
    "abilityType": "sp"
  },
  "ownership": {
    "default": 0
  },
  "_stats": {
    "systemId": "pf1",
    "systemVersion": "0.82.1",
    "coreVersion": "10.285",
    "createdTime": 1663018762403,
    "modifiedTime": 1663018778099,
    "lastModifiedBy": "DbeAbHwpEqczKjsD"
  }
}
