{
  "_id": "46IVJwh7pf1ScgI9",
  "name": "Dreamspun Bloodline",
  "type": "feat",
  "img": "systems/pf1/icons/spells/fog-water-air-1.jpg",
  "effects": [],
  "folder": null,
  "sort": 0,
  "flags": {},
  "system": {
    "description": {
      "value": "<p><em>Your family is a long line of dreamers, who dream not as ordinary mortals do but rather as those who reach through and touch the supernal realm of dreams and the farthest shores of night. Whether it is a gift or curse is not always clear, but your visions of the past and future call you ineluctably to a life of adventure.</em></p>\n<p><strong>Class Skill</strong>:&nbsp;<a href=\"https://www.d20pfsrd.com/skills/sense-motive\">Sense Motive</a>.</p>\n<p><strong>Bonus Spells:</strong></p>\n<ul>\n<li>@Compendium[pf1.spells.3plb67e51webutdz]{Sleep}&nbsp;(3rd),</li>\n<li>@Compendium[pf1.spells.d1wxnax51cecplm4]{Augury} (5th),</li>\n<li>@Compendium[pf1.spells.qgmlu83z2l84kjde]{Deep Slumber}&nbsp;(7th),</li>\n<li>@Compendium[pf1.spells.pwueht12qqo0268e]{Divination}&nbsp;(9th),</li>\n<li>@Compendium[pf1.spells.ifcnx1yyw6e7ousm]{Dream}&nbsp;(11th),</li>\n<li>@Compendium[pf1.spells.btoow6tyv39443gh]{Shadow Walk}&nbsp;(13th),</li>\n<li>@Compendium[pf1.spells.aqeaxoaozlv9vg35]{Vision}&nbsp;(15th),</li>\n<li>@Compendium[pf1.spells.2vb5orfcy57lrfmc]{Moment of Prescience} (17th),</li>\n<li>@Compendium[pf1.spells.lnahlmp5mih2ongh]{Astral Projection}&nbsp;(19th).</li>\n</ul>\n<p><strong>Bonus Feats:</strong></p>\n<ul>\n<li>@Compendium[pf1.feats.Q1cY8r0Pvb66pMG0]{Alertness},</li>\n<li>@Compendium[pf1.feats.pmAO1Sni8xx71pLF]{Blind-Fight},</li>\n<li>@Compendium[pf1.feats.NFxHebU1XhEs5WJh]{Combat Expertise},</li>\n<li>@Compendium[pf1.feats.SUACufUXl12sUvnQ]{Deceitful},</li>\n<li>@Compendium[pf1.feats.O109YFcItBFUDHvu]{Heighten Spell},</li>\n<li>@Compendium[pf1.feats.tocde3sKG1O3GKgd]{Improved Feint},</li>\n<li>@Compendium[pf1.feats.L10V7jTzmMYz62zz]{Persuasive},</li>\n<li>@Compendium[pf1.feats.7zJTztNW7hdaqjKc]{Skill Focus}&nbsp;(<a href=\"https://www.d20pfsrd.com/skills/sense-motive\">Sense Motive</a>).</li>\n</ul>\n<p><strong>Bloodline Arcana:</strong> Whenever you target a single creature with a spell, you gain an&nbsp;<a href=\"https://www.d20pfsrd.com/basics-ability-scores/glossary#TOC-Insight-Bonus\">insight bonus</a>&nbsp;equal to half the spell’s level (minimum +1) for 1 round to your&nbsp;<a href=\"https://www.d20pfsrd.com/gamemastering/combat#TOC-armor-Class\">AC</a>&nbsp;and&nbsp;<a href=\"https://www.d20pfsrd.com/gamemastering/combat#TOC-Saving-Throws\">saving throws</a>&nbsp;against any spell or attack made by that creature.</p>"
    },
    "tags": [],
    "actions": [],
    "attackNotes": [],
    "effectNotes": [],
    "changes": [],
    "contextNotes": [],
    "links": {
      "children": [],
      "charges": []
    },
    "tag": "classFeat_dreamspunBloodline",
    "useCustomTag": true,
    "armorProf": {
      "value": []
    },
    "weaponProf": {
      "value": []
    },
    "languages": {
      "value": []
    },
    "scriptCalls": [],
    "featType": "classFeat",
    "associations": {
      "classes": [["Sorcerer"]]
    }
  },
  "ownership": {
    "default": 0
  },
  "_stats": {
    "systemId": "pf1",
    "systemVersion": "0.82.1",
    "coreVersion": "10.285",
    "createdTime": 1663018762382,
    "modifiedTime": 1663018778096,
    "lastModifiedBy": "DbeAbHwpEqczKjsD"
  }
}
