{
  "_id": "7nujXCWzUUu0vouX",
  "name": "Elements Patron",
  "type": "feat",
  "img": "systems/pf1/icons/feats/improved-familiar.jpg",
  "effects": [],
  "folder": null,
  "sort": 0,
  "flags": {},
  "system": {
    "description": {
      "value": "<ul>\n<li>2nd — @Compendium[pf1.spells.33pe0bge7b7aq3io]{Shocking Grasp}</li>\n<li>4th — @Compendium[pf1.spells.lzos34s87qsc620l]{Flaming Sphere}</li>\n<li>6th — @Compendium[pf1.spells.6oq1wcryviik9ice]{Fireball}</li>\n<li>8th — @Compendium[pf1.spells.ijui94bv4uzu8awb]{Wall Of Ice}</li>\n<li>10th — @Compendium[pf1.spells.gmugktarbieojt59]{Flame Strike}</li>\n<li>12th — @Compendium[pf1.spells.ol05jfb606v0lzj9]{Freezing Sphere}</li>\n<li>14th — @Compendium[pf1.spells.tpid8izzs2rrfxv3]{Vortex}</li>\n<li>16th — @Compendium[pf1.spells.9wl8ijy6argdvz5f]{Fire Storm}</li>\n<li>18th — @Compendium[pf1.spells.xhzme0v6tjq95fg6]{Meteor Swarm}</li>\n</ul>"
    },
    "tags": [],
    "actions": [],
    "attackNotes": [],
    "effectNotes": [],
    "changes": [],
    "contextNotes": [],
    "links": {
      "children": [],
      "charges": []
    },
    "tag": "classFeat_elementsPatron",
    "useCustomTag": true,
    "armorProf": {
      "value": []
    },
    "weaponProf": {
      "value": []
    },
    "languages": {
      "value": []
    },
    "scriptCalls": [],
    "featType": "classFeat",
    "associations": {
      "classes": [["Witch"]]
    }
  },
  "ownership": {
    "default": 0
  },
  "_stats": {
    "systemId": "pf1",
    "systemVersion": "0.82.1",
    "coreVersion": "10.285",
    "createdTime": 1663018762903,
    "modifiedTime": 1663018778126,
    "lastModifiedBy": "DbeAbHwpEqczKjsD"
  }
}
