{
  "_id": "4gcOvHz0wmPG4nat",
  "name": "Enervating Infusion",
  "type": "feat",
  "img": "systems/pf1/icons/spells/rip-sky-1.jpg",
  "effects": [],
  "folder": null,
  "sort": 0,
  "flags": {},
  "system": {
    "description": {
      "value": "<p><strong>Element&nbsp;</strong>void;&nbsp;<strong>Type&nbsp;</strong>substance infusion;&nbsp;<strong>Level&nbsp;</strong>7;&nbsp;<strong>Burn&nbsp;</strong>4<br><strong>Associated Blasts&nbsp;</strong>negative, void<br><strong>Saving Throw&nbsp;</strong>Fortitude negates</p>\n<p>Your kinetic blast drains life force. Foes that take damage from your infused blast also take 1 temporary negative level. Negative levels from this infusion fade after 24 hours and never become permanent.</p>"
    },
    "tags": [],
    "actions": [],
    "attackNotes": [],
    "effectNotes": [],
    "changes": [],
    "contextNotes": [],
    "links": {
      "children": [],
      "charges": []
    },
    "tag": "classFeat_enervatingInfusion",
    "useCustomTag": true,
    "armorProf": {
      "value": []
    },
    "weaponProf": {
      "value": []
    },
    "languages": {
      "value": []
    },
    "scriptCalls": [],
    "featType": "classFeat",
    "associations": {
      "classes": [["Kineticist"]]
    }
  },
  "ownership": {
    "default": 0
  },
  "_stats": {
    "systemId": "pf1",
    "systemVersion": "0.82.1",
    "coreVersion": "10.285",
    "createdTime": 1663018762437,
    "modifiedTime": 1663018778102,
    "lastModifiedBy": "DbeAbHwpEqczKjsD"
  }
}
