{
  "_id": "d7ywi83kzYsEVlyy",
  "name": "Etheric Tether",
  "type": "feat",
  "img": "systems/pf1/icons/skills/blue_38.jpg",
  "effects": [],
  "folder": null,
  "sort": 0,
  "flags": {},
  "system": {
    "description": {
      "value": "<p>At 1st level, a spiritualist can force the phantom to manifest in an area around her by pushing the phantom’s consciousness though the veil of ethereal essence, allowing it to fully manifest in either ectoplasmic or incorporeal form. Whenever her manifested phantom takes enough damage to send it back to the Ethereal Plane, as a reaction to the damage, the spiritualist can sacrifice any number of her hit points without using an action. Each hit point sacrificed in this way prevents 1 point of damage dealt to the phantom. This can prevent the phantom from being sent back to the Ethereal Plane.<br><br>This tether is limited. When the phantom is fully manifested, it and the spiritualist must remain within 50 feet of one another for the phantom’s manifestation to stay stable with little to no concentration on the part of the spiritualist. The spiritualist can stretch the limited tether, but only when the phantom is in ectoplasmic form. When a spiritualist starts her turn and her ectoplasmic phantom is more than 50 feet away from her (but closer than 100 feet), the spiritualist must concentrate on the link as a full-round action that provokes attacks of opportunity or the ectoplasmic phantom immediately returns to the Ethereal Plane and cannot be summoned from that plane for 24 hours. This concentration can be interrupted as if it were a spell. Treat this effect’s spell level as equal to 1 + 1 per 10 feet farther than 50 feet that the phantom is from the spiritualist (maximum spell level 6th). If the tether is interrupted or the check fails, the phantom immediately snaps back into the consciousness of its spiritualist master.<br><br>If the ectoplasmic phantom is ever more than 100 feet away from its spiritualist, or the incorporeal phantom is ever 50 feet away from the spiritualist or outside of line of effect from the spiritualist for more than 1 round per spiritualist level the spiritualist possesses, the tether is automatically broken; the phantom immediately returns to the Ethereal Plane and can’t be summoned from that plane for 24 hours.</p>"
    },
    "tags": [],
    "actions": [],
    "attackNotes": [],
    "effectNotes": [],
    "changes": [],
    "contextNotes": [],
    "links": {
      "children": [],
      "charges": []
    },
    "tag": "classFeat_ethericTether",
    "useCustomTag": true,
    "armorProf": {
      "value": []
    },
    "weaponProf": {
      "value": []
    },
    "languages": {
      "value": []
    },
    "scriptCalls": [],
    "featType": "classFeat",
    "associations": {
      "classes": [["Spiritualist"]]
    }
  },
  "ownership": {
    "default": 0
  },
  "_stats": {
    "systemId": "pf1",
    "systemVersion": "0.82.1",
    "coreVersion": "10.285",
    "createdTime": 1663018767019,
    "modifiedTime": 1663018778424,
    "lastModifiedBy": "DbeAbHwpEqczKjsD"
  }
}
