{
  "_id": "8ZykO6OBolskftgi",
  "name": "Evil Domain",
  "type": "feat",
  "img": "systems/pf1/icons/skills/violet_21.jpg",
  "effects": [],
  "folder": null,
  "sort": 0,
  "flags": {},
  "system": {
    "description": {
      "value": "<p><strong>Granted Powers:</strong> You are sinister and cruel, and have wholly pledged your soul to the cause of evil.</p>\n<p><strong>Domain Spells:</strong></p>\n<ul>\n<li>1st—@Compendium[pf1.spells.71g6nmvy8qnodwyz]{Protection From Good}</li>\n<li>2nd—@Compendium[pf1.spells.zujht80bgjdk9cyb]{Align Weapon} (evil only)</li>\n<li>3rd—@Compendium[pf1.spells.ym1we9ko60qcvn4t]{Magic Circle against Good}</li>\n<li>4th—@Compendium[pf1.spells.okui7mft5bquqfrg]{Unholy Blight}</li>\n<li>5th—@Compendium[pf1.spells.xgv1e2ayf1e0br9j]{Dispel Good}</li>\n<li>6th—@Compendium[pf1.spells.c1e7f0ct04k270wy]{Create Undead}</li>\n<li>7th—@Compendium[pf1.spells.baocube6vvey9zlc]{Blasphemy}</li>\n<li>8th—@Compendium[pf1.spells.flrn1xmm2wfrxbkf]{Unholy Aura}</li>\n<li>9th—@Compendium[pf1.spells.mi52crelhwuy6bmp]{Summon Monster IX} (evil spell only)</li>\n</ul>"
    },
    "tags": [],
    "actions": [],
    "attackNotes": [],
    "effectNotes": [],
    "changes": [],
    "contextNotes": [],
    "links": {
      "children": [],
      "charges": []
    },
    "tag": "classFeat_evilDomain",
    "useCustomTag": true,
    "armorProf": {
      "value": []
    },
    "weaponProf": {
      "value": []
    },
    "languages": {
      "value": []
    },
    "scriptCalls": [],
    "featType": "classFeat",
    "associations": {
      "classes": [["Cleric"]]
    }
  },
  "ownership": {
    "default": 0
  },
  "_stats": {
    "systemId": "pf1",
    "systemVersion": "0.82.1",
    "coreVersion": "10.285",
    "createdTime": 1663018762948,
    "modifiedTime": 1663018778132,
    "lastModifiedBy": "DbeAbHwpEqczKjsD"
  }
}
