{
  "_id": "ILRuazj6s9BFPNFT",
  "name": "Eye of the Moon",
  "type": "feat",
  "img": "systems/pf1/icons/spells/light-royal-1.jpg",
  "effects": [],
  "folder": null,
  "sort": 0,
  "flags": {},
  "system": {
    "description": {
      "value": "<p>Your connection to the moon makes you supernaturally perceptive. You gain darkvision to a range of 60 feet. At 11th level, as a standard action, you can focus on a specific object or area (the size of which can be no greater than a 10-foot-by-10-foot square) and see it as though with&nbsp;true seeing&nbsp;as long as the moon is shining on it. Moonless nights, cloudy skies, and shadows interfere with this ability.</p>"
    },
    "tags": [],
    "actions": [],
    "attackNotes": [],
    "effectNotes": [],
    "changes": [],
    "contextNotes": [],
    "links": {
      "children": [],
      "charges": []
    },
    "tag": "classFeat_eyeOfTheMoon",
    "useCustomTag": true,
    "armorProf": {
      "value": []
    },
    "weaponProf": {
      "value": []
    },
    "languages": {
      "value": []
    },
    "scriptCalls": [],
    "featType": "classFeat",
    "associations": {
      "classes": [["Oracle"]]
    },
    "abilityType": "su"
  },
  "ownership": {
    "default": 0
  },
  "_stats": {
    "systemId": "pf1",
    "systemVersion": "0.82.1",
    "coreVersion": "10.285",
    "createdTime": 1663018764278,
    "modifiedTime": 1663018778205,
    "lastModifiedBy": "DbeAbHwpEqczKjsD"
  }
}
