{
  "_id": "OpfGzOdY5kGrK3fA",
  "name": "Fast Circles",
  "type": "feat",
  "img": "systems/pf1/icons/spells/runes-royal-3.jpg",
  "effects": [],
  "folder": null,
  "sort": 0,
  "flags": {},
  "system": {
    "description": {
      "value": "<p>At 16th level, the occultist learns to draw magic circles very quickly. He can draw a magic circle as a full-round action, but any circle drawn in this way has a duration of 1 minute per occultist level (unless it’s drawn in conjunction with the outside contact class feature, in which case it lasts for 10 minutes as normal). If he draws a binding circle in this way, its duration is 1 round per occultist level.</p>"
    },
    "tags": [],
    "actions": [],
    "attackNotes": [],
    "effectNotes": [],
    "changes": [],
    "contextNotes": [],
    "links": {
      "children": [],
      "charges": []
    },
    "tag": "classFeat_fastCircles",
    "useCustomTag": true,
    "armorProf": {
      "value": []
    },
    "weaponProf": {
      "value": []
    },
    "languages": {
      "value": []
    },
    "scriptCalls": [],
    "featType": "classFeat",
    "associations": {
      "classes": [["Occultist"]]
    },
    "abilityType": "su"
  },
  "ownership": {
    "default": 0
  },
  "_stats": {
    "systemId": "pf1",
    "systemVersion": "0.82.1",
    "coreVersion": "10.285",
    "createdTime": 1663018765190,
    "modifiedTime": 1663018778247,
    "lastModifiedBy": "DbeAbHwpEqczKjsD"
  }
}
