{
  "_id": "QO6oW3l5Oio6fyDP",
  "name": "Fear Subdomain",
  "type": "feat",
  "img": "systems/pf1/icons/skills/blood_12.jpg",
  "effects": [],
  "folder": null,
  "sort": 0,
  "flags": {},
  "system": {
    "description": {
      "value": "<p>Replacement Domain Spells:</p>\n<ul>\n<li>1st—@Compendium[pf1.spells.9tww9fc9049h6iqc]{Cause Fear}</li>\n<li>3rd— @Compendium[pf1.spells.j71cjhkj0697faj3]{Scare}</li>\n<li>4th—@Compendium[pf1.spells.be88e90guqbi1q1z]{Fear}.</li>\n</ul>\n<p>&nbsp;</p>"
    },
    "tags": [],
    "actions": [],
    "attackNotes": [],
    "effectNotes": [],
    "changes": [],
    "contextNotes": [],
    "links": {
      "children": [],
      "charges": []
    },
    "tag": "classFeat_fearSubdomain",
    "useCustomTag": true,
    "armorProf": {
      "value": []
    },
    "weaponProf": {
      "value": []
    },
    "languages": {
      "value": []
    },
    "scriptCalls": [],
    "featType": "classFeat",
    "associations": {
      "classes": [["Cleric"]]
    }
  },
  "ownership": {
    "default": 0
  },
  "_stats": {
    "systemId": "pf1",
    "systemVersion": "0.82.1",
    "coreVersion": "10.285",
    "createdTime": 1663018765268,
    "modifiedTime": 1663018778255,
    "lastModifiedBy": "DbeAbHwpEqczKjsD"
  }
}
