{
  "_id": "mk3KEyixKcIUFHzr",
  "name": "Fey Bloodrager Bloodline",
  "type": "feat",
  "img": "systems/pf1/icons/skills/red_13.jpg",
  "effects": [],
  "folder": null,
  "sort": 0,
  "flags": {},
  "system": {
    "description": {
      "value": "<p><em>One of your ancestors was fey, or the fey realm somehow intermixed with your bloodline. It affects your bloodrage in tricky and surprising ways.</em><br><br>Bonus Feats:</p>\n<ul>\n<li>@Compendium[pf1.feats.h9nHYLxXvIXBTmup]{Combat Reflexes}</li>\n<li>@Compendium[pf1.feats.JreaiTHdyWFNj3Tb]{Dodge}</li>\n<li>@Compendium[pf1.feats.Uuiu3p982omhMEPj]{Improved Initiative}</li>\n<li>@Compendium[pf1.feats.0bZf3SDkvVOe2ujH]{Lightning Reflexes}</li>\n<li>@Compendium[pf1.feats.R7L4SlGRlnThqFrP]{Mobility}</li>\n<li>@Compendium[pf1.feats.Mz8ZG6nqW3NKFZhK]{Step Up}</li>\n<li>@Compendium[pf1.feats.O0jbkTJcIji9BNiF]{Intimidating Prowess}</li>\n</ul>\n<p>Bonus Spells:&nbsp;</p>\n<ul>\n<li>@Compendium[pf1.spells.2nn2tshkn4p7k25l]{Entangle} (7th),&nbsp;</li>\n<li>@Compendium[pf1.spells.5nr9o7o0it6ewf17]{Hideous Laughter} (10th),&nbsp;</li>\n<li>@Compendium[pf1.spells.s9amdo5398alb5p0]{Haste} (13th),</li>\n<li>@Compendium[pf1.spells.n0bsyxchnigkkuqo]{Confusion} (16th)</li>\n</ul>"
    },
    "tags": [],
    "actions": [],
    "attackNotes": [],
    "effectNotes": [],
    "changes": [],
    "contextNotes": [],
    "links": {
      "children": [],
      "charges": []
    },
    "tag": "classFeat_feyBloodragerBloodline",
    "useCustomTag": true,
    "armorProf": {
      "value": []
    },
    "weaponProf": {
      "value": []
    },
    "languages": {
      "value": []
    },
    "scriptCalls": [],
    "featType": "classFeat",
    "associations": {
      "classes": [["Bloodrager"]]
    }
  },
  "ownership": {
    "default": 0
  },
  "_stats": {
    "systemId": "pf1",
    "systemVersion": "0.82.1",
    "coreVersion": "10.285",
    "createdTime": 1663018768245,
    "modifiedTime": 1663018778495,
    "lastModifiedBy": "DbeAbHwpEqczKjsD"
  }
}
