{
  "_id": "3n17uy22wPimqAzX",
  "name": "Fiend Totem, Greater",
  "type": "feat",
  "img": "systems/pf1/icons/feats/deafening-critical.jpg",
  "effects": [],
  "folder": null,
  "sort": 0,
  "flags": {},
  "system": {
    "description": {
      "value": "<p>While raging, the barbarian is surrounded by an aura of menace. Good creatures adjacent to the barbarian are shaken and take 2d6 points of slashing damage at the beginning of the barbarian’s turn as dozens of small cuts open across their flesh. Neutral creatures that are adjacent to the barbarian are shaken, but do not take any damage. Evil creatures are unaffected.</p>\n<p>A barbarian must have the fiend totem rage power to select this rage power.</p>\n<p>A barbarian must be at least 10th level to select this rage power.</p>"
    },
    "tags": [],
    "actions": [],
    "attackNotes": [],
    "effectNotes": [],
    "changes": [],
    "contextNotes": [],
    "links": {
      "children": [],
      "charges": []
    },
    "tag": "classFeat_fiendTotemGreater",
    "useCustomTag": true,
    "armorProf": {
      "value": []
    },
    "weaponProf": {
      "value": []
    },
    "languages": {
      "value": []
    },
    "scriptCalls": [],
    "featType": "classFeat",
    "associations": {
      "classes": [["Barbarian"], ["Skald"]]
    },
    "abilityType": "su"
  },
  "ownership": {
    "default": 0
  },
  "_stats": {
    "systemId": "pf1",
    "systemVersion": "0.82.1",
    "coreVersion": "10.285",
    "createdTime": 1663018762368,
    "modifiedTime": 1663018778094,
    "lastModifiedBy": "DbeAbHwpEqczKjsD"
  }
}
