{
  "_id": "TRu1NMreURd0IPpe",
  "name": "Fiendish Probiscus",
  "type": "feat",
  "img": "systems/pf1/icons/spells/runes-blue-2.jpg",
  "effects": [],
  "folder": null,
  "sort": 0,
  "flags": {},
  "system": {
    "description": {
      "value": "<p>The arcanist can spend 1 point from his arcane reservoir as a standard action to grow a long, articulated proboscis covered with small spiky hairs. The appendage grows from the arcanist’s face and houses a highly flexible, muscular tongue tipped with a cartilaginous barbed quill. The proboscis lasts for 1 round per arcanist level, during which time the arcanist cannot speak or use verbal components. The arcanist can end this exploit’s effects early as a swift action. As a standard action, the arcanist can attack a target with the proboscis’s tongue. This is a primary natural weapon with a 10-foot reach. Attacks with the tongue resolve as a touch attack. If the arcanist uses his tongue and hits a creature capable of casting spells or using spell-like abilities, he drains a portion of the target’s magical ability and adds 1 point to his arcane reservoir (points gained in excess of the reservoir’s maximum are lost). If the arcanist hits a creature that cannot cast spells or use spell-like abilities, the tongue instead drains a portion of the target’s life force and heals the arcanist of 1d6 points of damage. Regardless of the target’s ability to use magic, the tongue’s unnerving siphoning of magical or life energy causes the struck creature to become sickened for 1 round.</p>"
    },
    "tags": [],
    "actions": [
      {
        "_id": "ucfbjioqvp4lst7g",
        "name": "Use",
        "img": "systems/pf1/icons/spells/runes-blue-2.jpg",
        "description": "",
        "tag": "",
        "activation": {
          "cost": 1,
          "type": "standard"
        },
        "unchainedAction": {
          "activation": {
            "cost": 2,
            "type": "action"
          }
        },
        "duration": {
          "value": "@classes.arcanist.level",
          "units": "round"
        },
        "target": {
          "value": ""
        },
        "range": {
          "value": null,
          "units": "",
          "maxIncrements": 1,
          "minValue": null,
          "minUnits": ""
        },
        "uses": {
          "autoDeductCharges": true,
          "autoDeductChargesCost": "1",
          "self": {
            "value": 0,
            "maxFormula": "",
            "per": null
          },
          "per": "",
          "value": 0,
          "maxFormula": ""
        },
        "measureTemplate": {
          "type": "",
          "size": "",
          "overrideColor": false,
          "customColor": "",
          "overrideTexture": false,
          "customTexture": ""
        },
        "attackName": "",
        "actionType": "",
        "attackBonus": "",
        "critConfirmBonus": "",
        "damage": {
          "parts": [],
          "critParts": [],
          "nonCritParts": []
        },
        "attackParts": [],
        "formulaicAttacks": {
          "count": {
            "formula": ""
          },
          "bonus": {
            "formula": ""
          },
          "label": null
        },
        "formula": "",
        "ability": {
          "attack": null,
          "damage": null,
          "damageMult": 1,
          "critRange": 20,
          "critMult": 2
        },
        "save": {
          "dc": 0,
          "type": "",
          "description": ""
        },
        "effectNotes": [],
        "attackNotes": [],
        "soundEffect": "",
        "powerAttack": {
          "multiplier": "",
          "damageBonus": 2,
          "critMultiplier": 1
        },
        "naturalAttack": {
          "primaryAttack": true,
          "secondary": {
            "attackBonus": "-5",
            "damageMult": 0.5
          }
        },
        "nonlethal": false,
        "usesAmmo": false,
        "spellEffect": "",
        "spellArea": "",
        "conditionals": [],
        "enh": {
          "value": null
        }
      }
    ],
    "uses": {
      "per": ""
    },
    "attackNotes": [],
    "effectNotes": [],
    "changes": [],
    "contextNotes": [],
    "links": {
      "children": [],
      "charges": []
    },
    "tag": "classFeat_fiendishProbiscus",
    "useCustomTag": true,
    "armorProf": {
      "value": []
    },
    "weaponProf": {
      "value": []
    },
    "languages": {
      "value": []
    },
    "scriptCalls": [],
    "featType": "classFeat",
    "associations": {
      "classes": [["Arcanist"]]
    },
    "abilityType": "su"
  },
  "ownership": {
    "default": 0
  },
  "_stats": {
    "systemId": "pf1",
    "systemVersion": "0.82.1",
    "coreVersion": "10.285",
    "createdTime": 1663018765692,
    "modifiedTime": 1663018778274,
    "lastModifiedBy": "DbeAbHwpEqczKjsD"
  }
}
