{
  "_id": "3MMnzNoOqKRnVhpZ",
  "name": "Flame Mystery",
  "type": "feat",
  "img": "systems/pf1/icons/spells/light-magenta-2.jpg",
  "effects": [],
  "folder": null,
  "sort": 0,
  "flags": {},
  "system": {
    "description": {
      "value": "<p><strong>Class Skills:</strong> An oracle with the flame mystery adds Acrobatics, Climb, Intimidate, and Perform to her list of class skills.<br><br><strong>Bonus Spells:</strong>&nbsp;</p>\n<ul>\n<li>@Compendium[pf1.spells.lndeaqm2j2nvgm6p]{Burning Hands} (2nd),&nbsp;</li>\n<li>@Compendium[pf1.spells.tkjnm3lw7ni82tag]{Resist Energy} (4th),&nbsp;</li>\n<li>@Compendium[pf1.spells.6oq1wcryviik9ice]{Fireball} (6th),&nbsp;</li>\n<li>@Compendium[pf1.spells.92hth51cs9oi0nfe]{Wall Of Fire} (8th),&nbsp;</li>\n<li>@Compendium[pf1.spells.hd7ukybisvv7j5r6]{Summon Monster V} (fire elementals only) (10th),&nbsp;</li>\n<li>@Compendium[pf1.spells.0hknfnoaljc75fj3]{Fire Seeds} (12th),</li>\n<li>@Compendium[pf1.spells.9wl8ijy6argdvz5f]{Fire Storm} (14th),</li>\n<li>@Compendium[pf1.spells.iq0as5470o8q9y39]{Incendiary Cloud} (16th),</li>\n<li>@Compendium[pf1.spells.qk3oeq4awbc1smjw]{Fiery Body} (18th).</li>\n</ul>"
    },
    "tags": [],
    "actions": [],
    "attackNotes": [],
    "effectNotes": [],
    "changes": [],
    "contextNotes": [],
    "links": {
      "children": [],
      "charges": []
    },
    "tag": "classFeat_flameMystery",
    "useCustomTag": true,
    "armorProf": {
      "value": []
    },
    "weaponProf": {
      "value": []
    },
    "languages": {
      "value": []
    },
    "scriptCalls": [],
    "featType": "classFeat",
    "associations": {
      "classes": [["Oracle"]]
    }
  },
  "ownership": {
    "default": 0
  },
  "_stats": {
    "systemId": "pf1",
    "systemVersion": "0.82.1",
    "coreVersion": "10.285",
    "createdTime": 1663018762082,
    "modifiedTime": 1663018778091,
    "lastModifiedBy": "DbeAbHwpEqczKjsD"
  }
}
