{
  "_id": "8h4nWQiuahAea2AG",
  "name": "Force Hook Infusion",
  "type": "feat",
  "img": "systems/pf1/icons/spells/link-blue-2.jpg",
  "effects": [],
  "folder": null,
  "sort": 0,
  "flags": {},
  "system": {
    "description": {
      "value": "<p><strong>Element&nbsp;</strong>aether;&nbsp;<strong>Type&nbsp;</strong>form infusion;&nbsp;<strong>Level&nbsp;</strong>3;&nbsp;<strong>Burn&nbsp;</strong>2<br><strong>Associated Blasts&nbsp;</strong>force<br><strong>Saving Throw&nbsp;</strong>none</p>\n<p>Your force blast hooks onto its target and drags you adjacent to it. This effect functions as @Compendium[pf1.spells.2ew7fowmibtk5jbi]{Force Hook Charge}, except with the range and damage of your force blast.</p>"
    },
    "tags": [],
    "actions": [],
    "attackNotes": [],
    "effectNotes": [],
    "changes": [],
    "contextNotes": [],
    "links": {
      "children": [],
      "charges": []
    },
    "tag": "classFeat_forceHookInfusion",
    "useCustomTag": true,
    "armorProf": {
      "value": []
    },
    "weaponProf": {
      "value": []
    },
    "languages": {
      "value": []
    },
    "scriptCalls": [],
    "featType": "classFeat",
    "associations": {
      "classes": [["Kineticist"]]
    }
  },
  "ownership": {
    "default": 0
  },
  "_stats": {
    "systemId": "pf1",
    "systemVersion": "0.82.1",
    "coreVersion": "10.285",
    "createdTime": 1663018762954,
    "modifiedTime": 1663018778132,
    "lastModifiedBy": "DbeAbHwpEqczKjsD"
  }
}
