{
  "_id": "0S9wLgzadEbYoQXM",
  "name": "Force Bomb",
  "type": "feat",
  "img": "systems/pf1/icons/items/potions/unique-3.jpg",
  "effects": [],
  "folder": null,
  "sort": 0,
  "flags": {},
  "system": {
    "description": {
      "value": "<p>When the alchemist creates a bomb, he can choose to have it inflict force damage. Force bombs deal 1d4 points of force damage, plus 1d4 points of force damage for every odd-numbered level, instead of 1d6. Creatures that take a direct hit from a force bomb are knocked prone unless they succeed on a Reflex save.</p>\n<p>An alchemist must be at least 8th level before selecting this discovery.</p>"
    },
    "tags": [],
    "actions": [],
    "attackNotes": [],
    "effectNotes": [],
    "changes": [],
    "contextNotes": [],
    "links": {
      "children": [],
      "charges": []
    },
    "tag": "classFeat_forceBomb",
    "useCustomTag": true,
    "armorProf": {
      "value": []
    },
    "weaponProf": {
      "value": []
    },
    "languages": {
      "value": []
    },
    "scriptCalls": [],
    "featType": "classFeat",
    "associations": {
      "classes": [["Alchemist"]]
    }
  },
  "ownership": {
    "default": 0
  },
  "_stats": {
    "systemId": "pf1",
    "systemVersion": "0.82.1",
    "coreVersion": "10.285",
    "createdTime": 1663018761833,
    "modifiedTime": 1663018778068,
    "lastModifiedBy": "DbeAbHwpEqczKjsD"
  }
}
