{
  "_id": "ToUUIKF24wFctFnp",
  "name": "Foxfire Infusion",
  "type": "feat",
  "img": "systems/pf1/icons/spells/fireball-red-3.jpg",
  "effects": [],
  "folder": null,
  "sort": 0,
  "flags": {},
  "system": {
    "description": {
      "value": "<p><strong>Element&nbsp;</strong>fire, wood;&nbsp;<strong>Type&nbsp;</strong>substance infusion (Sp);&nbsp;<strong>Level&nbsp;</strong>3;&nbsp;<strong>Burn&nbsp;</strong>2<br><strong>Prerequisite&nbsp;</strong>foxfire or positive blast<br><strong>Associated Blasts&nbsp;</strong>blue flame, fire, positive<br><strong>Saving Throw&nbsp;</strong>Will partial</p>\n<p>Your blast leaves behind flickering flames that reveal the target’s location as per&nbsp;faerie fire&nbsp;for 1 minute (or until your next turn if the target succeeds at its save). This effect occurs even if the foe doesn’t take damage, as long as the attack overcomes spell resistance (if any). You can reduce the blast’s damage by half to increase the DC of this saving throw by 2.</p>\n<p>A creature can remove the revealing flames early by taking a full-round action to extinguish them.</p>"
    },
    "tags": [],
    "actions": [],
    "attackNotes": [],
    "effectNotes": [],
    "changes": [],
    "contextNotes": [],
    "links": {
      "children": [],
      "charges": []
    },
    "tag": "classFeat_foxfireInfusion",
    "useCustomTag": true,
    "armorProf": {
      "value": []
    },
    "weaponProf": {
      "value": []
    },
    "languages": {
      "value": []
    },
    "scriptCalls": [],
    "featType": "classFeat",
    "associations": {
      "classes": [["Kineticist"]]
    }
  },
  "ownership": {
    "default": 0
  },
  "_stats": {
    "systemId": "pf1",
    "systemVersion": "0.82.1",
    "coreVersion": "10.285",
    "createdTime": 1663018765712,
    "modifiedTime": 1663018778276,
    "lastModifiedBy": "DbeAbHwpEqczKjsD"
  }
}
