{
  "_id": "QGj3Dmi2TxOmp4FO",
  "name": "Godclaw Final Revelation",
  "type": "feat",
  "img": "systems/pf1/icons/spells/light-royal-1.jpg",
  "effects": [],
  "folder": null,
  "sort": 0,
  "flags": {},
  "system": {
    "description": {
      "value": "<p>Upon reaching 20th level, you can cast&nbsp;detect chaos, detect law, and&nbsp;discern lies&nbsp;at will as spell-like abilities, using your oracle level as your caster level. You no longer take armor check penalties for wearing armor, and your armor’s maximum Dexterity bonus increases by 5. Once per day, you can cast @Compendium[pf1.spells.1zyixa5b6aw7npub]{Crushing Hand}&nbsp;as a spell-like ability without requiring a focus component, treating your oracle level as your caster level. This hand manifests as a massive, spiked gauntlet.</p>"
    },
    "tags": [],
    "actions": [],
    "attackNotes": [],
    "effectNotes": [],
    "changes": [],
    "contextNotes": [],
    "links": {
      "children": [],
      "charges": []
    },
    "tag": "classFeat_godclawFinalRevelation",
    "useCustomTag": true,
    "armorProf": {
      "value": []
    },
    "weaponProf": {
      "value": []
    },
    "languages": {
      "value": []
    },
    "scriptCalls": [],
    "featType": "classFeat",
    "associations": {
      "classes": [["Oracle"]]
    }
  },
  "ownership": {
    "default": 0
  },
  "_stats": {
    "systemId": "pf1",
    "systemVersion": "0.82.1",
    "coreVersion": "10.285",
    "createdTime": 1663018765260,
    "modifiedTime": 1663018778254,
    "lastModifiedBy": "DbeAbHwpEqczKjsD"
  }
}
