{
  "_id": "LOTZhyKm8sgDjARs",
  "name": "Greater Mask Misery",
  "type": "feat",
  "img": "systems/pf1/icons/skills/violet_26.jpg",
  "effects": [],
  "folder": null,
  "sort": 0,
  "flags": {},
  "system": {
    "description": {
      "value": "<p>This trick functions as the mask misery trick, but can be used to ignore greater conditions as well.</p>\n<p>A mesmerist must have the mask misery mesmerist trick to take greater mask misery.</p>"
    },
    "tags": [],
    "actions": [],
    "attackNotes": [],
    "effectNotes": [],
    "changes": [],
    "contextNotes": [],
    "links": {
      "children": [],
      "charges": []
    },
    "tag": "classFeat_greaterMaskMisery",
    "useCustomTag": true,
    "armorProf": {
      "value": []
    },
    "weaponProf": {
      "value": []
    },
    "languages": {
      "value": []
    },
    "scriptCalls": [],
    "featType": "classFeat",
    "associations": {
      "classes": [["Mesmerist"]]
    }
  },
  "ownership": {
    "default": 0
  },
  "_stats": {
    "systemId": "pf1",
    "systemVersion": "0.82.1",
    "coreVersion": "10.285",
    "createdTime": 1663018764745,
    "modifiedTime": 1663018778223,
    "lastModifiedBy": "DbeAbHwpEqczKjsD"
  }
}
