{
  "_id": "FsOPunvM3kGqD32i",
  "name": "Greater Bloodrage",
  "type": "feat",
  "img": "systems/pf1/icons/skills/red_19.jpg",
  "effects": [],
  "folder": null,
  "sort": 0,
  "flags": {},
  "system": {
    "description": {
      "value": "<p>At 11th level, when a bloodrager enters a bloodrage, the morale bonus to his Strength and Constitution increases to +6 and the morale bonus on his Will saves increases to +3. In addition, upon entering a bloodrage, the bloodrager can apply the effects a bloodrager spell he knows of 2nd level or lower to himself. The spell must have a range of touch or personal. If the spell’s duration is greater than 1 round, it instead lasts for the duration of the bloodrage. This use consumes a bloodrager spell slot, as if he had cast the spell; he must have the spell slot available to take advantage of this effect.<br><br>Greater bloodrage counts as the barbarian’s greater rage ability for the purposes of feat prerequisites, feat abilities, magic item abilities, and spell effects.</p>"
    },
    "tags": [],
    "actions": [],
    "attackNotes": [],
    "effectNotes": [],
    "changes": [],
    "contextNotes": [],
    "links": {
      "children": [],
      "charges": []
    },
    "tag": "classFeat_greaterBloodrage",
    "useCustomTag": true,
    "armorProf": {
      "value": []
    },
    "weaponProf": {
      "value": []
    },
    "languages": {
      "value": []
    },
    "scriptCalls": [],
    "featType": "classFeat",
    "associations": {
      "classes": [["Bloodrager"]]
    },
    "abilityType": "su"
  },
  "ownership": {
    "default": 0
  },
  "_stats": {
    "systemId": "pf1",
    "systemVersion": "0.82.1",
    "coreVersion": "10.285",
    "createdTime": 1663018763892,
    "modifiedTime": 1663018778190,
    "lastModifiedBy": "DbeAbHwpEqczKjsD"
  }
}
