{
  "_id": "XzLVQbzc5xjY3IT1",
  "name": "Greater Cognatogen",
  "type": "feat",
  "img": "systems/pf1/icons/items/potions/unique-3.jpg",
  "effects": [],
  "folder": null,
  "sort": 0,
  "flags": {},
  "system": {
    "description": {
      "value": "<p>The alchemist’s mutagen now grants a +4 natural armor bonus, a +6 alchemical bonus to one mental ability score (Intelligence, Wisdom, or Charisma), and a +4 alchemical bonus to a second mental ability score. The alchemist takes a –2 penalty on both associated physical ability scores as long as the mutagen persists, and takes 2 points of ability damage to both associated physical ability scores when the cognatogen ends.</p>\n<p>An alchemist must be at least 12th level and must have the cognatogen discovery or class ability before selecting this discovery.</p>"
    },
    "tags": [],
    "actions": [],
    "attackNotes": [],
    "effectNotes": [],
    "changes": [],
    "contextNotes": [],
    "links": {
      "children": [],
      "charges": []
    },
    "tag": "classFeat_greaterCognatogen",
    "useCustomTag": true,
    "armorProf": {
      "value": []
    },
    "weaponProf": {
      "value": []
    },
    "languages": {
      "value": []
    },
    "scriptCalls": [],
    "featType": "classFeat",
    "associations": {
      "classes": [["Alchemist"]]
    },
    "abilityType": "su"
  },
  "ownership": {
    "default": 0
  },
  "_stats": {
    "systemId": "pf1",
    "systemVersion": "0.82.1",
    "coreVersion": "10.285",
    "createdTime": 1663018766203,
    "modifiedTime": 1663018778311,
    "lastModifiedBy": "DbeAbHwpEqczKjsD"
  }
}
