{
  "_id": "U14SmZ4MKr2UksTu",
  "name": "Growth Subdomain",
  "type": "feat",
  "img": "systems/pf1/icons/skills/green_22.jpg",
  "effects": [],
  "folder": null,
  "sort": 0,
  "flags": {},
  "system": {
    "description": {
      "value": "<p><strong>Replacement Domain Spells:</strong></p>\n<ul>\n<li>1st—@Compendium[pf1.spells.jnlr9cuepka1l26e]{Enlarge Person}</li>\n<li>5th—@Compendium[pf1.spells.6ax0ythzw8n4bta8]{Righteous Might}</li>\n</ul>"
    },
    "tags": [],
    "actions": [],
    "attackNotes": [],
    "effectNotes": [],
    "changes": [],
    "contextNotes": [],
    "links": {
      "children": [],
      "charges": []
    },
    "tag": "classFeat_growthSubdomain",
    "useCustomTag": true,
    "armorProf": {
      "value": []
    },
    "weaponProf": {
      "value": []
    },
    "languages": {
      "value": []
    },
    "scriptCalls": [],
    "featType": "classFeat",
    "associations": {
      "classes": [["Cleric"]]
    }
  },
  "ownership": {
    "default": 0
  },
  "_stats": {
    "systemId": "pf1",
    "systemVersion": "0.82.1",
    "coreVersion": "10.285",
    "createdTime": 1663018765718,
    "modifiedTime": 1663018778277,
    "lastModifiedBy": "DbeAbHwpEqczKjsD"
  }
}
