{
  "_id": "JEJ60NDlQFJzaRQV",
  "name": "Guise of Life",
  "type": "feat",
  "img": "systems/pf1/icons/skills/light_07.jpg",
  "effects": [],
  "folder": null,
  "sort": 0,
  "flags": {},
  "system": {
    "description": {
      "value": "<p>An undead vigilante with this talent gains an additional social identity in the form of one living creature identical to the vigilante’s appearance in life. Successful Knowledge checks reveal information about the vigilante as if he were a living creature, and he counts as living for the purpose of divination spells and effects. He gains no other benefit from appearing to be a living creature, and remains vulnerable to positive energy and spells that effect undead.</p>\n<p>The vigilante must be a corporeal undead creature to select this talent. Humanoid vigilantes with the negative energy affinity racial trait can also select this talent, gaining a human social identity.</p>"
    },
    "tags": [],
    "actions": [],
    "attackNotes": [],
    "effectNotes": [],
    "changes": [],
    "contextNotes": [],
    "links": {
      "children": [],
      "charges": []
    },
    "tag": "classFeat_guiseOfLife",
    "useCustomTag": true,
    "armorProf": {
      "value": []
    },
    "weaponProf": {
      "value": []
    },
    "languages": {
      "value": []
    },
    "scriptCalls": [],
    "featType": "classFeat",
    "associations": {
      "classes": [["Vigilante"]]
    },
    "abilityType": "su"
  },
  "ownership": {
    "default": 0
  },
  "_stats": {
    "systemId": "pf1",
    "systemVersion": "0.82.1",
    "coreVersion": "10.285",
    "createdTime": 1663018764329,
    "modifiedTime": 1663018778212,
    "lastModifiedBy": "DbeAbHwpEqczKjsD"
  }
}
