{
  "_id": "EZ5qCVThr5HMKjo6",
  "name": "Healing Bomb",
  "type": "feat",
  "img": "systems/pf1/icons/items/potions/unique-3.jpg",
  "effects": [],
  "folder": null,
  "sort": 0,
  "flags": {},
  "system": {
    "description": {
      "value": "<p>When the alchemist creates a bomb, he can choose to have it heal damage instead of dealing it. Creating a healing bomb requires the alchemist to expend an infused extract or potion containing a cure spell. A creature that takes a direct hit from a healing bomb is healed as if she had imbibed the infusion or potion used to create the bomb. Creatures in the splash radius are healed for the minimum amount of damage the cure spell is capable of healing. A healing bomb damages undead instead of healing them.</p>"
    },
    "tags": [],
    "actions": [],
    "attackNotes": [],
    "effectNotes": [],
    "changes": [],
    "contextNotes": [],
    "links": {
      "children": [],
      "charges": []
    },
    "tag": "classFeat_healingBomb",
    "useCustomTag": true,
    "armorProf": {
      "value": []
    },
    "weaponProf": {
      "value": []
    },
    "languages": {
      "value": []
    },
    "scriptCalls": [],
    "featType": "classFeat",
    "associations": {
      "classes": [["Alchemist"]]
    }
  },
  "ownership": {
    "default": 0
  },
  "_stats": {
    "systemId": "pf1",
    "systemVersion": "0.82.1",
    "coreVersion": "10.285",
    "createdTime": 1663018763827,
    "modifiedTime": 1663018778178,
    "lastModifiedBy": "DbeAbHwpEqczKjsD"
  }
}
