{
  "_id": "n9sF6kX0vAxm52F3",
  "name": "Heart of Fire",
  "type": "feat",
  "img": "systems/pf1/icons/skills/red_05.jpg",
  "effects": [],
  "folder": null,
  "sort": 0,
  "flags": {},
  "system": {
    "description": {
      "value": "<p>At 4th level, you gain fire resistance 5. Whenever you are subjected to a magical healing effect from a cure spell, you regain 1 additional hit point per die rolled.</p>\n<p>At 8th level, your fire resistance increases to 10, and you regain 2 additional hit points per die rolled when you are healed by a cure spell.</p>"
    },
    "tags": [],
    "actions": [],
    "attackNotes": [],
    "effectNotes": [],
    "changes": [],
    "contextNotes": [],
    "links": {
      "children": [],
      "charges": []
    },
    "tag": "classFeat_heartOfFire",
    "useCustomTag": true,
    "armorProf": {
      "value": []
    },
    "weaponProf": {
      "value": []
    },
    "languages": {
      "value": []
    },
    "scriptCalls": [],
    "featType": "classFeat",
    "associations": {
      "classes": [["Bloodrager"]]
    },
    "abilityType": "su"
  },
  "ownership": {
    "default": 0
  },
  "_stats": {
    "systemId": "pf1",
    "systemVersion": "0.82.1",
    "coreVersion": "10.285",
    "createdTime": 1663018768315,
    "modifiedTime": 1663018778498,
    "lastModifiedBy": "DbeAbHwpEqczKjsD"
  }
}
