{
  "_id": "O6PEQBu8OA6EMPoI",
  "name": "Heroic Echo",
  "type": "feat",
  "img": "systems/pf1/icons/feats/intimidating-prowess.jpg",
  "effects": [],
  "folder": null,
  "sort": 0,
  "flags": {},
  "system": {
    "description": {
      "value": "<p>At 3rd level, when you receive a&nbsp;<a href=\"https://www.d20pfsrd.com/basics-ability-scores/glossary#TOC-Morale-Bonus\">morale bonus</a>&nbsp;from any spell,&nbsp;<a href=\"https://www.d20pfsrd.com/magic#TOC-Spell-Like-Abilities-Sp-\">spell-like ability</a>, or magic item, including those you cast on yourself, that bonus increases by +1. At 9th level, this ability also applies to competence bonuses. If you receive a morale effect (or a competence effect at 9th level) that affects an area or multiple targets, as an&nbsp;<a href=\"https://www.d20pfsrd.com/gamemastering/combat#TOC-Immediate-Actions\">immediate action</a>&nbsp;you can share your increased bonus with all other recipients. This increase to other participants lasts a number of rounds equal to your&nbsp;<a href=\"https://www.d20pfsrd.com/basics-ability-scores/ability-scores#TOC-Charisma-Cha-\">Charisma</a>&nbsp;bonus. You can use this ability once per day, plus one time per three levels after 3rd.</p>"
    },
    "tags": [],
    "actions": [
      {
        "_id": "iklnimichld76gf5",
        "name": "Use",
        "img": "systems/pf1/icons/feats/intimidating-prowess.jpg",
        "description": "",
        "tag": "",
        "activation": {
          "cost": 1,
          "type": "free"
        },
        "unchainedAction": {
          "activation": {
            "cost": 1,
            "type": "free"
          }
        },
        "duration": {
          "value": null,
          "units": ""
        },
        "target": {
          "value": "self"
        },
        "range": {
          "value": null,
          "units": "personal",
          "maxIncrements": 1,
          "minValue": null,
          "minUnits": ""
        },
        "uses": {
          "autoDeductCharges": true,
          "autoDeductChargesCost": "1",
          "self": {
            "value": 0,
            "maxFormula": "",
            "per": null
          },
          "per": "day",
          "value": 0,
          "maxFormula": "1 + (floor((@classes.sorcerer.level - 3) / 3))"
        },
        "measureTemplate": {
          "type": "",
          "size": "0",
          "overrideColor": false,
          "customColor": "",
          "overrideTexture": false,
          "customTexture": ""
        },
        "attackName": "",
        "actionType": "",
        "attackBonus": "",
        "critConfirmBonus": "",
        "damage": {
          "parts": [],
          "critParts": [],
          "nonCritParts": []
        },
        "attackParts": [],
        "formulaicAttacks": {
          "count": {
            "formula": ""
          },
          "bonus": {
            "formula": ""
          },
          "label": null
        },
        "formula": "",
        "ability": {
          "attack": null,
          "damage": null,
          "damageMult": 1,
          "critRange": 20,
          "critMult": 2
        },
        "save": {
          "dc": 0,
          "type": "",
          "description": ""
        },
        "effectNotes": [],
        "attackNotes": [],
        "soundEffect": "",
        "powerAttack": {
          "multiplier": "",
          "damageBonus": 2,
          "critMultiplier": 1
        },
        "naturalAttack": {
          "primaryAttack": true,
          "secondary": {
            "attackBonus": "-5",
            "damageMult": 0.5
          }
        },
        "nonlethal": false,
        "usesAmmo": false,
        "spellEffect": "",
        "spellArea": "",
        "conditionals": [],
        "enh": {
          "value": null
        }
      }
    ],
    "uses": {
      "per": "day",
      "maxFormula": "1 + (floor((@classes.sorcerer.level - 3) / 3))"
    },
    "attackNotes": [],
    "effectNotes": [],
    "changes": [],
    "contextNotes": [],
    "links": {
      "children": [],
      "charges": []
    },
    "tag": "classFeat_heroicEcho",
    "useCustomTag": true,
    "armorProf": {
      "value": []
    },
    "weaponProf": {
      "value": []
    },
    "languages": {
      "value": []
    },
    "scriptCalls": [],
    "featType": "classFeat",
    "associations": {
      "classes": [["Sorcerer"]]
    },
    "abilityType": "su"
  },
  "ownership": {
    "default": 0
  },
  "_stats": {
    "systemId": "pf1",
    "systemVersion": "0.82.1",
    "coreVersion": "10.285",
    "createdTime": 1663018764911,
    "modifiedTime": 1663018778244,
    "lastModifiedBy": "DbeAbHwpEqczKjsD"
  }
}
