{
  "_id": "LlCv04eWIKi7JyFl",
  "name": "Immunity (2 pts)",
  "type": "feat",
  "img": "systems/pf1/icons/skills/blue_26.jpg",
  "effects": [],
  "folder": null,
  "sort": 0,
  "flags": {},
  "system": {
    "description": {
      "value": "<p>An eidolon's body becomes extremely resilient to one energy type, gaining immunity to that type. Pick one energy type: acid, cold, electricity, fire, or sonic. The eidolon gains immunity to that energy type.</p>\n<p>This evolution can be selected more than once. Its effects do not stack. Each time it applies to a different energy type.</p>\n<p>The summoner must be at least 7th level before selecting this evolution.</p>"
    },
    "tags": [],
    "actions": [],
    "attackNotes": [],
    "effectNotes": [],
    "changes": [],
    "contextNotes": [],
    "links": {
      "children": [],
      "charges": []
    },
    "tag": "classFeat_immunity2Pts",
    "useCustomTag": true,
    "armorProf": {
      "value": []
    },
    "weaponProf": {
      "value": []
    },
    "languages": {
      "value": []
    },
    "scriptCalls": [],
    "featType": "classFeat",
    "associations": {
      "classes": [["Eidolon"]]
    },
    "abilityType": "su"
  },
  "ownership": {
    "default": 0
  },
  "_stats": {
    "systemId": "pf1",
    "systemVersion": "0.82.1",
    "coreVersion": "10.285",
    "createdTime": 1663018764768,
    "modifiedTime": 1663018778226,
    "lastModifiedBy": "DbeAbHwpEqczKjsD"
  }
}
