{
  "_id": "G1z392b58wRybqjL",
  "name": "Improved Spell Combat",
  "type": "feat",
  "img": "systems/pf1/icons/feats/disruptive.jpg",
  "effects": [],
  "folder": null,
  "sort": 0,
  "flags": {},
  "system": {
    "description": {
      "value": "<p>At 8th level, the magus's ability to cast spells and make melee attacks improves. When using the spell combat ability, the magus receives a +2 circumstance bonus on concentration checks, in addition to any bonus granted by taking an additional penalty on the attack roll.</p>"
    },
    "tags": [],
    "actions": [],
    "attackNotes": [],
    "effectNotes": [],
    "changes": [],
    "contextNotes": [],
    "links": {
      "children": [],
      "charges": []
    },
    "tag": "classFeat_improvedSpellCombat",
    "useCustomTag": true,
    "armorProf": {
      "value": []
    },
    "weaponProf": {
      "value": []
    },
    "languages": {
      "value": []
    },
    "scriptCalls": [],
    "featType": "classFeat",
    "associations": {
      "classes": [["Magus"]]
    },
    "abilityType": "ex"
  },
  "ownership": {
    "default": 0
  },
  "_stats": {
    "systemId": "pf1",
    "systemVersion": "0.82.1",
    "coreVersion": "10.285",
    "createdTime": 1663018763902,
    "modifiedTime": 1663018778191,
    "lastModifiedBy": "DbeAbHwpEqczKjsD"
  }
}
