{
  "_id": "J1v8s4Ao05VehDTq",
  "name": "Industry Subdomain",
  "type": "feat",
  "img": "systems/pf1/icons/skills/affliction_16.jpg",
  "effects": [],
  "folder": null,
  "sort": 0,
  "flags": {},
  "system": {
    "description": {
      "value": "<p><strong>Replacement Domain Spells: </strong></p>\n<ul>\n<li>1st—@Compendium[pf1.spells.4k32l03rzxgyifkx]{Crafter's Fortune}</li>\n<li>7th—@Compendium[pf1.spells.kqftgm3bi2dqj92l]{Mage's Magnificent Mansion}</li>\n<li>9th—@Compendium[pf1.spells.9fd7mcoint902oyb]{Wooden Phalanx}</li>\n</ul>"
    },
    "tags": [],
    "actions": [],
    "attackNotes": [],
    "effectNotes": [],
    "changes": [],
    "contextNotes": [],
    "links": {
      "children": [],
      "charges": []
    },
    "tag": "classFeat_industrySubdomain",
    "useCustomTag": true,
    "armorProf": {
      "value": []
    },
    "weaponProf": {
      "value": []
    },
    "languages": {
      "value": []
    },
    "scriptCalls": [],
    "featType": "classFeat",
    "associations": {
      "classes": [["Cleric"]]
    }
  },
  "ownership": {
    "default": 0
  },
  "_stats": {
    "systemId": "pf1",
    "systemVersion": "0.82.1",
    "coreVersion": "10.285",
    "createdTime": 1663018764313,
    "modifiedTime": 1663018778208,
    "lastModifiedBy": "DbeAbHwpEqczKjsD"
  }
}
