{
  "_id": "kCDtKTsnJekhb4lL",
  "name": "Innuendo Subdomain",
  "type": "feat",
  "img": "systems/pf1/icons/skills/light_07.jpg",
  "effects": [],
  "folder": null,
  "sort": 0,
  "flags": {},
  "system": {
    "description": {
      "value": "<p><strong>Replacement Domain Spells:</strong></p>\n<ul>\n<li>1st—@Compendium[pf1.spells.tkvnbxbmbqe49bg0]{Sow Thought}</li>\n<li>3rd—@Compendium[pf1.spells.zqj5qzyl46af27v0]{Suggestion}</li>\n<li>6th—@Compendium[pf1.spells.52v3fogun1n9jzum]{Suggestion, Mass}</li>\n</ul>"
    },
    "tags": [],
    "actions": [],
    "attackNotes": [],
    "effectNotes": [],
    "changes": [],
    "contextNotes": [],
    "links": {
      "children": [],
      "charges": []
    },
    "tag": "classFeat_innuendoSubdomain",
    "useCustomTag": true,
    "armorProf": {
      "value": []
    },
    "weaponProf": {
      "value": []
    },
    "languages": {
      "value": []
    },
    "scriptCalls": [],
    "featType": "classFeat",
    "associations": {
      "classes": [["Cleric"]]
    }
  },
  "ownership": {
    "default": 0
  },
  "_stats": {
    "systemId": "pf1",
    "systemVersion": "0.82.1",
    "coreVersion": "10.285",
    "createdTime": 1663018768107,
    "modifiedTime": 1663018778478,
    "lastModifiedBy": "DbeAbHwpEqczKjsD"
  }
}
