{
  "_id": "0QoqG9dIc900yrWY",
  "name": "Intrigue Mystery",
  "type": "feat",
  "img": "systems/pf1/icons/spells/light-magenta-2.jpg",
  "effects": [],
  "folder": null,
  "sort": 0,
  "flags": {},
  "system": {
    "description": {
      "value": "<p><strong>Class Skills:</strong> An oracle with the intrigue mystery adds Bluff, Disguise, Sleight of Hand, and Stealth to her list of class skills.<br><br><strong>Bonus Spells:</strong>&nbsp;</p>\n<ul>\n<li>@Compendium[pf1.spells.tjog6bufg5b08lvq]{Charm Person} (2nd),&nbsp;</li>\n<li>@Compendium[pf1.spells.swkw2yoee6d9ldcd]{False Belief} (4th),&nbsp;</li>\n<li>@Compendium[pf1.spells.zqj5qzyl46af27v0]{Suggestion} (6th),&nbsp;</li>\n<li>@Compendium[pf1.spells.d0d86z521shpman1]{Sending} (8th),&nbsp;</li>\n<li>@Compendium[pf1.spells.jbqo4o2b2tmdz7wv]{True Seeing} (10th),&nbsp;</li>\n<li>@Compendium[pf1.spells.1m5rpvirt48brv71]{Symbol of Persuasion} (12th),&nbsp;</li>\n<li>@Compendium[pf1.spells.glt6uk3n6g6l2p6l]{Scrying, Greater} (14th),&nbsp;</li>\n<li>@Compendium[pf1.spells.blvetbc929cfx4m8]{Mind Blank} (16th),&nbsp;</li>\n<li>@Compendium[pf1.spells.xuuzj9lr2xbwaim4]{Overwhelming Presence} (18th).</li>\n</ul>"
    },
    "tags": [],
    "actions": [],
    "attackNotes": [],
    "effectNotes": [],
    "changes": [],
    "contextNotes": [],
    "links": {
      "children": [],
      "charges": []
    },
    "tag": "classFeat_intrigueMystery",
    "useCustomTag": true,
    "armorProf": {
      "value": []
    },
    "weaponProf": {
      "value": []
    },
    "languages": {
      "value": []
    },
    "scriptCalls": [],
    "featType": "classFeat",
    "associations": {
      "classes": [["Oracle"]]
    }
  },
  "ownership": {
    "default": 0
  },
  "_stats": {
    "systemId": "pf1",
    "systemVersion": "0.82.1",
    "coreVersion": "10.285",
    "createdTime": 1663018761831,
    "modifiedTime": 1663018778068,
    "lastModifiedBy": "DbeAbHwpEqczKjsD"
  }
}
