{
  "_id": "xVwq3OJfoV7yMxJV",
  "name": "Juju Mystery",
  "type": "feat",
  "img": "systems/pf1/icons/spells/light-magenta-2.jpg",
  "effects": [],
  "folder": null,
  "sort": 0,
  "flags": {},
  "system": {
    "description": {
      "value": "<p><strong>Class Skills:</strong> An oracle with the juju mystery adds Bluff, Intimidate, Knowledge (nature), Perform (oratory), and Survival to her list of class skills.<br><br><strong>Bonus Spells:</strong>&nbsp;</p>\n<ul>\n<li>@Compendium[pf1.spells.ct9fhh8uawn8e4md]{Speak with Animals} (2nd),&nbsp;</li>\n<li>@Compendium[pf1.spells.5nr9o7o0it6ewf17]{Hideous Laughter} (4th),&nbsp;</li>\n<li>@Compendium[pf1.spells.be88e90guqbi1q1z]{Fear} (6th),&nbsp;</li>\n<li>@Compendium[pf1.spells.smbkd2yobhshbpqf]{Charm Monster} (8th),&nbsp;</li>\n<li>@Compendium[pf1.spells.52v3fogun1n9jzum]{Suggestion, Mass} (10th),&nbsp;</li>\n<li>@Compendium[pf1.spells.68ngvzmzvadhf6vs]{Contact Other Plane} (as a 6th-level spell) (12th),&nbsp;</li>\n<li>@Compendium[pf1.spells.jjmoi5qbwkbguzbn]{Summon Nature's Ally VII} (14th),&nbsp;</li>\n<li>@Compendium[pf1.spells.q2r6jrgsbwjgssdg]{Charm Monster, Mass} (16th),&nbsp;</li>\n<li>@Compendium[pf1.spells.n3lp01euzcdmtbw5]{Shapechange} (18th).</li>\n</ul>"
    },
    "tags": [],
    "actions": [],
    "attackNotes": [],
    "effectNotes": [],
    "changes": [],
    "contextNotes": [],
    "links": {
      "children": [],
      "charges": []
    },
    "tag": "classFeat_jujuMystery",
    "useCustomTag": true,
    "armorProf": {
      "value": []
    },
    "weaponProf": {
      "value": []
    },
    "languages": {
      "value": []
    },
    "scriptCalls": [],
    "featType": "classFeat",
    "associations": {
      "classes": [["Oracle"]]
    }
  },
  "ownership": {
    "default": 0
  },
  "_stats": {
    "systemId": "pf1",
    "systemVersion": "0.82.1",
    "coreVersion": "10.285",
    "createdTime": 1663018769713,
    "modifiedTime": 1663018778567,
    "lastModifiedBy": "DbeAbHwpEqczKjsD"
  }
}
