{
  "_id": "WIuK3TrL71Oc5wD0",
  "name": "Kinetic Dissolution",
  "type": "feat",
  "img": "systems/pf1/icons/spells/runes-blue-1.jpg",
  "effects": [],
  "folder": null,
  "sort": 0,
  "flags": {},
  "system": {
    "description": {
      "value": "<p><strong>Element&nbsp;</strong>universal;&nbsp;<strong>Type&nbsp;</strong>utility (Su);&nbsp;<strong>Level&nbsp;</strong>1;&nbsp;<strong>Burn&nbsp;</strong>0<br><strong>Prerequisite&nbsp;</strong><a href=\"https://aonprd.com/RacesDisplay.aspx?ItemName=Wayang\">wayang</a>, chosen racial trait</p>\n<p>Choose either the dissolution’s child alternate racial trait or the light and dark racial trait. You can use the chosen racial trait by accepting 1 point of burn, even if you have no daily uses of that racial trait remaining.</p>"
    },
    "tags": [],
    "actions": [],
    "attackNotes": [],
    "effectNotes": [],
    "changes": [],
    "contextNotes": [],
    "links": {
      "children": [],
      "charges": []
    },
    "tag": "classFeat_kineticDissolution",
    "useCustomTag": true,
    "armorProf": {
      "value": []
    },
    "weaponProf": {
      "value": []
    },
    "languages": {
      "value": []
    },
    "scriptCalls": [],
    "featType": "classFeat",
    "associations": {
      "classes": [["Kineticist"]]
    },
    "abilityType": "su"
  },
  "ownership": {
    "default": 0
  },
  "_stats": {
    "systemId": "pf1",
    "systemVersion": "0.82.1",
    "coreVersion": "10.285",
    "createdTime": 1663018766111,
    "modifiedTime": 1663018778289,
    "lastModifiedBy": "DbeAbHwpEqczKjsD"
  }
}
