{
  "_id": "OF80vRbYyebUCZC6",
  "name": "Lethal Accuracy",
  "type": "feat",
  "img": "systems/pf1/icons/feats/deafening-critical.jpg",
  "effects": [],
  "folder": null,
  "sort": 0,
  "flags": {},
  "system": {
    "description": {
      "value": "<p>When using her surprise accuracy rage power, the barbarian’s critical multiplier for damage increases by 1 (a ×2 multiplier becomes ×3, a 19–20/×2 multiplier becomes 19–20/×3, a ×3 multiplier becomes ×4, and a ×4 multiplier becomes ×5).</p>\n<p>A barbarian must have the surprise accuracy and deadly accuracy rage powers and be 16th level before selecting this rage power.</p>"
    },
    "tags": [],
    "actions": [],
    "attackNotes": [],
    "effectNotes": [],
    "changes": [],
    "contextNotes": [],
    "links": {
      "children": [],
      "charges": []
    },
    "tag": "classFeat_lethalAccuracy",
    "useCustomTag": true,
    "armorProf": {
      "value": []
    },
    "weaponProf": {
      "value": []
    },
    "languages": {
      "value": []
    },
    "scriptCalls": [],
    "featType": "classFeat",
    "associations": {
      "classes": [["Barbarian"], ["Skald"]]
    },
    "abilityType": "ex"
  },
  "ownership": {
    "default": 0
  },
  "_stats": {
    "systemId": "pf1",
    "systemVersion": "0.82.1",
    "coreVersion": "10.285",
    "createdTime": 1663018764918,
    "modifiedTime": 1663018778244,
    "lastModifiedBy": "DbeAbHwpEqczKjsD"
  }
}
