{
  "_id": "PlpsFSJ07K1AiErl",
  "name": "Linnorm Death Curse, Cairn",
  "type": "feat",
  "img": "systems/pf1/icons/feats/deafening-critical.jpg",
  "effects": [],
  "folder": null,
  "sort": 0,
  "flags": {},
  "system": {
    "description": {
      "value": "<p>The character channels the power of a&nbsp;<a href=\"https://aonprd.com/MonsterDisplay.aspx?ItemName=Cairn%20Linnorm\">cairn linnorm</a>. The character’s melee attacks deal an additional 1 point of negative energy damage. If the character is knocked unconscious or killed by an attack or spell, the attacker suffers the curse of decay (Will negates).</p>\n<p>A character must be at least 8th level to select this rage power.&nbsp;Curse of Decay:&nbsp;save&nbsp;Will DC 10 + 1/2 character’s level + character’s Charisma bonus;&nbsp;effect&nbsp;target takes 1 point of Con damage per day and ages at a rate of 1 year per day (eventually incurring all of the penalties of old age but none of the bonuses).</p>"
    },
    "tags": [],
    "actions": [],
    "attackNotes": [],
    "effectNotes": [],
    "changes": [],
    "contextNotes": [],
    "links": {
      "children": [],
      "charges": []
    },
    "tag": "classFeat_linnormDeathCurseCairn",
    "useCustomTag": true,
    "armorProf": {
      "value": []
    },
    "weaponProf": {
      "value": []
    },
    "languages": {
      "value": []
    },
    "scriptCalls": [],
    "featType": "classFeat",
    "associations": {
      "classes": [["Barbarian"], ["Skald"]]
    },
    "abilityType": "su"
  },
  "ownership": {
    "default": 0
  },
  "_stats": {
    "systemId": "pf1",
    "systemVersion": "0.82.1",
    "coreVersion": "10.285",
    "createdTime": 1663018765233,
    "modifiedTime": 1663018778251,
    "lastModifiedBy": "DbeAbHwpEqczKjsD"
  }
}
