{
  "_id": "a0CjjkvzrCEOPyIE",
  "name": "Maestro Bloodline",
  "type": "feat",
  "img": "systems/pf1/icons/items/inventory/lute.jpg",
  "effects": [],
  "folder": null,
  "sort": 0,
  "flags": {},
  "system": {
    "description": {
      "value": "<p><em>The spiritual power of art and song runs strongly through your family line. This may be the result of ancient pacts made with azata patrons, or even an inheritance from a lillend or trumpet archon ancestor. It could also be the lingering taint of a less savory heritage, such as from a harpy or a forefather driven to madness by the disquieting gibbering of a shoggoth. However it came to be, your family’s artistic bent shows itself strongly in your magic.</em></p>\n<p><strong>Class Skill:</strong>&nbsp;<a href=\"https://www.d20pfsrd.com/skills/perform\">Perform</a>.</p>\n<p><strong>Bonus Spells:</strong></p>\n<ul>\n<li>@Compendium[pf1.spells.0onqjy8gfgop1xsi]{Ventriloquism}&nbsp;(3rd),</li>\n<li>@Compendium[pf1.spells.5nr9o7o0it6ewf17]{Hideous Laughter}&nbsp;(5th),</li>\n<li>@Compendium[pf1.spells.zqj5qzyl46af27v0]{Suggestion}&nbsp;(7th),</li>\n<li>@Compendium[pf1.spells.bacuzpculp9tld48]{Shout}&nbsp;(9th),</li>\n<li>@Compendium[pf1.spells.q070n0zoq3zojpas]{Dominate Person}&nbsp;(11th),</li>\n<li>@Compendium[pf1.spells.52v3fogun1n9jzum]{Suggestion, Mass}&nbsp;(13th),</li>\n<li>@Compendium[pf1.spells.gado7zyg5knc83ir]{Power Word Blind}&nbsp;(15th),</li>\n<li>@Compendium[pf1.spells.5if5rln4qlsccrbn]{Shout, Greater}&nbsp;(17th),</li>\n<li>@Compendium[pf1.spells.wplgawb6aznjx7se]{Wail of the Banshee}&nbsp;(19th).</li>\n</ul>\n<p><strong>Bonus Feats:</strong></p>\n<ul>\n<li>@Compendium[pf1.feats.SUACufUXl12sUvnQ]{Deceitful},</li>\n<li>@Compendium[pf1.feats.LSykiaxYWzva2boF]{Greater Spell Focus}&nbsp;(<a href=\"https://www.d20pfsrd.com/magic#TOC-Enchantment\">enchantment</a>),</li>\n<li>&nbsp;<a href=\"https://www.d20pfsrd.com/feats/general-feats/lingering-performance\">Lingering Performance</a>,</li>\n<li>@Compendium[pf1.feats.L10V7jTzmMYz62zz]{Persuasive},</li>\n<li>@Compendium[pf1.feats.7zJTztNW7hdaqjKc]{Skill Focus}&nbsp;(<a href=\"https://www.d20pfsrd.com/skills/perform\">Perform</a>),</li>\n<li>@Compendium[pf1.feats.V2zY7BltkpSXwejy]{Spell Focus}&nbsp;(<a href=\"https://www.d20pfsrd.com/magic#TOC-Enchantment\">enchantment</a>),&nbsp;<a href=\"https://www.d20pfsrd.com/feats/general-feats/spellsong\">Spellsong</a>,</li>\n<li>@Compendium[pf1.feats.jVFjMIyQD6TOAsmj]{Still Spell}.</li>\n</ul>\n<p><strong>Bloodline Arcana:</strong> Whenever you cast a spell with a verbal component and no somatic or material component, you treat your&nbsp;<a href=\"https://www.d20pfsrd.com/magic#TOC-Caster-Level\">caster level</a>&nbsp;as if it were one higher.</p>"
    },
    "tags": [],
    "actions": [],
    "attackNotes": [],
    "effectNotes": [],
    "changes": [],
    "contextNotes": [],
    "links": {
      "children": [],
      "charges": []
    },
    "tag": "classFeat_maestroBloodline",
    "useCustomTag": true,
    "armorProf": {
      "value": []
    },
    "weaponProf": {
      "value": []
    },
    "languages": {
      "value": []
    },
    "scriptCalls": [],
    "featType": "classFeat",
    "associations": {
      "classes": [["Sorcerer"]]
    }
  },
  "ownership": {
    "default": 0
  },
  "_stats": {
    "systemId": "pf1",
    "systemVersion": "0.82.1",
    "coreVersion": "10.285",
    "createdTime": 1663018766585,
    "modifiedTime": 1663018778343,
    "lastModifiedBy": "DbeAbHwpEqczKjsD"
  }
}
