{
  "_id": "4IIOGeT5qafH4HRa",
  "name": "Masterful Tricks",
  "type": "feat",
  "img": "systems/pf1/icons/skills/blue_01.jpg",
  "effects": [],
  "folder": null,
  "sort": 0,
  "flags": {},
  "system": {
    "description": {
      "value": "<p>At 12th level, a mesmerist can choose one of the following masterful tricks in place of a mesmerist trick. He gains an additional masterful trick every 2 levels thereafter.</p>\n<p>Using a masterful trick consumes two uses of the mesmerist trick class feature instead of one.</p>"
    },
    "tags": [],
    "actions": [],
    "attackNotes": [],
    "effectNotes": [],
    "changes": [],
    "contextNotes": [],
    "links": {
      "children": [],
      "charges": []
    },
    "tag": "classFeat_masterfulTricks",
    "useCustomTag": true,
    "armorProf": {
      "value": []
    },
    "weaponProf": {
      "value": []
    },
    "languages": {
      "value": []
    },
    "scriptCalls": [],
    "featType": "classFeat",
    "associations": {
      "classes": [["Mesmerist"]]
    },
    "abilityType": "su"
  },
  "ownership": {
    "default": 0
  },
  "_stats": {
    "systemId": "pf1",
    "systemVersion": "0.82.1",
    "coreVersion": "10.285",
    "createdTime": 1663018762389,
    "modifiedTime": 1663018778098,
    "lastModifiedBy": "DbeAbHwpEqczKjsD"
  }
}
