{
  "_id": "s9LwNl1ZzPJvRjIs",
  "name": "Medicine Subdomain",
  "type": "feat",
  "img": "systems/pf1/icons/items/potions/unique-10.jpg",
  "effects": [],
  "folder": null,
  "sort": 0,
  "flags": {},
  "system": {
    "description": {
      "value": "<p><strong>Replacement Domain Spells:</strong></p>\n<ul>\n<li>1st—@Compendium[pf1.spells.nji43xhlbpr4hk6o]{Diagnose Disease}</li>\n<li>2nd—@Compendium[pf1.spells.0wahvj06h5eak2fk]{Placebo Effect}</li>\n</ul>"
    },
    "tags": [],
    "actions": [],
    "attackNotes": [],
    "effectNotes": [],
    "changes": [],
    "contextNotes": [],
    "links": {
      "children": [],
      "charges": []
    },
    "tag": "classFeat_medicineSubdomain",
    "useCustomTag": true,
    "armorProf": {
      "value": []
    },
    "weaponProf": {
      "value": []
    },
    "languages": {
      "value": []
    },
    "scriptCalls": [],
    "featType": "classFeat",
    "associations": {
      "classes": [["Cleric"]]
    }
  },
  "ownership": {
    "default": 0
  },
  "_stats": {
    "systemId": "pf1",
    "systemVersion": "0.82.1",
    "coreVersion": "10.285",
    "createdTime": 1663018769145,
    "modifiedTime": 1663018778529,
    "lastModifiedBy": "DbeAbHwpEqczKjsD"
  }
}
