{
  "_id": "mYjC0fOJ6kxuhigK",
  "name": "Mesmeric Mirror",
  "type": "feat",
  "img": "systems/pf1/icons/skills/violet_26.jpg",
  "effects": [],
  "folder": null,
  "sort": 0,
  "flags": {},
  "system": {
    "description": {
      "value": "<p>An illusory image appears near the subject to throw off attackers. The mesmerist can trigger this trick when the subject is attacked or becomes the target of a spell that requires an attack roll. One duplicate of the subject appears, and the attacker must determine randomly which it hits (as&nbsp;mirror image).</p>\n<p>For every 5 class levels the mesmerist possesses, one additional image appears, to a maximum of five images at 20th level. Each image lasts for 1 minute per mesmerist level or until destroyed. This is an illusion (figment) effect.</p>"
    },
    "tags": [],
    "actions": [],
    "attackNotes": [],
    "effectNotes": [],
    "changes": [],
    "contextNotes": [],
    "links": {
      "children": [],
      "charges": []
    },
    "tag": "classFeat_mesmericMirror",
    "useCustomTag": true,
    "armorProf": {
      "value": []
    },
    "weaponProf": {
      "value": []
    },
    "languages": {
      "value": []
    },
    "scriptCalls": [],
    "featType": "classFeat",
    "associations": {
      "classes": [["Mesmerist"]]
    }
  },
  "ownership": {
    "default": 0
  },
  "_stats": {
    "systemId": "pf1",
    "systemVersion": "0.82.1",
    "coreVersion": "10.285",
    "createdTime": 1663018768240,
    "modifiedTime": 1663018778495,
    "lastModifiedBy": "DbeAbHwpEqczKjsD"
  }
}
