{
  "_id": "1yM1ZmqhjG1WjxVB",
  "name": "Mounted Synergy",
  "type": "feat",
  "img": "systems/pf1/icons/items/inventory/banner-red.jpg",
  "effects": [],
  "folder": null,
  "sort": 0,
  "flags": {},
  "system": {
    "description": {
      "value": "<p>At 2nd level, the cavalier receives @Compendium[pf1.feats.0spsP9ylE3goD3jc]{Mounted Combat}&nbsp;as a bonus feat and, whenever she is mounted, gains a +2 bonus on initiative checks as long as her mount is conscious and mobile.</p>"
    },
    "tags": [],
    "actions": [],
    "attackNotes": [],
    "effectNotes": [],
    "changes": [],
    "contextNotes": [],
    "links": {
      "children": [],
      "charges": []
    },
    "tag": "classFeat_mountedSynergy",
    "useCustomTag": true,
    "armorProf": {
      "value": []
    },
    "weaponProf": {
      "value": []
    },
    "languages": {
      "value": []
    },
    "scriptCalls": [],
    "featType": "classFeat",
    "associations": {
      "classes": [["Cavalier"]]
    },
    "abilityType": "ex"
  },
  "ownership": {
    "default": 0
  },
  "_stats": {
    "systemId": "pf1",
    "systemVersion": "0.82.1",
    "coreVersion": "10.285",
    "createdTime": 1663018761989,
    "modifiedTime": 1663018778081,
    "lastModifiedBy": "DbeAbHwpEqczKjsD"
  }
}
