{
  "_id": "1aErA9Ff8QEwIbFQ",
  "name": "Order of the Whip",
  "type": "feat",
  "img": "systems/pf1/icons/items/inventory/banner-green.jpg",
  "effects": [],
  "folder": null,
  "sort": 0,
  "flags": {},
  "system": {
    "description": {
      "value": "<p>A cavalier who belongs to this order has pledged himself to cruelty and malice, serving only those who grant him free rein to cause suffering. Cavaliers of this order inflict pain upon those they engage and capture those who submit.<br><br><strong>Edicts: </strong>The cavalier must seek out those weaker than himself to punish and torture. He must force others to obey his commands without question. He must strive to cause pain and suffering wherever possible. Since these edicts are evil, he must be of an evil alignment.<br><br><strong>Challenge:</strong> Whenever an order of the whip cavalier issues a challenge, he receives a +1 morale bonus on all melee damage rolls against the target of his challenge as long as he damaged the creature in the previous round. This bonus increases by +1 for every 4 levels the cavalier has (to a maximum of +5 at 17th level).<br><br><strong>Skills:</strong> An order of the whip cavalier adds Knowledge (local) and Knowledge (nobility) to his list of class skills. Whenever an order of the whip cavalier uses Intimidate to force another creature to do what he says, he receives a bonus on the check equal to 1/2 his cavalier level (minimum +1).</p>"
    },
    "tags": [],
    "actions": [],
    "attackNotes": [],
    "effectNotes": [],
    "changes": [],
    "contextNotes": [],
    "links": {
      "children": [],
      "charges": []
    },
    "tag": "classFeat_orderOfTheWhip",
    "useCustomTag": true,
    "armorProf": {
      "value": []
    },
    "weaponProf": {
      "value": []
    },
    "languages": {
      "value": []
    },
    "scriptCalls": [],
    "featType": "classFeat",
    "associations": {
      "classes": [["Cavalier"]]
    }
  },
  "ownership": {
    "default": 0
  },
  "_stats": {
    "systemId": "pf1",
    "systemVersion": "0.82.1",
    "coreVersion": "10.285",
    "createdTime": 1663018761965,
    "modifiedTime": 1663018778074,
    "lastModifiedBy": "DbeAbHwpEqczKjsD"
  }
}
