{
  "_id": "YTfYwuLjIWAHDDFF",
  "name": "Plague Patron",
  "type": "feat",
  "img": "systems/pf1/icons/feats/improved-familiar.jpg",
  "effects": [],
  "folder": null,
  "sort": 0,
  "flags": {},
  "system": {
    "description": {
      "value": "<ul>\n<li>2nd — @Compendium[pf1.spells.aa0w7tk852iqn3ni]{Detect Undead}</li>\n<li>4th — @Compendium[pf1.spells.h1ankl1l77kmnpke]{Command Undead}</li>\n<li>6th — @Compendium[pf1.spells.ppeb97nxg1rmdpme]{Contagion}</li>\n<li>8th — @Compendium[pf1.spells.8uwmrygxgih1fb57]{Animate Dead}</li>\n<li>10th — @Compendium[pf1.spells.pa6mgkl4caihdrhm]{Giant Vermin}</li>\n<li>12th — @Compendium[pf1.spells.c1e7f0ct04k270wy]{Create Undead}</li>\n<li>14th — @Compendium[pf1.spells.wkp8u7xl1dgpk362]{Control Undead}</li>\n<li>16th — @Compendium[pf1.spells.j209j280fyqccq61]{Create Greater Undead}</li>\n<li>18th — @Compendium[pf1.spells.khfprkujokr9uigq]{Energy Drain}</li>\n</ul>"
    },
    "tags": [],
    "actions": [],
    "attackNotes": [],
    "effectNotes": [],
    "changes": [],
    "contextNotes": [],
    "links": {
      "children": [],
      "charges": []
    },
    "tag": "classFeat_plaguePatron",
    "useCustomTag": true,
    "armorProf": {
      "value": []
    },
    "weaponProf": {
      "value": []
    },
    "languages": {
      "value": []
    },
    "scriptCalls": [],
    "featType": "classFeat",
    "associations": {
      "classes": [["Witch"]]
    }
  },
  "ownership": {
    "default": 0
  },
  "_stats": {
    "systemId": "pf1",
    "systemVersion": "0.82.1",
    "coreVersion": "10.285",
    "createdTime": 1663018766230,
    "modifiedTime": 1663018778316,
    "lastModifiedBy": "DbeAbHwpEqczKjsD"
  }
}
