{
  "_id": "YB0VlnR5drS6ZYCI",
  "name": "Plant Patron",
  "type": "feat",
  "img": "systems/pf1/icons/feats/improved-familiar.jpg",
  "effects": [],
  "folder": null,
  "sort": 0,
  "flags": {},
  "system": {
    "description": {
      "value": "<ul>\n<li>2nd — @Compendium[pf1.spells.2nn2tshkn4p7k25l]{Entangle}</li>\n<li>4th — @Compendium[pf1.spells.3fkwj6d8s65ufwar]{Accelerate Poison}</li>\n<li>6th — @Compendium[pf1.spells.7jqqoorcwq9ro81m]{Lily Pad Stride}</li>\n<li>8th — @Compendium[pf1.spells.0sssdtv0tkbns2r3]{Grove of Respite}</li>\n<li>10th — @Compendium[pf1.spells.6x6epf4g5wgzl1gh]{Tree Stride}</li>\n<li>12th — @Compendium[pf1.spells.ipc85wy0f0lmr0l4]{Repel Wood}</li>\n<li>14th — @Compendium[pf1.spells.qt0xmkag6ahtvesm]{Animate Plants}</li>\n<li>16th — @Compendium[pf1.spells.szzwom7utm3sm15z]{Control Plants}</li>\n<li>18th — @Compendium[pf1.spells.bp4s030vn5iwwf58]{Shambler}</li>\n</ul>"
    },
    "tags": [],
    "actions": [],
    "attackNotes": [],
    "effectNotes": [],
    "changes": [],
    "contextNotes": [],
    "links": {
      "children": [],
      "charges": []
    },
    "tag": "classFeat_plantPatron",
    "useCustomTag": true,
    "armorProf": {
      "value": []
    },
    "weaponProf": {
      "value": []
    },
    "languages": {
      "value": []
    },
    "scriptCalls": [],
    "featType": "classFeat",
    "associations": {
      "classes": [["Witch"]]
    }
  },
  "ownership": {
    "default": 0
  },
  "_stats": {
    "systemId": "pf1",
    "systemVersion": "0.82.1",
    "coreVersion": "10.285",
    "createdTime": 1663018766212,
    "modifiedTime": 1663018778313,
    "lastModifiedBy": "DbeAbHwpEqczKjsD"
  }
}
