{
  "_id": "bJ53X6rilkK70whj",
  "name": "Psychedelia Discipline",
  "type": "feat",
  "img": "systems/pf1/icons/spells/slice-spirit-3.jpg",
  "effects": [],
  "folder": null,
  "sort": 0,
  "flags": {},
  "system": {
    "description": {
      "value": "<p>You ingest hallucinogens to expand your mind. Experimentation and study show you which ones will have the greatest effect. Your psychedelic forays put you into a different mental space from others, and normal people don’t really understand you.<br><br><strong>Phrenic Pool Ability:</strong> Wisdom<br><br><strong>Bonus Spells:</strong>&nbsp;</p>\n<ul>\n<li>@Compendium[pf1.spells.azyo7xhfwdtjchtm]{Polypurpose Panacea} (1st),&nbsp;</li>\n<li>@Compendium[pf1.spells.d4mp0m5xfnu9hbhn]{Mad Hallucination} (4th),&nbsp;</li>\n<li>@Compendium[pf1.spells.zk334ykycwiwb0gn]{Synesthesia} (6th),&nbsp;</li>\n<li>@Compendium[pf1.spells.n0bsyxchnigkkuqo]{Confusion} (8th),&nbsp;</li>\n<li>@Compendium[pf1.spells.82vi1xife3nlu8a0]{Mirage Arcana} (10th),&nbsp;</li>\n<li>@Compendium[pf1.spells.2ip53auf03bqxkl1]{Joyful Rapture} (12th),&nbsp;</li>\n<li>@Compendium[pf1.spells.ni0okhagwuk0jbe9]{Waves of Ecstasy} (14th),&nbsp;</li>\n<li>@Compendium[pf1.spells.xlzqpkl8fpm3sn4u]{Euphoric Tranquility} (16th),&nbsp;</li>\n<li>@Compendium[pf1.spells.lnahlmp5mih2ongh]{Astral Projection} (18th).</li>\n</ul>"
    },
    "tags": [],
    "actions": [],
    "attackNotes": [],
    "effectNotes": [],
    "changes": [],
    "contextNotes": [],
    "links": {
      "children": [],
      "charges": []
    },
    "tag": "classFeat_psychedeliaDiscipline",
    "useCustomTag": true,
    "armorProf": {
      "value": []
    },
    "weaponProf": {
      "value": []
    },
    "languages": {
      "value": []
    },
    "scriptCalls": [],
    "featType": "classFeat",
    "associations": {
      "classes": [["Psychic"]]
    }
  },
  "ownership": {
    "default": 0
  },
  "_stats": {
    "systemId": "pf1",
    "systemVersion": "0.82.1",
    "coreVersion": "10.285",
    "createdTime": 1663018766661,
    "modifiedTime": 1663018778391,
    "lastModifiedBy": "DbeAbHwpEqczKjsD"
  }
}
