{
  "_id": "gFBd3lJNGQIOBCzc",
  "name": "Pulling Infusion",
  "type": "feat",
  "img": "systems/pf1/icons/spells/rip-sky-1.jpg",
  "effects": [],
  "folder": null,
  "sort": 0,
  "flags": {},
  "system": {
    "description": {
      "value": "<p><strong>Element&nbsp;</strong>void;&nbsp;<strong>Type&nbsp;</strong>substance infusion;&nbsp;<strong>Level&nbsp;</strong>1;&nbsp;<strong>Burn&nbsp;</strong>1<br><strong>Associated Blasts&nbsp;</strong>gravity, void<br><strong>Saving Throw</strong>&nbsp;none</p>\n<p>Your kinetic blast pulls foes toward you. Attempt a drag combat maneuver check against each target damaged by your infused blast (the blast always drags the foe closer to you), using your Constitution modifier instead of your Strength modifier to determine your CMB.</p>\n<p>This infusion can pull a foe a maximum of 5 feet. You can increase the maximum distance pulled by 5 feet per additional point of burn accepted.</p>"
    },
    "tags": [],
    "actions": [],
    "attackNotes": [],
    "effectNotes": [],
    "changes": [],
    "contextNotes": [],
    "links": {
      "children": [],
      "charges": []
    },
    "tag": "classFeat_pullingInfusion",
    "useCustomTag": true,
    "armorProf": {
      "value": []
    },
    "weaponProf": {
      "value": []
    },
    "languages": {
      "value": []
    },
    "scriptCalls": [],
    "featType": "classFeat",
    "associations": {
      "classes": [["Kineticist"]]
    }
  },
  "ownership": {
    "default": 0
  },
  "_stats": {
    "systemId": "pf1",
    "systemVersion": "0.82.1",
    "coreVersion": "10.285",
    "createdTime": 1663018767506,
    "modifiedTime": 1663018778453,
    "lastModifiedBy": "DbeAbHwpEqczKjsD"
  }
}
