{
  "_id": "QzkdURnqbR6BXGz4",
  "name": "Push (1 pt)",
  "type": "feat",
  "img": "systems/pf1/icons/skills/blue_26.jpg",
  "effects": [],
  "folder": null,
  "sort": 0,
  "flags": {},
  "system": {
    "description": {
      "value": "<p>An eidolon gains the ability to push creatures away with a successful attack. Select one type of natural attack. Whenever the eidolon makes a successful attack of the selected type, it can attempt a free combat maneuver check. If successful, the target of the attack is pushed 5 feet directly away from the eidolon. This ability only works on creatures of a size equal to or smaller than the eidolon. Creatures pushed in this way do not provoke attacks of opportunity.</p>\n<p>This evolution can be selected more than once. Its effects do not stack. Each time an eidolon selects this evolution, it applies to a different natural attack.</p>"
    },
    "tags": [],
    "actions": [],
    "attackNotes": [],
    "effectNotes": [],
    "changes": [],
    "contextNotes": [],
    "links": {
      "children": [],
      "charges": []
    },
    "tag": "classFeat_push1Pt",
    "useCustomTag": true,
    "armorProf": {
      "value": []
    },
    "weaponProf": {
      "value": []
    },
    "languages": {
      "value": []
    },
    "scriptCalls": [],
    "featType": "classFeat",
    "associations": {
      "classes": [["Eidolon"]]
    },
    "abilityType": "ex"
  },
  "ownership": {
    "default": 0
  },
  "_stats": {
    "systemId": "pf1",
    "systemVersion": "0.82.1",
    "coreVersion": "10.285",
    "createdTime": 1663018765310,
    "modifiedTime": 1663018778259,
    "lastModifiedBy": "DbeAbHwpEqczKjsD"
  }
}
