{
  "_id": "m8EVRMw5zntAIuqQ",
  "name": "Seismic Master",
  "type": "feat",
  "img": "systems/pf1/icons/spells/rock-sky-3.jpg",
  "effects": [],
  "folder": null,
  "sort": 0,
  "flags": {},
  "system": {
    "description": {
      "value": "<p><strong>Element&nbsp;</strong>earth;&nbsp;<strong>Type&nbsp;</strong>utility (Sp);&nbsp;<strong>Level&nbsp;</strong>9;&nbsp;<strong>Burn&nbsp;</strong>0</p>\n<p>You can focus on your connection to earth and create a localized tremor, as the @Compendium[pf1.spells.a5gcbpwfhu4hh5ic]{Earthquake} spell.</p>"
    },
    "tags": [],
    "actions": [],
    "attackNotes": [],
    "effectNotes": [],
    "changes": [],
    "contextNotes": [],
    "links": {
      "children": [],
      "charges": []
    },
    "tag": "classFeat_seismicMaster",
    "useCustomTag": true,
    "armorProf": {
      "value": []
    },
    "weaponProf": {
      "value": []
    },
    "languages": {
      "value": []
    },
    "scriptCalls": [],
    "featType": "classFeat",
    "associations": {
      "classes": [["Kineticist"]]
    },
    "abilityType": "sp"
  },
  "ownership": {
    "default": 0
  },
  "_stats": {
    "systemId": "pf1",
    "systemVersion": "0.82.1",
    "coreVersion": "10.285",
    "createdTime": 1663018768223,
    "modifiedTime": 1663018778493,
    "lastModifiedBy": "DbeAbHwpEqczKjsD"
  }
}
