{
  "_id": "7hBNgSsYXUjx0G1C",
  "name": "Shattering Punch (UC)",
  "type": "feat",
  "img": "systems/pf1/icons/skills/yellow_08.jpg",
  "effects": [],
  "folder": null,
  "sort": 0,
  "flags": {},
  "system": {
    "description": {
      "value": "<p>The monk delivers a brutal punch that can penetrate defenses. If the attack hits, it bypasses any damage reduction or hardness possessed by the target of that attack.</p>\n<p>The monk must attack with a fist to use this style strike.</p>"
    },
    "tags": [],
    "actions": [],
    "attackNotes": [],
    "effectNotes": [],
    "changes": [],
    "contextNotes": [],
    "links": {
      "children": [],
      "charges": []
    },
    "tag": "classFeat_shatteringPunchUc",
    "useCustomTag": true,
    "armorProf": {
      "value": []
    },
    "weaponProf": {
      "value": []
    },
    "languages": {
      "value": []
    },
    "scriptCalls": [],
    "featType": "classFeat",
    "associations": {
      "classes": [["Monk (Unchained)"]]
    },
    "abilityType": "ex"
  },
  "ownership": {
    "default": 0
  },
  "_stats": {
    "systemId": "pf1",
    "systemVersion": "0.82.1",
    "coreVersion": "10.285",
    "createdTime": 1663018762900,
    "modifiedTime": 1663018778126,
    "lastModifiedBy": "DbeAbHwpEqczKjsD"
  }
}
