{
  "_id": "iGrgU1XzlweVO2tb",
  "name": "Soothing Performance",
  "type": "feat",
  "img": "systems/pf1/icons/feats/blind-fight.jpg",
  "effects": [],
  "folder": null,
  "sort": 0,
  "flags": {},
  "system": {
    "description": {
      "value": "<p>A bard of 12th level or higher can use his performance to create an effect equivalent to the&nbsp;<a href=\"https://www.d20pfsrd.com/magic/all-spells/c/cure-serious-wounds\">mass cure serious wounds</a>, using the bard’s level as the&nbsp;<a href=\"https://www.d20pfsrd.com/magic#TOC-Caster-Level\">caster level</a>. In addition, this performance removes the&nbsp;<a href=\"https://www.d20pfsrd.com/gamemastering/conditions#TOC-Fatigued\">fatigued</a>,&nbsp;<a href=\"https://www.d20pfsrd.com/gamemastering/conditions#TOC-Sickened\">sickened</a>, and&nbsp;<a href=\"https://www.d20pfsrd.com/gamemastering/conditions#TOC-Shaken\">shaken</a>&nbsp;condition from all those affected. Using this ability requires 4 rounds of continuous performance, and the targets must be able to see and hear the bard throughout the performance. Soothing performance relies on audible and visual components.</p>"
    },
    "tags": [],
    "actions": [],
    "attackNotes": [],
    "effectNotes": [],
    "changes": [],
    "contextNotes": [],
    "links": {
      "children": [],
      "charges": []
    },
    "tag": "classFeat_soothingPerformance",
    "useCustomTag": true,
    "armorProf": {
      "value": []
    },
    "weaponProf": {
      "value": []
    },
    "languages": {
      "value": []
    },
    "scriptCalls": [],
    "featType": "classFeat",
    "associations": {
      "classes": [["Bard"]]
    },
    "abilityType": "su"
  },
  "ownership": {
    "default": 0
  },
  "_stats": {
    "systemId": "pf1",
    "systemVersion": "0.82.1",
    "coreVersion": "10.285",
    "createdTime": 1663018767714,
    "modifiedTime": 1663018778467,
    "lastModifiedBy": "DbeAbHwpEqczKjsD"
  }
}
