{
  "_id": "IJc1uV3AS2IPJ1wY",
  "name": "Spirit Channeling",
  "type": "feat",
  "img": "systems/pf1/icons/spells/slice-spirit-3.jpg",
  "effects": [],
  "folder": null,
  "sort": 0,
  "flags": {},
  "system": {
    "description": {
      "value": "<p>As your self-awareness expands, you become increasingly attuned to the spirit world around you. At 5th level, as part of your meditation to initiate metamorphosis, you can invite a wandering spirit to share your body as if you were a shaman (Pathfinder RPG Advanced Class Guide 37). You gain the associated 1st-level spirit ability as long as you maintain your altered form, but your metamorphosis form also exhibits some aspect of the spirit you host, such as vivid red hair for a flame spirit or gauntness for a bone spirit.</p>"
    },
    "tags": [],
    "actions": [],
    "attackNotes": [],
    "effectNotes": [],
    "changes": [],
    "contextNotes": [],
    "links": {
      "children": [],
      "charges": []
    },
    "tag": "classFeat_spiritChanneling",
    "useCustomTag": true,
    "armorProf": {
      "value": []
    },
    "weaponProf": {
      "value": []
    },
    "languages": {
      "value": []
    },
    "scriptCalls": [],
    "featType": "classFeat",
    "associations": {
      "classes": [["Psychic"]]
    },
    "abilityType": "su"
  },
  "ownership": {
    "default": 0
  },
  "_stats": {
    "systemId": "pf1",
    "systemVersion": "0.82.1",
    "coreVersion": "10.285",
    "createdTime": 1663018764275,
    "modifiedTime": 1663018778204,
    "lastModifiedBy": "DbeAbHwpEqczKjsD"
  }
}
