{
  "_id": "pv2ysm5spFZfQk4K",
  "name": "Sticky Bomb",
  "type": "feat",
  "img": "systems/pf1/icons/items/potions/unique-3.jpg",
  "effects": [],
  "folder": null,
  "sort": 0,
  "flags": {},
  "system": {
    "description": {
      "value": "<p>The effects of the alchemist's bombs are persistent and continue to damage creatures for 1 round after the initial damage. Creatures that take a direct hit from a sticky bomb take the splash damage 1 round later. Bombs that have effects that would normally occur 1 round later instead have those effects occur 2 rounds later.</p>\n<p>An alchemist must be at least 10th level before selecting this discovery.</p>"
    },
    "tags": [],
    "actions": [],
    "attackNotes": [],
    "effectNotes": [],
    "changes": [],
    "contextNotes": [],
    "links": {
      "children": [],
      "charges": []
    },
    "tag": "classFeat_stickyBomb",
    "useCustomTag": true,
    "armorProf": {
      "value": []
    },
    "weaponProf": {
      "value": []
    },
    "languages": {
      "value": []
    },
    "scriptCalls": [],
    "featType": "classFeat",
    "associations": {
      "classes": [["Alchemist"]]
    }
  },
  "ownership": {
    "default": 0
  },
  "_stats": {
    "systemId": "pf1",
    "systemVersion": "0.82.1",
    "coreVersion": "10.285",
    "createdTime": 1663018768739,
    "modifiedTime": 1663018778513,
    "lastModifiedBy": "DbeAbHwpEqczKjsD"
  }
}
