{
  "_id": "K7J63Q6pss9otGlp",
  "name": "Stone Mystery",
  "type": "feat",
  "img": "systems/pf1/icons/spells/light-magenta-2.jpg",
  "effects": [],
  "folder": null,
  "sort": 0,
  "flags": {},
  "system": {
    "description": {
      "value": "<p><strong>Class Skills:</strong> An oracle with the stone mystery adds Appraise, Climb, Intimidate, and Survival to her list of class skills.<br><br><strong>Bonus Spells:</strong>&nbsp;</p>\n<ul>\n<li>@Compendium[pf1.spells.fv9mgob508qv99zz]{Magic Stone} (2nd),&nbsp;</li>\n<li>@Compendium[pf1.spells.gqtg9ruv8kkd0knf]{Stone Call} (4th),&nbsp;</li>\n<li>@Compendium[pf1.spells.dkv9v4verb82fmpx]{Meld into Stone} (6th),&nbsp;</li>\n<li>@Compendium[pf1.spells.l83djt5019ujasjh]{Wall Of Stone} (8th),&nbsp;</li>\n<li>@Compendium[pf1.spells.knyako6zopc1chrv]{Stoneskin}(10th),&nbsp;</li>\n<li>@Compendium[pf1.spells.wgm8mm1za909pwch]{Stone Tell} (12th),&nbsp;</li>\n<li>@Compendium[pf1.spells.g52zx1t1giteg5h1]{Statue} (14th),&nbsp;</li>\n<li>@Compendium[pf1.spells.oeemcnfjod9zd7my]{Repel Metal or Stone} (16th),&nbsp;</li>\n<li>@Compendium[pf1.spells.o8jhvddxgunzx94i]{Clashing Rocks} (18th).</li>\n</ul>"
    },
    "tags": [],
    "actions": [],
    "attackNotes": [],
    "effectNotes": [],
    "changes": [],
    "contextNotes": [],
    "links": {
      "children": [],
      "charges": []
    },
    "tag": "classFeat_stoneMystery",
    "useCustomTag": true,
    "armorProf": {
      "value": []
    },
    "weaponProf": {
      "value": []
    },
    "languages": {
      "value": []
    },
    "scriptCalls": [],
    "featType": "classFeat",
    "associations": {
      "classes": [["Oracle"]]
    }
  },
  "ownership": {
    "default": 0
  },
  "_stats": {
    "systemId": "pf1",
    "systemVersion": "0.82.1",
    "coreVersion": "10.285",
    "createdTime": 1663018764377,
    "modifiedTime": 1663018778217,
    "lastModifiedBy": "DbeAbHwpEqczKjsD"
  }
}
