{
  "_id": "TCJLNZV7CGfv65lR",
  "name": "Strength of Shadows",
  "type": "feat",
  "img": "systems/pf1/icons/skills/red_05.jpg",
  "effects": [],
  "folder": null,
  "sort": 0,
  "flags": {},
  "system": {
    "description": {
      "value": "<p>At 8th level, you gain cold resistance 10. Your melee attacks deal additional cold damage equal to the critical multiplier of the weapon you use.</p>\n<p>At 13th level, your cold resistance increases to 20.</p>\n<p>At 18th level, you become immune to cold damage.</p>"
    },
    "tags": [],
    "actions": [],
    "attackNotes": [],
    "effectNotes": [],
    "changes": [],
    "contextNotes": [],
    "links": {
      "children": [],
      "charges": []
    },
    "tag": "classFeat_strengthOfShadows",
    "useCustomTag": true,
    "armorProf": {
      "value": []
    },
    "weaponProf": {
      "value": []
    },
    "languages": {
      "value": []
    },
    "scriptCalls": [],
    "featType": "classFeat",
    "associations": {
      "classes": [["Bloodrager"]]
    },
    "abilityType": "su"
  },
  "ownership": {
    "default": 0
  },
  "_stats": {
    "systemId": "pf1",
    "systemVersion": "0.82.1",
    "coreVersion": "10.285",
    "createdTime": 1663018765676,
    "modifiedTime": 1663018778273,
    "lastModifiedBy": "DbeAbHwpEqczKjsD"
  }
}
