{
  "_id": "NfoB34jDXxaN0gFa",
  "name": "Streets Mystery",
  "type": "feat",
  "img": "systems/pf1/icons/spells/light-magenta-2.jpg",
  "effects": [],
  "folder": null,
  "sort": 0,
  "flags": {},
  "system": {
    "description": {
      "value": "<p><strong>Class Skills:</strong> An oracle with the streets mystery adds Bluff, Knowledge (local), Perception, and Stealth to her list of class skills.<br><br><strong>Bonus Spells:</strong>&nbsp;</p>\n<ul>\n<li>@Compendium[pf1.spells.oj36nfak6jc2s5ky]{Disguise Self} (2nd),&nbsp;</li>\n<li>@Compendium[pf1.spells.xllxylvvqr82o2d5]{Detect Thoughts} (4th),&nbsp;</li>\n<li>@Compendium[pf1.spells.53dyu81yaw4y0nz4]{Glyph Of Warding} (6th),&nbsp;</li>\n<li>@Compendium[pf1.spells.7c0l64pfdkgl7j5y]{Illusory Wall}(8th),&nbsp;</li>\n<li>@Compendium[pf1.spells.gk8fqfvj99d46p2h]{False Vision} (10th),&nbsp;</li>\n<li>@Compendium[pf1.spells.q5432hyeds4pncxn]{Getaway} (12th),&nbsp;</li>\n<li>@Compendium[pf1.spells.dsondqy4ngf1yzf3]{Screen} (14th),&nbsp;</li>\n<li>@Compendium[pf1.spells.kqftgm3bi2dqj92l]{Mage's Magnificent Mansion} (16th),&nbsp;</li>\n<li>@Compendium[pf1.spells.9968j68bl9x9iq7u]{Clone} (18th).</li>\n</ul>"
    },
    "tags": [],
    "actions": [],
    "attackNotes": [],
    "effectNotes": [],
    "changes": [],
    "contextNotes": [],
    "links": {
      "children": [],
      "charges": []
    },
    "tag": "classFeat_streetsMystery",
    "useCustomTag": true,
    "armorProf": {
      "value": []
    },
    "weaponProf": {
      "value": []
    },
    "languages": {
      "value": []
    },
    "scriptCalls": [],
    "featType": "classFeat",
    "associations": {
      "classes": [["Oracle"]]
    }
  },
  "ownership": {
    "default": 0
  },
  "_stats": {
    "systemId": "pf1",
    "systemVersion": "0.82.1",
    "coreVersion": "10.285",
    "createdTime": 1663018764884,
    "modifiedTime": 1663018778241,
    "lastModifiedBy": "DbeAbHwpEqczKjsD"
  }
}
