{
  "_id": "jSaWXBs3kCqHZWGT",
  "name": "Succor Final Revelation",
  "type": "feat",
  "img": "systems/pf1/icons/spells/light-royal-1.jpg",
  "effects": [],
  "folder": null,
  "sort": 0,
  "flags": {},
  "system": {
    "description": {
      "value": "<p>You become a beacon of aid and assistance to your allies and those you deem worthy of receiving your succoring magical benefits. You can apply any one of the following metamagic feats to any spell you cast that targets one or more of your allies without increasing the level or casting time: Enlarge Spell, Extend Spell, Silent Spell, or Still Spell. You do not need to have these feats to use this ability, and you can use this ability any number of times per day on any spell that can be affected by the listed metamagic feats.</p>"
    },
    "tags": [],
    "actions": [],
    "attackNotes": [],
    "effectNotes": [],
    "changes": [],
    "contextNotes": [],
    "links": {
      "children": [],
      "charges": []
    },
    "tag": "classFeat_succorFinalRevelation",
    "useCustomTag": true,
    "armorProf": {
      "value": []
    },
    "weaponProf": {
      "value": []
    },
    "languages": {
      "value": []
    },
    "scriptCalls": [],
    "featType": "classFeat",
    "associations": {
      "classes": [["Oracle"]]
    }
  },
  "ownership": {
    "default": 0
  },
  "_stats": {
    "systemId": "pf1",
    "systemVersion": "0.82.1",
    "coreVersion": "10.285",
    "createdTime": 1663018767774,
    "modifiedTime": 1663018778474,
    "lastModifiedBy": "DbeAbHwpEqczKjsD"
  }
}
