{
  "_id": "hAqoBq3McyMN4KDK",
  "name": "Take 'em Alive",
  "type": "feat",
  "img": "systems/pf1/icons/feats/deceitful.jpg",
  "effects": [],
  "folder": null,
  "sort": 0,
  "flags": {},
  "system": {
    "description": {
      "value": "<p>The vigilante doesn’t take the usual -4 penalty on attack rolls made to deal nonlethal damage with weapons that normally deal lethal damage. In addition, the vigilante gains a +1 bonus on all attack and damage rolls for attacks that deal only nonlethal damage and have no secondary effects (such as poison).</p>\n<p>This bonus increases by 1 at 5th level and every 3 levels thereafter, to a maximum of +5 at 20th level.</p>"
    },
    "tags": [],
    "actions": [],
    "attackNotes": [],
    "effectNotes": [],
    "changes": [],
    "contextNotes": [],
    "links": {
      "children": [],
      "charges": []
    },
    "tag": "classFeat_takeEmAlive",
    "useCustomTag": true,
    "armorProf": {
      "value": []
    },
    "weaponProf": {
      "value": []
    },
    "languages": {
      "value": []
    },
    "scriptCalls": [],
    "featType": "classFeat",
    "associations": {
      "classes": [["Vigilante"]]
    },
    "abilityType": "ex"
  },
  "ownership": {
    "default": 0
  },
  "_stats": {
    "systemId": "pf1",
    "systemVersion": "0.82.1",
    "coreVersion": "10.285",
    "createdTime": 1663018767657,
    "modifiedTime": 1663018778461,
    "lastModifiedBy": "DbeAbHwpEqczKjsD"
  }
}
