{
  "_id": "4eIRlzM1ODGr9aDq",
  "name": "Thought Subdomain",
  "type": "feat",
  "img": "systems/pf1/icons/skills/beast_04.jpg",
  "effects": [],
  "folder": null,
  "sort": 0,
  "flags": {},
  "system": {
    "description": {
      "value": "<p><strong>Replacement Domain Spells:</strong></p>\n<ul>\n<li>3rd—@Compendium[pf1.spells.s7jujnadsgd9sroc]{Seek Thoughts}</li>\n<li>5th—@Compendium[pf1.spells.zuqlok69lapqc6lg]{Telepathic Bond}</li>\n<li>8th—@Compendium[pf1.spells.blvetbc929cfx4m8]{Mind Blank}</li>\n</ul>"
    },
    "tags": [],
    "actions": [],
    "attackNotes": [],
    "effectNotes": [],
    "changes": [],
    "contextNotes": [],
    "links": {
      "children": [],
      "charges": []
    },
    "tag": "classFeat_thoughtSubdomain",
    "useCustomTag": true,
    "armorProf": {
      "value": []
    },
    "weaponProf": {
      "value": []
    },
    "languages": {
      "value": []
    },
    "scriptCalls": [],
    "featType": "classFeat",
    "associations": {
      "classes": [["Cleric"]]
    }
  },
  "ownership": {
    "default": 0
  },
  "_stats": {
    "systemId": "pf1",
    "systemVersion": "0.82.1",
    "coreVersion": "10.285",
    "createdTime": 1663018762432,
    "modifiedTime": 1663018778101,
    "lastModifiedBy": "DbeAbHwpEqczKjsD"
  }
}
