{
  "_id": "yAz6IHIN1xd9vZjR",
  "name": "Tyranny Subdomain",
  "type": "feat",
  "img": "systems/pf1/icons/skills/red_12.jpg",
  "effects": [],
  "folder": null,
  "sort": 0,
  "flags": {},
  "system": {
    "description": {
      "value": "<p><strong>Replacement Domain Spells:</strong></p>\n<ul>\n<li>1st—@Compendium[pf1.spells.2p6fzj5t03oivndd]{Command}</li>\n<li>3rd— @Compendium[pf1.spells.lsboosfk26m0ycqv]{Bestow Curse}</li>\n<li>7th—@Compendium[pf1.spells.1m5rpvirt48brv71]{Symbol of Persuasion}</li>\n</ul>"
    },
    "tags": [],
    "actions": [],
    "attackNotes": [],
    "effectNotes": [],
    "changes": [],
    "contextNotes": [],
    "links": {
      "children": [],
      "charges": []
    },
    "tag": "classFeat_tyrannySubdomain",
    "useCustomTag": true,
    "armorProf": {
      "value": []
    },
    "weaponProf": {
      "value": []
    },
    "languages": {
      "value": []
    },
    "scriptCalls": [],
    "featType": "classFeat",
    "associations": {
      "classes": [["Cleric"]]
    }
  },
  "ownership": {
    "default": 0
  },
  "_stats": {
    "systemId": "pf1",
    "systemVersion": "0.82.1",
    "coreVersion": "10.285",
    "createdTime": 1663018769750,
    "modifiedTime": 1663018778571,
    "lastModifiedBy": "DbeAbHwpEqczKjsD"
  }
}
