{
  "_id": "iXUf0hB7WYr3c2kS",
  "name": "Umbral Shield",
  "type": "feat",
  "img": "systems/pf1/icons/skills/violet_26.jpg",
  "effects": [],
  "folder": null,
  "sort": 0,
  "flags": {},
  "system": {
    "description": {
      "value": "<p>The subject ignores any harmful effects of bright light or sunlight for 1 minute. The mesmerist can trigger this trick whenever the subject would be exposed to harmful bright light (such as sunlight is to a vampire).</p>\n<p>The subject is immune to the&nbsp;dazzled&nbsp;condition while this trick is in effect.</p>"
    },
    "tags": [],
    "actions": [],
    "attackNotes": [],
    "effectNotes": [],
    "changes": [],
    "contextNotes": [],
    "links": {
      "children": [],
      "charges": []
    },
    "tag": "classFeat_umbralShield",
    "useCustomTag": true,
    "armorProf": {
      "value": []
    },
    "weaponProf": {
      "value": []
    },
    "languages": {
      "value": []
    },
    "scriptCalls": [],
    "featType": "classFeat",
    "associations": {
      "classes": [["Mesmerist"]]
    }
  },
  "ownership": {
    "default": 0
  },
  "_stats": {
    "systemId": "pf1",
    "systemVersion": "0.82.1",
    "coreVersion": "10.285",
    "createdTime": 1663018767727,
    "modifiedTime": 1663018778468,
    "lastModifiedBy": "DbeAbHwpEqczKjsD"
  }
}
