{
  "_id": "2rYSUirW0lXDO8PL",
  "name": "Unbalancing Trick",
  "type": "feat",
  "img": "systems/pf1/icons/items/weapons/dagger.PNG",
  "effects": [],
  "folder": null,
  "sort": 0,
  "flags": {},
  "system": {
    "description": {
      "value": "<p>The rogue gains @Compendium[pf1.feats.gTrGPxzN054GfpkM]{Improved Trip} as a bonus feat, even if she does not meet the prerequisites. At 6th level, she is treated as if she meets all the prerequisites of @Compendium[pf1.feats.lNyMFFQaOxxTOW7M]{Greater Trip} (although she must take the feat as normal to gain its benefits).</p>"
    },
    "tags": [],
    "actions": [],
    "attackNotes": [],
    "effectNotes": [],
    "changes": [],
    "contextNotes": [],
    "links": {
      "children": [],
      "charges": []
    },
    "tag": "classFeat_unbalancingTrick",
    "useCustomTag": true,
    "armorProf": {
      "value": []
    },
    "weaponProf": {
      "value": []
    },
    "languages": {
      "value": []
    },
    "scriptCalls": [],
    "featType": "classFeat",
    "associations": {
      "classes": [["Rogue"]]
    },
    "abilityType": "ex"
  },
  "ownership": {
    "default": 0
  },
  "_stats": {
    "systemId": "pf1",
    "systemVersion": "0.82.1",
    "coreVersion": "10.285",
    "createdTime": 1663018762050,
    "modifiedTime": 1663018778088,
    "lastModifiedBy": "DbeAbHwpEqczKjsD"
  }
}
