{
  "_id": "LbEf1MYKJngniFtO",
  "name": "Viper's Touch",
  "type": "feat",
  "img": "systems/pf1/icons/skills/red_05.jpg",
  "effects": [],
  "folder": null,
  "sort": 0,
  "flags": {},
  "system": {
    "description": {
      "value": "<p>At 12th level, you grow two sets of venomous claws resembling the teeth of a serpent. These claws are primary natural attacks that deal 1d8 points of damage (1d6 if you are Small). The claws also gain the following poison ability:&nbsp;</p>\n<p><strong>Viper’s Venom:</strong> <em>Claw</em>—injury;&nbsp;<em>save&nbsp;</em>Fort DC 10 + half the bloodrager’s level + the bloodrager’s Constitution modifier;&nbsp;<em>frequency</em>&nbsp;1/round for 4 rounds;&nbsp;<em>effect&nbsp;</em>1d3 Str damage;&nbsp;<em>cure</em>&nbsp;1 save.</p>"
    },
    "tags": [],
    "actions": [],
    "attackNotes": [],
    "effectNotes": [],
    "changes": [],
    "contextNotes": [],
    "links": {
      "children": [],
      "charges": []
    },
    "tag": "classFeat_vipersTouch",
    "useCustomTag": true,
    "armorProf": {
      "value": []
    },
    "weaponProf": {
      "value": []
    },
    "languages": {
      "value": []
    },
    "scriptCalls": [],
    "featType": "classFeat",
    "associations": {
      "classes": [["Bloodrager"]]
    },
    "abilityType": "su"
  },
  "ownership": {
    "default": 0
  },
  "_stats": {
    "systemId": "pf1",
    "systemVersion": "0.82.1",
    "coreVersion": "10.285",
    "createdTime": 1663018764758,
    "modifiedTime": 1663018778225,
    "lastModifiedBy": "DbeAbHwpEqczKjsD"
  }
}
