{
  "_id": "vsJbpWNPb1YEO5ia",
  "name": "Void Domain",
  "type": "feat",
  "img": "systems/pf1/icons/spells/rip-sky-1.jpg",
  "effects": [],
  "folder": null,
  "sort": 0,
  "flags": {},
  "system": {
    "description": {
      "value": "<p><strong>Granted Powers: </strong>You can call upon the cold darkness between the stars to gain flight, travel to other worlds, or summon monsters from beyond to do your bidding.</p>\n<p><strong>Domain Spells: </strong></p>\n<ul>\n<li>1st—@Compendium[pf1.spells.68m9du7zw2di7ew6]{Feather Fall}</li>\n<li>2nd—@Compendium[pf1.spells.plou8h168bfn5hq6]{Levitate}</li>\n<li>3rd—@Compendium[pf1.spells.7d6sv5ecvi7kho3m]{Fly}</li>\n<li>4th—@Compendium[pf1.spells.y4b1zmhmsa0gvf06]{Planar Binding, Lesser}</li>\n<li>5th—@Compendium[pf1.spells.wqvy12w1xgk6l9b0]{Overland Flight}</li>\n<li>6th—@Compendium[pf1.spells.qf4bqjgeff1q4hjt]{Planar Binding}</li>\n<li>7th—@Compendium[pf1.spells.3bdfw5f15hwcxlth]{Reverse Gravity}</li>\n<li>8th—@Compendium[pf1.spells.bbmd0fj17jsf5300]{Planar Binding, Greater}</li>\n<li>9th—@Compendium[pf1.spells.4qriqew7d2ot7wr5]{Interplanetary Teleport}</li>\n</ul>"
    },
    "tags": [],
    "actions": [],
    "attackNotes": [],
    "effectNotes": [],
    "changes": [],
    "contextNotes": [],
    "links": {
      "children": [],
      "charges": []
    },
    "tag": "classFeat_voidDomain",
    "useCustomTag": true,
    "armorProf": {
      "value": []
    },
    "weaponProf": {
      "value": []
    },
    "languages": {
      "value": []
    },
    "scriptCalls": [],
    "featType": "classFeat",
    "associations": {
      "classes": [["Cleric"]]
    }
  },
  "ownership": {
    "default": 0
  },
  "_stats": {
    "systemId": "pf1",
    "systemVersion": "0.82.1",
    "coreVersion": "10.285",
    "createdTime": 1663018769625,
    "modifiedTime": 1663018778556,
    "lastModifiedBy": "DbeAbHwpEqczKjsD"
  }
}
