{
  "_id": "QsqsssvhHBEUzKt2",
  "name": "Witch's Charge",
  "type": "feat",
  "img": "systems/pf1/icons/skills/violet_02.jpg",
  "effects": [],
  "folder": null,
  "sort": 0,
  "flags": {},
  "system": {
    "description": {
      "value": "<p>Once per day when preparing spells, a witch can designate a willing creature as her charge. She gains a constant&nbsp;status&nbsp;effect on this creature and can target it with beneficial touch spells from a range of 30 feet. The creature remains her charge until she designates a new one.</p>"
    },
    "tags": [],
    "actions": [],
    "attackNotes": [],
    "effectNotes": [],
    "changes": [],
    "contextNotes": [],
    "links": {
      "children": [],
      "charges": []
    },
    "tag": "classFeat_witchsCharge",
    "useCustomTag": true,
    "armorProf": {
      "value": []
    },
    "weaponProf": {
      "value": []
    },
    "languages": {
      "value": []
    },
    "scriptCalls": [],
    "featType": "classFeat",
    "associations": {
      "classes": [["Witch"]]
    },
    "abilityType": "su"
  },
  "ownership": {
    "default": 0
  },
  "_stats": {
    "systemId": "pf1",
    "systemVersion": "0.82.1",
    "coreVersion": "10.285",
    "createdTime": 1663018765301,
    "modifiedTime": 1663018778258,
    "lastModifiedBy": "DbeAbHwpEqczKjsD"
  }
}
