{
  "_id": "VBr9mK6Cl1X0EyaY",
  "name": "Woodland Step",
  "type": "feat",
  "img": "systems/pf1/icons/spells/vines-jade-3.jpg",
  "effects": [],
  "folder": null,
  "sort": 0,
  "flags": {},
  "system": {
    "description": {
      "value": "<p><strong>Element&nbsp;</strong>wood;&nbsp;<strong>Type&nbsp;</strong>utility (Su);&nbsp;<strong>Level&nbsp;</strong>1;&nbsp;<strong>Burn&nbsp;</strong>0</p>\n<p>You gain @Compendium[pf1.class-abilities.5iXq1igb1Cq0qobT]{Woodland Stride}, as per the druid ability. Due to your ability to manipulate plants, you can attempt a caster level check (DC = 11 + the spell’s caster level) as a standard action to also ignore magically manipulated plants (but not creatures of the plant type).</p>"
    },
    "tags": [],
    "actions": [],
    "attackNotes": [],
    "effectNotes": [],
    "changes": [],
    "contextNotes": [],
    "links": {
      "children": [],
      "charges": []
    },
    "tag": "classFeat_woodlandStep",
    "useCustomTag": true,
    "armorProf": {
      "value": []
    },
    "weaponProf": {
      "value": []
    },
    "languages": {
      "value": []
    },
    "scriptCalls": [],
    "featType": "classFeat",
    "associations": {
      "classes": [["Kineticist"]]
    },
    "abilityType": "su"
  },
  "ownership": {
    "default": 0
  },
  "_stats": {
    "systemId": "pf1",
    "systemVersion": "0.82.1",
    "coreVersion": "10.285",
    "createdTime": 1663018765789,
    "modifiedTime": 1663018778284,
    "lastModifiedBy": "DbeAbHwpEqczKjsD"
  }
}
