{
  "_id": "ClOy4KHJFDdt0ALh",
  "name": "Bull's Strength",
  "type": "buff",
  "img": "systems/pf1/icons/spells/runes-orange-1.jpg",
  "effects": [],
  "folder": null,
  "sort": 100001,
  "flags": {},
  "system": {
    "description": {
      "value": "<p>The subject has a +4 enhancement bonus to Strength.</p>"
    },
    "tags": [],
    "changes": [
      {
        "_id": "td5zd1xv",
        "formula": "4",
        "operator": "+",
        "subTarget": "str",
        "modifier": "enh",
        "priority": 0,
        "value": 0,
        "target": "ability"
      }
    ],
    "contextNotes": [],
    "links": {
      "children": []
    },
    "flags": {
      "boolean": [],
      "dictionary": []
    },
    "scriptCalls": [],
    "level": "3",
    "duration": {
      "value": "@item.level",
      "units": "minute"
    }
  },
  "ownership": {
    "default": 0
  },
  "_stats": {
    "systemId": "pf1",
    "systemVersion": "0.82.1",
    "coreVersion": "10.285",
    "createdTime": 1663018729285,
    "modifiedTime": 1663018729406,
    "lastModifiedBy": "DbeAbHwpEqczKjsD"
  }
}
