{
  "_id": "olTpyao476hOEzzm",
  "name": "Shield",
  "type": "buff",
  "img": "systems/pf1/icons/spells/protect-blue-1.jpg",
  "effects": [],
  "folder": null,
  "sort": 5600000,
  "flags": {},
  "system": {
    "description": {
      "value": "<p>An invisible shield of force hovers in front of you, with the following effects:</p>\n<ul>\n<li>+4 Shield Bonus to AC</li>\n<li>Negates Magic Missile attacks direct at you</li>\n</ul>\n<p>These bonuses apply to incorporeal touch attacks.</p>"
    },
    "tags": [],
    "changes": [
      {
        "_id": "gq5kc0g2",
        "formula": "4",
        "operator": "+",
        "subTarget": "sac",
        "modifier": "base",
        "priority": 0,
        "value": 0,
        "target": "ac"
      }
    ],
    "contextNotes": [],
    "links": {
      "children": []
    },
    "flags": {
      "boolean": [],
      "dictionary": []
    },
    "scriptCalls": [],
    "level": "1",
    "duration": {
      "value": "@item.level",
      "units": "minute"
    }
  },
  "ownership": {
    "default": 0
  },
  "_stats": {
    "systemId": "pf1",
    "systemVersion": "0.82.1",
    "coreVersion": "10.285",
    "createdTime": 1663018729312,
    "modifiedTime": 1663018729408,
    "lastModifiedBy": "DbeAbHwpEqczKjsD"
  }
}
