{
  "_id": "DvcRWaWndZ1s2tB4",
  "name": "Total Defense",
  "type": "buff",
  "img": "icons/svg/combat.svg",
  "effects": [],
  "folder": null,
  "sort": 0,
  "flags": {},
  "system": {
    "tags": [],
    "changes": [
      {
        "_id": "bhjbvsog",
        "formula": "@skills.acr.rank>=3?6:4",
        "operator": "add",
        "subTarget": "ac",
        "modifier": "dodge",
        "priority": 0,
        "value": 0,
        "target": "ac"
      }
    ],
    "contextNotes": [],
    "links": {
      "children": []
    },
    "tag": "totalDefense",
    "flags": {
      "boolean": [],
      "dictionary": []
    },
    "scriptCalls": [],
    "level": "",
    "duration": {
      "value": "1",
      "units": "round"
    }
  },
  "ownership": {
    "default": 0
  },
  "_stats": {
    "systemId": "pf1",
    "systemVersion": "0.82.1",
    "coreVersion": "10.285",
    "createdTime": 1663018729289,
    "modifiedTime": 1663018729406,
    "lastModifiedBy": "DbeAbHwpEqczKjsD"
  }
}
