{
  "_id": "b9v7qh4c7hmcjtfv",
  "name": "Crafter's Nightmare",
  "type": "spell",
  "img": "systems/pf1/icons/misc/magic-swirl.png",
  "effects": [],
  "folder": null,
  "sort": 0,
  "flags": {},
  "system": {
    "tags": [],
    "actions": [
      {
        "_id": "bn5675iiqbwcvjmj",
        "name": "Use",
        "img": "systems/pf1/icons/misc/magic-swirl.png",
        "description": "",
        "tag": "",
        "activation": {
          "cost": 1,
          "type": "standard"
        },
        "unchainedAction": {
          "activation": {
            "cost": 2,
            "type": "action"
          }
        },
        "duration": {
          "value": "1 day/level (D)",
          "units": ""
        },
        "target": {
          "value": ""
        },
        "range": {
          "value": null,
          "units": "close",
          "maxIncrements": 1,
          "minValue": null,
          "minUnits": ""
        },
        "uses": {
          "autoDeductCharges": true,
          "autoDeductChargesCost": "1",
          "self": {
            "value": 0,
            "maxFormula": "",
            "per": null
          },
          "per": "",
          "value": 0,
          "maxFormula": ""
        },
        "measureTemplate": {
          "type": "",
          "size": "0",
          "overrideColor": false,
          "customColor": "",
          "overrideTexture": false,
          "customTexture": ""
        },
        "attackName": "",
        "actionType": "spellsave",
        "attackBonus": "",
        "critConfirmBonus": "",
        "damage": {
          "parts": [],
          "critParts": [],
          "nonCritParts": []
        },
        "attackParts": [],
        "formulaicAttacks": {
          "count": {
            "formula": ""
          },
          "bonus": {
            "formula": ""
          },
          "label": null
        },
        "formula": "",
        "ability": {
          "attack": "",
          "damage": "",
          "damageMult": 1,
          "critRange": 20,
          "critMult": 2
        },
        "save": {
          "dc": "0",
          "type": "will",
          "description": "Will negates"
        },
        "effectNotes": [],
        "attackNotes": [],
        "soundEffect": "",
        "powerAttack": {
          "multiplier": "",
          "damageBonus": 2,
          "critMultiplier": 1
        },
        "naturalAttack": {
          "primaryAttack": true,
          "secondary": {
            "attackBonus": "-5",
            "damageMult": 0.5
          }
        },
        "nonlethal": false,
        "usesAmmo": false,
        "spellEffect": "",
        "spellArea": "one 5-ft. cube/level (S)",
        "conditionals": [],
        "enh": {
          "value": null
        }
      }
    ],
    "uses": {
      "per": ""
    },
    "attackNotes": [],
    "effectNotes": [],
    "links": {
      "children": []
    },
    "flags": {
      "boolean": [],
      "dictionary": []
    },
    "scriptCalls": [],
    "learnedAt": {
      "class": [
        ["sorcerer/wizard", 2],
        ["druid", 2],
        ["bard", 2],
        ["witch", 2],
        ["psychic", 2],
        ["medium", 1],
        ["mesmerist", 2],
        ["occultist", 2],
        ["spiritualist", 2],
        ["hunter", 2]
      ],
      "domain": [],
      "subDomain": [],
      "elementalSchool": [],
      "bloodline": []
    },
    "level": 2,
    "school": "nec",
    "subschool": "haunted",
    "types": "emotion, fear, mind-affecting",
    "components": {
      "verbal": true,
      "somatic": true,
      "material": true
    },
    "materials": {
      "value": "a broken tool"
    },
    "shortDescription": "<p>You concentrate feelings of competitiveness, envy, and ill will into a poltergeist-like haunt that wreaks havoc on its victim's long-term endeavors. Every time a creature in the affected area attempts a Craft or Profession check to generate income, create an item, or earn capital (<i>Pathfinder RPG Ultimate Campaign</i> 85), any skill check required for crafting or repairing a magic item, or any skill check required for an occult ritual (<i>Pathfinder RPG Occult Adventures</i> 208), the haunt imposes a -5 penalty on the check. If the creature fails its check by 5 or more, the haunt's mischief deals 1d6 points of damage to the creature in addition to any other negative effects from such a failure. If the creature attempts to cast a spell with a casting time of 1 minute or longer, the haunt becomes similarly disruptive, requiring the caster to succeed at a concentration check (DC = 15 + spell level) or lose the spell and take 1d6 points of damage from the mischief. Each time the haunt is disruptive, the spell's haunt-like manifestation occurs during that round.</p>"
  },
  "ownership": {
    "default": 0
  },
  "_stats": {
    "systemId": "pf1",
    "systemVersion": "0.82.1",
    "coreVersion": "10.285",
    "createdTime": 1663018732005,
    "modifiedTime": 1663018744778,
    "lastModifiedBy": "DbeAbHwpEqczKjsD"
  }
}
