{
  "_id": "0sloyg4lliea9rkw",
  "name": "Elemental Bombardment",
  "type": "spell",
  "img": "systems/pf1/icons/misc/magic-swirl.png",
  "effects": [],
  "folder": null,
  "sort": 0,
  "flags": {},
  "system": {
    "tags": [],
    "actions": [
      {
        "_id": "il6a1goi2ci7qsas",
        "name": "Use",
        "img": "systems/pf1/icons/misc/magic-swirl.png",
        "description": "",
        "tag": "",
        "activation": {
          "cost": 1,
          "type": "round"
        },
        "unchainedAction": {
          "activation": {
            "cost": 3,
            "type": "action"
          }
        },
        "duration": {
          "value": "1 round/2 levels (D)",
          "units": ""
        },
        "target": {
          "value": ""
        },
        "range": {
          "value": null,
          "units": "long",
          "maxIncrements": 1,
          "minValue": null,
          "minUnits": ""
        },
        "uses": {
          "autoDeductCharges": true,
          "autoDeductChargesCost": "1",
          "self": {
            "value": 0,
            "maxFormula": "",
            "per": null
          },
          "per": "",
          "value": 0,
          "maxFormula": ""
        },
        "measureTemplate": {
          "type": "",
          "size": "0",
          "overrideColor": false,
          "customColor": "",
          "overrideTexture": false,
          "customTexture": ""
        },
        "attackName": "",
        "actionType": "other",
        "attackBonus": "",
        "critConfirmBonus": "",
        "damage": {
          "parts": [],
          "critParts": [],
          "nonCritParts": []
        },
        "attackParts": [],
        "formulaicAttacks": {
          "count": {
            "formula": ""
          },
          "bonus": {
            "formula": ""
          },
          "label": null
        },
        "formula": "",
        "ability": {
          "attack": "",
          "damage": "",
          "damageMult": 1,
          "critRange": 20,
          "critMult": 2
        },
        "save": {
          "dc": "0",
          "type": "",
          "description": ""
        },
        "effectNotes": [],
        "attackNotes": [],
        "soundEffect": "",
        "powerAttack": {
          "multiplier": "",
          "damageBonus": 2,
          "critMultiplier": 1
        },
        "naturalAttack": {
          "primaryAttack": true,
          "secondary": {
            "attackBonus": "-5",
            "damageMult": 0.5
          }
        },
        "nonlethal": false,
        "usesAmmo": false,
        "spellEffect": "one or more summoned elementals",
        "spellArea": "",
        "conditionals": [],
        "enh": {
          "value": null
        }
      }
    ],
    "uses": {
      "per": ""
    },
    "attackNotes": [],
    "effectNotes": [],
    "links": {
      "children": []
    },
    "flags": {
      "boolean": [],
      "dictionary": []
    },
    "scriptCalls": [],
    "learnedAt": {
      "class": [
        ["sorcerer/wizard", 7],
        ["druid", 7]
      ],
      "domain": [],
      "subDomain": [],
      "elementalSchool": [],
      "bloodline": []
    },
    "level": 7,
    "school": "con",
    "subschool": "summoning",
    "types": "see text",
    "components": {
      "verbal": true,
      "somatic": true
    },
    "sr": false,
    "shortDescription": "<p>You summon elementals from their elemental planes and hurl them onto your enemies with great force. You must have line of effect to a point at least 60 feet above your intended targets and within the spell's range. You can summon one greater elemental, two Huge elementals, four Large elementals, or eight Medium elementals. You aim the elementals at targets within 60 feet of each other, no more than one elemental per target.</p><p>Each elemental can strike only a single target, regardless of its size. When an elemental strikes a target, it makes a single slam attack at its full attack bonus with a +4 circumstance bonus. The elemental deals damage according to the table below. The type and amount of damage dealt varies by the size and type of elemental (see the table). Some elementals inflict an additional special ability upon successfully hitting a target; these additional special abilities are detailed in the elemental's full stat block and are denoted with an asterisk (*). Whether or not it hits, the elemental takes bludgeoning damage according to its size. A summoned elemental acts on the same turn that it lands, starting prone in the nearest available space adjacent to its target.</p><p>You must select one type of elemental to summon when casting this spell (see the table).</p><p>When you use a summoning spell to summon a creature with an elemental subtype, it is a spell of that type.</p>   <table border ='1'><tr><th>Elemental Size</th><th>Damage</th></tr><tr><td>Medium</td><td>6d6</td></tr><tr><td>Large</td><td>8d6</td></tr><tr><td>Huge or larger</td><td>12d6</td></tr></table>   <table border ='1'><tr><th>Elemental Type</th><th>Damage Type</th></tr><tr><td>Air</td><td>Half slashing, half electricity</td></tr><tr><td>Earth</td><td>Bludgeoning and earth mastery*</td></tr><tr><td>Fire</td><td>Fire and burn*</td></tr><tr><td>IceB2</td><td>Half bludgeoning, half cold</td></tr><tr><td>Lightning B2</td><td>Electricity and metal mastery*</td></tr><tr><td>Magma B2</td><td>Half bludgeoning, half fire</td></tr><tr><td>Mud B2</td><td>Bludgeoning and entrap*</td></tr><tr><td>Water</td><td>Bludgeoning and drench*</td></tr></table>   </p>"
  },
  "ownership": {
    "default": 0
  },
  "_stats": {
    "systemId": "pf1",
    "systemVersion": "0.82.1",
    "coreVersion": "10.285",
    "createdTime": 1663018730061,
    "modifiedTime": 1663018744577,
    "lastModifiedBy": "DbeAbHwpEqczKjsD"
  }
}
