{
  "_id": "H6qZ8QjVBWGyucTK",
  "name": "Fey Blight",
  "type": "spell",
  "img": "icons/magic/nature/thorns-hand-glow-green.webp",
  "effects": [],
  "folder": null,
  "sort": 0,
  "flags": {},
  "system": {
    "tags": [],
    "actions": [
      {
        "_id": "reg6v0fl93jh4ztf",
        "name": "Use",
        "img": "icons/magic/nature/thorns-hand-glow-green.webp",
        "description": "",
        "tag": "",
        "activation": {
          "cost": 1,
          "type": "minute"
        },
        "unchainedAction": {
          "activation": {
            "cost": 1,
            "type": ""
          }
        },
        "duration": {
          "value": "see below (D)",
          "units": ""
        },
        "target": {
          "value": "one living non-fey, non-plant creature"
        },
        "range": {
          "value": null,
          "units": "touch",
          "maxIncrements": 1,
          "minValue": null,
          "minUnits": ""
        },
        "uses": {
          "autoDeductCharges": true,
          "autoDeductChargesCost": "1 + @sl",
          "self": {
            "value": 0,
            "maxFormula": "",
            "per": null
          },
          "per": null,
          "value": 0,
          "maxFormula": ""
        },
        "measureTemplate": {
          "type": "",
          "size": "",
          "overrideColor": false,
          "customColor": "",
          "overrideTexture": false,
          "customTexture": ""
        },
        "attackName": "",
        "actionType": "spellsave",
        "attackBonus": "",
        "critConfirmBonus": "",
        "damage": {
          "parts": [],
          "critParts": [],
          "nonCritParts": []
        },
        "attackParts": [],
        "formulaicAttacks": {
          "count": {
            "formula": ""
          },
          "bonus": {
            "formula": ""
          },
          "label": null
        },
        "formula": "",
        "ability": {
          "attack": null,
          "damage": "",
          "damageMult": 1,
          "critRange": 20,
          "critMult": 2
        },
        "save": {
          "dc": "0",
          "type": "will",
          "description": "Will negates (harmless)"
        },
        "effectNotes": [],
        "attackNotes": [],
        "soundEffect": "",
        "powerAttack": {
          "multiplier": "",
          "damageBonus": 2,
          "critMultiplier": 1
        },
        "naturalAttack": {
          "primaryAttack": true,
          "secondary": {
            "attackBonus": "-5",
            "damageMult": 0.5
          }
        },
        "nonlethal": false,
        "usesAmmo": false,
        "spellEffect": "",
        "spellArea": "",
        "conditionals": [],
        "enh": {
          "value": null
        }
      }
    ],
    "attackNotes": [],
    "effectNotes": [],
    "links": {
      "children": []
    },
    "scriptCalls": [],
    "learnedAt": {
      "class": [],
      "domain": [],
      "subDomain": [],
      "elementalSchool": [],
      "bloodline": []
    },
    "school": "trs",
    "types": "curse, ruse",
    "components": {
      "verbal": true
    },
    "spellbook": "",
    "shortDescription": "<p><span id=\"ctl00_MainContent_DataListTypes_ctl00_LabelName\">The target is cursed, gaining the bane of the caster&rsquo;s fey race (see below). A creature that succeeds at its saving throw is immune to further castings of <em>fey blight</em> from the same type of fey for 24 hours. <em>Fey blight</em> cannot be dispelled, but effects that remove curses function against it.</span></p>\n<p><span id=\"ctl00_MainContent_DataListTypes_ctl00_LabelName\">Attempts to identify <em>fey blight</em> with a skill check incorrectly identify it as <em>fey boon</em>.</span></p>\n<p><span id=\"ctl00_MainContent_DataListTypes_ctl00_LabelName\"></span></p>\n<h2 class=\"title\">Atomie</h2>\n<p>Among the smallest fey, atomies are nevertheless obsessed with martial deeds. They often follow adventuring parties traveling through their lands, listening in on campfire tales and occasionally challenging proud warriors to duels. A warrior who claims victory with honor (while enduring the little fey&rsquo;s attempts to even the odds) might earn the atomie&rsquo;s boon. In other cases, a storyteller who enraptures the atomie with tales of glory might be granted this gift, especially if she strokes the little warrior&rsquo;s ego in the process.</p>\n<p><span id=\"ctl00_MainContent_DataListTypes_ctl00_LabelName\">Atomies liberally use their bane in order to gain an edge in their duels or to hinder attackers. Fortunately for their targets, the curse is as short-lived as the atomie&rsquo;s attention span.<br /></span></p>\n<p><span id=\"ctl00_MainContent_DataListTypes_ctl00_LabelName\"><strong>Bane</strong>: You treat any weapon you wield as though it were sized for a wielder one size category smaller than you. This reduces the weapon&rsquo;s damage die type appropriately and causes you to take a &ndash;2 penalty on attack rolls. The weapon&rsquo;s actual size and amount of effort required to use it (light, one-handed, or two-handed) do not change. This bane has a duration of 24 hours. </span></p>\n<p><span id=\"ctl00_MainContent_DataListTypes_ctl00_LabelName\"></span></p>\n<h2 class=\"title\">Dryad</h2>\n<p>When a dryad&rsquo;s tree comes under threat from lumberhungry settlements or bands of evil humanoids, the treebound fey might seek aid from kindly heroes. A dryad might offer her boon as an incentive, as it allows these protectors to retreat to her side to regroup if necessary. Even when no threat is present, a dryad might become infatuated with a comely humanoid who stumbles upon her isolated grove, granting her boon to her lover so that they can reunite with ease.</p>\n<p><span id=\"ctl00_MainContent_DataListTypes_ctl00_LabelName\">The fastest way to rouse a dryad&rsquo;s anger is to threaten her tree or the trees of her forest (although some dryads permit limited woodcutting of nearby trees, if performed respectfully), yet the good-hearted fey rarely curse those who are not obviously malicious. On occasion, those transformed into trees by the dryad&rsquo;s bane are reborn as dryads themselves; such fey combine most of their former skills with a dryad&rsquo;s heart, making them fierce protectors of their tree&rsquo;s domain.</span><span id=\"ctl00_MainContent_DataListTypes_ctl00_LabelName\"></span><span id=\"ctl00_MainContent_DataListTypes_ctl00_LabelName\"></span><span id=\"ctl00_MainContent_DataListTypes_ctl00_LabelName\"></span><span id=\"ctl00_MainContent_DataListTypes_ctl00_LabelName\"></span><span id=\"ctl00_MainContent_DataListTypes_ctl00_LabelName\"></span><span id=\"ctl00_MainContent_DataListTypes_ctl00_LabelName\"></span><span id=\"ctl00_MainContent_DataListTypes_ctl00_LabelName\"></span></p>\n<p><span id=\"ctl00_MainContent_DataListTypes_ctl00_LabelName\"><strong>Bane</strong>: You take 1d2 points of Dexterity drain each morning as your flesh slowly transforms into wood. If this bane is removed, all Dexterity drain you have accumulated from this bane immediately disappears. If this bane reduces your Dexterity score to 0, you transform into a full-grown, mundane oak tree, taking root in your present location and potentially damaging structures or floors in the process. This bane is permanent.</span></p>\n<h2>Huldra</h2>\n<p><span id=\"ctl00_MainContent_DataListTypes_ctl00_LabelName\">Fox-tailed huldras are wild and impulsive, but their boon is not lightly granted. Aiding a huldra against hostile foes might earn her favor, but opportunities to do so are uncommon; the deceptively strong fey are no damsels in distress. An amorous huldra might offer her boon to her lover while her passions are high, but woe betide the paramour who behaves as though entitled to her gifts. More thoughtful huldras, aware of the transformation their boon causes and their own shyness regarding their tails, consult with potential recipients before granting a boon; most, though, grant it without a second thought.</span></p>\n<p><span id=\"ctl00_MainContent_DataListTypes_ctl00_LabelName\">The easiest way to anger a huldra is to draw attention to her tail or mention her race&rsquo;s rumored links to trollkind&mdash;most huldras consider their bane perfect for punishing such impropriety. Huldras are capricious, however, and a heartfelt apology might persuade a huldra to undo her fey curse. A huldra resents attempts made to constrain her travels, and may bestow her bane upon any who impinge upon her inviolable right to wander the land. Huldras rarely curse foes during combat, save as a final act of vengeance when the battle is lost.</span></p>\n<p><span id=\"ctl00_MainContent_DataListTypes_ctl00_LabelName\"><strong>Bane</strong>: Your body warps into a troll-like appearance, becoming rangy, potbellied, and profoundly ugly. At the same time, your personality becomes oafish and dull. Your Charisma score is reduced by an amount equal to the bane&rsquo;s caster level (to a minimum of 6). This bane is permanent.</span></p>\n<h2>Lampad</h2>\n<p><span id=\"ctl00_MainContent_DataListTypes_ctl00_LabelName\">Due to their sullen, moody demeanors and their general perception of surface races as greed-driven strip miners, lampads rarely grant their gifts to others. A lampad&rsquo;s boon is most often granted to those miners who graciously ask the cave-maid&rsquo;s permission to mine the earth, and who further promise to honor the stone by leaving carvings and artful designs in exchange for its bounty of jewels and metal. Additionally, those who defend the sanctity of the lampad&rsquo;s caves might earn her boon. In any case, though, demanding a reward from the lampad elicits only a sulky refusal.</span></p>\n<p><span id=\"ctl00_MainContent_DataListTypes_ctl00_LabelName\">A lampad does not hesitate to use her bane in combat against those undeterred by her insane beauty or supernatural weeping. Those who flagrantly disrespect the cave-maid or her home might suffer her curse as well. Lampads rarely inflict their bane upon otherwise innocent miners or adventurers, but the fickle fey have little patience for those who insist on outstaying their welcome. When a lampad has acted hastily in cursing an interloper due to some misunderstanding, she can be convinced to revoke her bane, although respect and diplomacy are key.</span></p>\n<p><span id=\"ctl00_MainContent_DataListTypes_ctl00_LabelName\"><strong>Bane</strong>: You constantly weep streams of thick tears, impairing your vision. You treat all other creatures as if they had concealment, and spells you cast that require line of sight have a 20% spell failure chance. This bane is permanent.</span></p>\n<h2>Leprechaun</h2>\n<p><span id=\"ctl00_MainContent_DataListTypes_ctl00_LabelName\">Leprechauns love mischief in all its forms. A leprechaun who crosses paths with a fellow trickster may grant his boon, hoping to spread mischief without having to do the legwork or put his own neck on the line. In such cases, the leprechaun often follows the boon&rsquo;s recipient invisibly for a time, hoping for a demonstration of tomfoolery; failure to provide a good show might force the leprechaun to make his own fun at the recipient&rsquo;s expense. While rumor suggests that capturing a leprechaun might earn its boon, the fey is more likely to secretly curse his captor instead.</span></p>\n<p><span id=\"ctl00_MainContent_DataListTypes_ctl00_LabelName\">Much like atomies, leprechauns make liberal use of their bane to embarrass or frustrate their targets. A leprechaun might even offer a &ldquo;solution&rdquo; to remove the curse it inflicted, usually something embarrassing, such as bathing naked in the town fountain at noon. Of course, the supposed solution does nothing about the curse unless the leprechaun is sufficiently amused to remove it.</span></p>\n<p><span id=\"ctl00_MainContent_DataListTypes_ctl00_LabelName\"><strong>Bane</strong>: Your mundane possessions crumble in times of stress or need. Whenever you roll initiative, you must succeed at a Fortitude save (with a DC equal to the DC of the <em>fey blight</em> spell-like ability) or one of your nonmagical possessions degrades, gaining the broken condition. A broken item affected this way is destroyed. The affected item is chosen by the GM, but the curse tends to affect items that are particularly precious to the victim. All mundane clothing is considered to be a single item for this bane, as are all carried coins. This bane has a duration of 1 week.</span></p>\n<h2>Nereid</h2>\n<p><span id=\"ctl00_MainContent_DataListTypes_ctl00_LabelName\">Sailors and other seafarers prize the favor of a nereid, though nereids are unpredictable creatures and what earns a specific nereid&rsquo;s boon may vary wildly. A lustful nereid might grant her boon to attractive humanoids, encouraging them to keep her company in her watery home. Such lovers must be careful not to anger their fey host, or risk being stripped of this gift at an inopportune time. Performing a great service for the nereid, such as reclaiming her stolen shawl, is likely to earn her favor. While some thieves have stolen a nereid&rsquo;s shawl in hopes of demanding her boon, the cunning fey usually inflicts her bane upon the thief as soon as her shawl is safely back in her possession.</span></p>\n<p><span id=\"ctl00_MainContent_DataListTypes_ctl00_LabelName\">A nereid often uses her bane to complement her beguiling aura, especially against lone foes. The nereid may also curse creatures on a whim, delighting in stupefied fools obeying everything they hear. In cases where an nereid&rsquo;s shawl has fallen into enemy hands, she may attempt to surreptitiously curse whoever has it, hoping to force him to return the precious item.<br /></span></p>\n<p><span id=\"ctl00_MainContent_DataListTypes_ctl00_LabelName\"><strong>Bane</strong>: Whenever someone speaks to you, you must succeed at a Will save (with a DC equal to the DC of the <em>fey blight</em> spell-like ability) or treat their words as a <em>suggestion</em> (as per the spell). This effect only applies if the words could logically be obeyed, at the GM&rsquo;s discretion. This bane is permanent.</span></p>\n<h2>Norn</h2>\n<p><span id=\"ctl00_MainContent_DataListTypes_ctl00_LabelName\">Norns are among the most powerful fey creatures, with potent knowledge of the future and supernatural control over the fate of mortals. As norns are able to peer into futures yet unwoven, the actions to earn their gifts can seem incomprehensible to all but the norns themselves. On rare occasions, a norn appears before heroes or adventurers&mdash;even those that may be lacking in experience or power&mdash;and imparts her boon; often, the recipients then become enmeshed in worldshaking events, driven by the supernatural foresight of the fey gift.</span></p>\n<p><span id=\"ctl00_MainContent_DataListTypes_ctl00_LabelName\">A norn&rsquo;s bane is similarly employed in service of her enigmatic goals. A norn might linger on the edge of a great and portentous battle, imparting her bane to those whose death is decreed by fate, or cursing a leader to ensure that an assassin&rsquo;s blade finds its mark.</span></p>\n<p><span id=\"ctl00_MainContent_DataListTypes_ctl00_LabelName\"><strong>Bane</strong>: The norn exposes the thread of your fate for others to cut. Melee and ranged attacks against you have their critical threat ranges and multipliers increased to 16&ndash;20/&times;3. In addition, you take a &ndash;5 penalty on saving throws against spells. This bane is permanent and much more tenacious than most curses; it can be removed by only a @Compendium[pf1.spells.suel7sgnztenv551]{Miracle} or @Compendium[pf1.spells.nnj51dwfkwd15ngj]{Wish} spell, or by the norn herself.</span></p>\n<h2>Nymph</h2>\n<p>While not bound to locations as literally as dryads, nymphs protect their pure and unspoiled homes to the end. Heroes who defend the nymph&rsquo;s abode&mdash;or any other site of natural beauty&mdash;might earn the nymph&rsquo;s boon. Additionally, nymphs are more willing to interact with mortals than most other fey, and those who perform a great service for a region&rsquo;s reclusive fey might receive a nymph&rsquo;s boon. This boon always enhances the recipient&rsquo;s physical attractiveness in such a way that reflects the nymph&rsquo;s own appearance, such as changes to match the nymph&rsquo;s skin or hair color, enlarged or almondshaped eyes, or pointed ears. This manifestation might be due to the nymph&rsquo;s infusion of her own essence into the recipient, or might simply reflect the fey maiden&rsquo;s intense narcissism.</p>\n<p>Nymphs are easily angered, and consider their bane to be yet another tool for punishing interlopers. A nymph most often inflicts her bane upon those who rudely disrespect her beauty. Nymphs can inadvertently curse their lovers in the throes of passion without realizing that they have done so, leading to rumors that sharing a nymph&rsquo;s bed brings madness.</p>\n<p><strong>Bane</strong>: You are haunted by the nymph&rsquo;s loveliness, before which all other beauty is dross. You no longer benefit from morale bonuses or bardic performances. In addition, memories of the nymph&rsquo;s beauty slowly drive you mad. Once per month, you must succeed at a Will save (with a DC equal to the DC of the <em>fey blight</em> spell-like ability) or take 1d4 points of Wisdom drain. This bane is permanent.</p>\n<h2>Oceanid</h2>\n<p>Vain and unpredictable, oceanids grant their boon most often to those seafarers who honor them as the beautiful queens of the sea that they believe themselves to be. Heroes who dispatch mighty threats to the oceanid&rsquo;s realm, such as aboleths or scrag tribes, might also earn the fey&rsquo;s gift. What is granted can be revoked, however, and the wise recipient remains respectful to the ocean queen lest the fickle oceanid remove her favor.</p>\n<p>Despite their quick tempers, oceanids save their bane only for those who particularly displease them. Directly insulting the oceanid, polluting her home, or refusing to acknowledge her dominion over her realm might provoke an oceanid to inflict her curse. Oceanids travel far and communicate often with sea creatures; a vengeful oceanid might easily track down despoilers and butchers that believe themselves too distant for retribution. Oceanids prefer to curse bards, sea captains, spellcasters, and others who rely on their voices.</p>\n<p><strong>Bane</strong>: Your body becomes extremely withered and dehydrated, and no amount of water can restore you. You are @Compendium[pf1.conditions.I1cKXhfBaFIrL9Ix]{Exhausted} and cannot recover from the exhausted condition while this curse is in effect. In addition, your dry tongue and cracked lips impose a 20% spell failure chance on any spell with verbal components that you attempt to cast. This bane is permanent.</p>\n<h2>Quickling</h2>\n<p>Among the cruelest fey, quicklings rarely grant their boon. The primary exceptions are when coerced by a greater force, such as a more powerful fey or one of Irrisen&rsquo;s winter witches, or when they find someone as bitter and wicked as themselves. A quickling might grant its boon under direct duress, but is more likely to attempt to curse its captor instead. When a quickling grants a boon, the treacherous creature revokes it at the earliest opportunity.</p>\n<p>Given the long-term nature of the quickling&rsquo;s bane, the sadistic fey save it for those targets they do not immediately kill, allowing them to savor the torment they inflict. They are quite fond of cursing children, stealing their youth and thrusting them into adulthood. A quickling with no chance of escape might spitefully curse a foe, relying on the bane to punish its killer even after its death. Under almost no circumstances will a quickling revoke its bane, even under threat of death&mdash; the hateful creatures would rather die than undo the suffering they&rsquo;ve caused.</p>\n<p><strong>Bane</strong>: The quickling&rsquo;s bane accelerates your body&rsquo;s aging, causing you to physically age 1 year for every week that passes. Although your physical ability scores are reduced as normal for your body&rsquo;s age, your mental ability scores do not improve. This bane is permanent; even if removed, any aging that occurred while this bane was in effect can be undone by only @Compendium[pf1.spells.igmb8lisqcnsxd2d]{Restoration, Greater}, @Compendium[pf1.spells.suel7sgnztenv551]{Miracle}, or @Compendium[pf1.spells.nnj51dwfkwd15ngj]{Wish}.</p>\n<h2>Satyr</h2>\n<p>The easiest way to court a satyr&rsquo;s favor is to join in his revels, whether wild hedonism or open-minded enjoyment of new experiences. A satyr most often grants his boon to those who entertain the satyr in novel and exciting ways, whether by talented artistic performances, bold tales, or&mdash;of course&mdash;lusty demonstrations. Satyrs love freedom for themselves and others and might grant their boon to champions of liberty.</p>\n<p>Although satyrs are famously ardent in their attempts to persuade others to join their revelry, the vast majority of satyrs will respect refusal&mdash;although they are hardly shy about their disappointment. However, merely rejecting a satyr&rsquo;s advances is usually insufficient to earn his bane; a satyr instead inflicts his bane on those who are particularly cruel or prideful in how they reject his advances or company. In addition, threatening a female fey provokes the wrath of any satyr who learns of such deeds.</p>\n<p><strong>Bane</strong>: Your mindset becomes coarse and brutish, and your Intelligence, Wisdom, and Charisma scores are reduced by 2 each (to a minimum of 3). In addition, whenever presented with the opportunity to indulge in hedonistic pleasures such as revelry, food and drink, or sexual pleasure, you must succeed at a Will save (with a DC equal to the DC of the <em>fey blight</em> spell-like ability) or be compelled to ecstatically indulge yourself to the fullest. This bane is permanent.</p>\n<p>&nbsp;</p>"
  },
  "ownership": {
    "default": 0
  },
  "_stats": {
    "systemId": "pf1",
    "systemVersion": "0.82.1",
    "coreVersion": "10.285",
    "createdTime": 1663018731886,
    "modifiedTime": 1663018744763,
    "lastModifiedBy": "DbeAbHwpEqczKjsD"
  }
}
