{
  "_id": "vi5fko8sb8mxlk0i",
  "name": "Fire Trap",
  "type": "spell",
  "img": "systems/pf1/icons/misc/magic-swirl.png",
  "effects": [],
  "folder": null,
  "sort": 0,
  "flags": {},
  "system": {
    "tags": [],
    "actions": [
      {
        "_id": "4wd7r13wsmz40y23",
        "name": "Use",
        "img": "systems/pf1/icons/misc/magic-swirl.png",
        "description": "",
        "tag": "",
        "activation": {
          "cost": 10,
          "type": "minute"
        },
        "unchainedAction": {
          "activation": {
            "cost": 10,
            "type": "minute"
          }
        },
        "duration": {
          "value": "permanent until discharged (D)",
          "units": ""
        },
        "target": {
          "value": "object touched"
        },
        "range": {
          "value": null,
          "units": "touch",
          "maxIncrements": 1,
          "minValue": null,
          "minUnits": ""
        },
        "uses": {
          "autoDeductCharges": true,
          "autoDeductChargesCost": "1",
          "self": {
            "value": 0,
            "maxFormula": "",
            "per": null
          },
          "per": "",
          "value": 0,
          "maxFormula": ""
        },
        "measureTemplate": {
          "type": "",
          "size": "0",
          "overrideColor": false,
          "customColor": "",
          "overrideTexture": false,
          "customTexture": ""
        },
        "attackName": "",
        "actionType": "spellsave",
        "attackBonus": "",
        "critConfirmBonus": "",
        "damage": {
          "parts": [],
          "critParts": [],
          "nonCritParts": []
        },
        "attackParts": [],
        "formulaicAttacks": {
          "count": {
            "formula": ""
          },
          "bonus": {
            "formula": ""
          },
          "label": null
        },
        "formula": "",
        "ability": {
          "attack": "",
          "damage": "",
          "damageMult": 1,
          "critRange": 20,
          "critMult": 2
        },
        "save": {
          "dc": "0",
          "type": "ref",
          "description": "Reflex half; see text"
        },
        "effectNotes": [],
        "attackNotes": [],
        "soundEffect": "",
        "powerAttack": {
          "multiplier": "",
          "damageBonus": 2,
          "critMultiplier": 1
        },
        "naturalAttack": {
          "primaryAttack": true,
          "secondary": {
            "attackBonus": "-5",
            "damageMult": 0.5
          }
        },
        "nonlethal": false,
        "usesAmmo": false,
        "spellEffect": "",
        "spellArea": "",
        "conditionals": [],
        "enh": {
          "value": null
        }
      }
    ],
    "uses": {
      "per": ""
    },
    "attackNotes": [],
    "effectNotes": [],
    "links": {
      "children": []
    },
    "flags": {
      "boolean": [],
      "dictionary": []
    },
    "scriptCalls": [],
    "learnedAt": {
      "class": [
        ["sorcerer/wizard", 4],
        ["druid", 2],
        ["occultist", 4],
        ["hunter", 2]
      ],
      "domain": [],
      "subDomain": [],
      "elementalSchool": [],
      "bloodline": []
    },
    "level": 4,
    "school": "abj",
    "types": "fire",
    "components": {
      "verbal": true,
      "somatic": true,
      "material": true
    },
    "materials": {
      "value": "gold dust worth 25 gp",
      "gpValue": 25
    },
    "spellbook": "",
    "preparation": {
      "autoDeductCharges": false,
      "spontaneousPrepared": false
    },
    "shortDescription": "<p><i>Fire trap</i> creates a fiery explosion when an intruder opens the item that the trap protects. A <i>fire trap</i> spell can ward any object that can be opened and closed.</p><p>When casting <i>fire trap</i>, you select a point on the object as the spell's center. When someone other than you opens the object, a fiery explosion fills the area within a 5-foot radius around the spell's center. The flames deal 1d4 points of fire damage + 1 point per caster level (maximum +20). The item protected by the trap is not harmed by this explosion.</p><p>A fire-trapped item cannot have a second closure or warding spell placed on it. A <i>knock</i> spell does not bypass a <i>fire trap</i>. An unsuccessful <i>dispel magic</i> spell does not detonate the spell.</p><p>Underwater, this ward deals half damage and creates a large cloud of steam.</p><p>You can use the fire-trapped object without discharging it, as can any individual to whom the object was specifically attuned when cast. Attuning a fire-trapped object to an individual usually involves setting a password that you can share with friends.</p><p>Magic traps such as <i>fire trap</i> are hard to detect and disable. A character with trapfinding can use the Perception skill to find a <i>fire trap</i> and Disable Device to thwart it. The DC in each case is 25 + spell level (DC 27 for a druid's <i>fire trap</i> or DC 29 for the arcane version).</p>"
  },
  "ownership": {
    "default": 0
  },
  "_stats": {
    "systemId": "pf1",
    "systemVersion": "0.82.1",
    "coreVersion": "10.285",
    "createdTime": 1663018735821,
    "modifiedTime": 1663018744981,
    "lastModifiedBy": "DbeAbHwpEqczKjsD"
  }
}
