{
  "_id": "w1tz4pfp8xi50n9w",
  "name": "Flesh Puppet Horde",
  "type": "spell",
  "img": "systems/pf1/icons/misc/magic-swirl.png",
  "effects": [],
  "folder": null,
  "sort": 0,
  "flags": {},
  "system": {
    "tags": [],
    "actions": [
      {
        "_id": "k63kkcj1xrqsgf3c",
        "name": "Use",
        "img": "systems/pf1/icons/misc/magic-swirl.png",
        "description": "",
        "tag": "",
        "activation": {
          "cost": 10,
          "type": "minute"
        },
        "unchainedAction": {
          "activation": {
            "cost": 10,
            "type": "minute"
          }
        },
        "duration": {
          "value": "permanent (D)",
          "units": ""
        },
        "target": {
          "value": "one or more corpses touched"
        },
        "range": {
          "value": null,
          "units": "touch",
          "maxIncrements": 1,
          "minValue": null,
          "minUnits": ""
        },
        "uses": {
          "autoDeductCharges": true,
          "autoDeductChargesCost": "1",
          "self": {
            "value": 0,
            "maxFormula": "",
            "per": null
          },
          "per": "",
          "value": 0,
          "maxFormula": ""
        },
        "measureTemplate": {
          "type": "",
          "size": "0",
          "overrideColor": false,
          "customColor": "",
          "overrideTexture": false,
          "customTexture": ""
        },
        "attackName": "",
        "actionType": "",
        "attackBonus": "",
        "critConfirmBonus": "",
        "damage": {
          "parts": [],
          "critParts": [],
          "nonCritParts": []
        },
        "attackParts": [],
        "formulaicAttacks": {
          "count": {
            "formula": ""
          },
          "bonus": {
            "formula": ""
          },
          "label": null
        },
        "formula": "",
        "ability": {
          "attack": "",
          "damage": "",
          "damageMult": 1,
          "critRange": 20,
          "critMult": 2
        },
        "save": {
          "dc": "0",
          "type": "",
          "description": ""
        },
        "effectNotes": [],
        "attackNotes": [],
        "soundEffect": "",
        "powerAttack": {
          "multiplier": "",
          "damageBonus": 2,
          "critMultiplier": 1
        },
        "naturalAttack": {
          "primaryAttack": true,
          "secondary": {
            "attackBonus": "-5",
            "damageMult": 0.5
          }
        },
        "nonlethal": false,
        "usesAmmo": false,
        "spellEffect": "",
        "spellArea": "",
        "conditionals": [],
        "enh": {
          "value": null
        }
      }
    ],
    "uses": {
      "per": ""
    },
    "attackNotes": [],
    "effectNotes": [],
    "links": {
      "children": []
    },
    "flags": {
      "boolean": [],
      "dictionary": []
    },
    "scriptCalls": [],
    "learnedAt": {
      "class": [
        ["sorcerer/wizard", 5],
        ["cleric/oracle", 4],
        ["witch", 5],
        ["antipaladin", 3],
        ["shaman", 4],
        ["occultist", 4],
        ["spiritualist", 4]
      ],
      "domain": [],
      "subDomain": [],
      "elementalSchool": [],
      "bloodline": []
    },
    "level": 5,
    "school": "nec",
    "types": "evil",
    "components": {
      "verbal": true,
      "somatic": true,
      "material": true
    },
    "materials": {
      "value": "an onyx worth 50 gp for each zombie and a silken string"
    },
    "sr": false,
    "shortDescription": "<p>This spell functions as <i>flesh puppet</i>, but can animate multiple zombies. As noted in <i>animate dead</i>, you can't control more than 4 HD per caster level worth of undead in total, nor can a single casting create more than 2 HD per caster level. A separate string attaches to each zombie in your horde. Severing a zombie's string reverts that zombie to a corpse, but doesn't end the spell for other zombies. Because commanding a <i>flesh puppet</i> requires a swift action, you can issue commands to only one zombie per round, though zombies you previously commanded continue to follow their orders. Likewise, you can command only one zombie to speak per round.  Unlike with <i>flesh puppet</i>, you can command a zombie to attack. If you do, all your zombies immediately gain the staggered quality and no longer appear to be alive.  This spell ends automatically if you cast <i>flesh puppet</i> or <i>flesh puppet</i> horde on a new corpse.</p>"
  },
  "ownership": {
    "default": 0
  },
  "_stats": {
    "systemId": "pf1",
    "systemVersion": "0.82.1",
    "coreVersion": "10.285",
    "createdTime": 1663018735863,
    "modifiedTime": 1663018744985,
    "lastModifiedBy": "DbeAbHwpEqczKjsD"
  }
}
