{
  "_id": "h4nlrm44ubsyzuhz",
  "name": "Fluid Form",
  "type": "spell",
  "img": "systems/pf1/icons/misc/magic-swirl.png",
  "effects": [],
  "folder": null,
  "sort": 0,
  "flags": {},
  "system": {
    "tags": [],
    "actions": [
      {
        "_id": "ireoo9err9ht823p",
        "name": "Use",
        "img": "systems/pf1/icons/misc/magic-swirl.png",
        "description": "",
        "tag": "",
        "activation": {
          "cost": 1,
          "type": "standard"
        },
        "unchainedAction": {
          "activation": {
            "cost": 2,
            "type": "action"
          }
        },
        "duration": {
          "value": "1 minute/level",
          "units": ""
        },
        "target": {
          "value": "you"
        },
        "range": {
          "value": null,
          "units": "personal",
          "maxIncrements": 1,
          "minValue": null,
          "minUnits": ""
        },
        "uses": {
          "autoDeductCharges": true,
          "autoDeductChargesCost": "1",
          "self": {
            "value": 0,
            "maxFormula": "",
            "per": null
          },
          "per": "",
          "value": 0,
          "maxFormula": ""
        },
        "measureTemplate": {
          "type": "",
          "size": "0",
          "overrideColor": false,
          "customColor": "",
          "overrideTexture": false,
          "customTexture": ""
        },
        "attackName": "",
        "actionType": "",
        "attackBonus": "",
        "critConfirmBonus": "",
        "damage": {
          "parts": [],
          "critParts": [],
          "nonCritParts": []
        },
        "attackParts": [],
        "formulaicAttacks": {
          "count": {
            "formula": ""
          },
          "bonus": {
            "formula": ""
          },
          "label": null
        },
        "formula": "",
        "ability": {
          "attack": "",
          "damage": "",
          "damageMult": 1,
          "critRange": 20,
          "critMult": 2
        },
        "save": {
          "dc": "0",
          "type": "",
          "description": ""
        },
        "effectNotes": [],
        "attackNotes": [],
        "soundEffect": "",
        "powerAttack": {
          "multiplier": "",
          "damageBonus": 2,
          "critMultiplier": 1
        },
        "naturalAttack": {
          "primaryAttack": true,
          "secondary": {
            "attackBonus": "-5",
            "damageMult": 0.5
          }
        },
        "nonlethal": false,
        "usesAmmo": false,
        "spellEffect": "",
        "spellArea": "",
        "conditionals": [],
        "enh": {
          "value": null
        }
      }
    ],
    "uses": {
      "per": ""
    },
    "attackNotes": [],
    "effectNotes": [],
    "links": {
      "children": []
    },
    "flags": {
      "boolean": [],
      "dictionary": []
    },
    "scriptCalls": [],
    "learnedAt": {
      "class": [
        ["sorcerer/wizard", 6],
        ["alchemist", 4],
        ["psychic", 6]
      ],
      "domain": [],
      "subDomain": [
        ["Flowing", 6],
        ["Rivers", 6]
      ],
      "elementalSchool": [],
      "bloodline": [["Nanite", 6]]
    },
    "level": 6,
    "school": "trs",
    "types": "water",
    "components": {
      "somatic": true,
      "material": true
    },
    "materials": {
      "value": "a mixture of oil and water"
    },
    "sr": false,
    "shortDescription": "<p>When you cast this spell, your body takes on a slick, oily appearance. For the duration of this spell, your form can stretch and shift with ease and becomes slightly transparent, as if you were composed of liquid. This transparency is not enough to grant concealment. You gain DR 10/slashing and your reach increases by 10 feet. In addition, you can pass through small holes or narrow openings, even mere cracks, with anything you were carrying at the time the spell was cast (except other creatures). Finally, you can move through water with a swim speed of 60 feet and can breathe both water and air for the duration of this effect. You are treated as if you had the water subtype while this spell is in effect.</p>"
  },
  "ownership": {
    "default": 0
  },
  "_stats": {
    "systemId": "pf1",
    "systemVersion": "0.82.1",
    "coreVersion": "10.285",
    "createdTime": 1663018733091,
    "modifiedTime": 1663018744835,
    "lastModifiedBy": "DbeAbHwpEqczKjsD"
  }
}
