{
  "_id": "5h7qpvgnqof7oku7",
  "name": "Forcecage",
  "type": "spell",
  "img": "systems/pf1/icons/misc/magic-swirl.png",
  "effects": [],
  "folder": null,
  "sort": 0,
  "flags": {},
  "system": {
    "tags": [],
    "actions": [
      {
        "_id": "2u7un8r7i3m4kxag",
        "name": "Use",
        "img": "systems/pf1/icons/misc/magic-swirl.png",
        "description": "",
        "tag": "",
        "activation": {
          "cost": 1,
          "type": "standard"
        },
        "unchainedAction": {
          "activation": {
            "cost": 2,
            "type": "action"
          }
        },
        "duration": {
          "value": "1 round/level",
          "units": ""
        },
        "target": {
          "value": ""
        },
        "range": {
          "value": null,
          "units": "close",
          "maxIncrements": 1,
          "minValue": null,
          "minUnits": ""
        },
        "uses": {
          "autoDeductCharges": true,
          "autoDeductChargesCost": "1",
          "self": {
            "value": 0,
            "maxFormula": "",
            "per": null
          },
          "per": "",
          "value": 0,
          "maxFormula": ""
        },
        "measureTemplate": {
          "type": "",
          "size": "0",
          "overrideColor": false,
          "customColor": "",
          "overrideTexture": false,
          "customTexture": ""
        },
        "attackName": "",
        "actionType": "spellsave",
        "attackBonus": "",
        "critConfirmBonus": "",
        "damage": {
          "parts": [],
          "critParts": [],
          "nonCritParts": []
        },
        "attackParts": [],
        "formulaicAttacks": {
          "count": {
            "formula": ""
          },
          "bonus": {
            "formula": ""
          },
          "label": null
        },
        "formula": "",
        "ability": {
          "attack": "",
          "damage": "",
          "damageMult": 1,
          "critRange": 20,
          "critMult": 2
        },
        "save": {
          "dc": "0",
          "type": "ref",
          "description": "Reflex negates"
        },
        "effectNotes": [],
        "attackNotes": [],
        "soundEffect": "",
        "powerAttack": {
          "multiplier": "",
          "damageBonus": 2,
          "critMultiplier": 1
        },
        "naturalAttack": {
          "primaryAttack": true,
          "secondary": {
            "attackBonus": "-5",
            "damageMult": 0.5
          }
        },
        "nonlethal": false,
        "usesAmmo": false,
        "spellEffect": "",
        "spellArea": "barred cage (20-ft. cube) or windowless cell (10-ft. cube)",
        "conditionals": [],
        "enh": {
          "value": null
        }
      }
    ],
    "uses": {
      "per": ""
    },
    "attackNotes": [],
    "effectNotes": [],
    "links": {
      "children": []
    },
    "flags": {
      "boolean": [],
      "dictionary": []
    },
    "scriptCalls": [],
    "learnedAt": {
      "class": [
        ["sorcerer/wizard", 7],
        ["psychic", 7]
      ],
      "domain": [],
      "subDomain": [],
      "elementalSchool": [],
      "bloodline": []
    },
    "level": 7,
    "school": "evo",
    "types": "force",
    "components": {
      "verbal": true,
      "somatic": true,
      "material": true
    },
    "materials": {
      "value": "ruby dust worth 500 gp",
      "gpValue": 500
    },
    "spellbook": "",
    "preparation": {
      "autoDeductCharges": false,
      "spontaneousPrepared": false
    },
    "sr": false,
    "shortDescription": "<p>This spell creates an immobile, invisible cubical prison composed of either bars of force or solid walls of force (your choice).</p><p>Creatures within the area are caught and contained unless they are too big to fit inside, in which case the spell automatically fails.</p><p>Teleportation and other forms of astral travel provide a means of escape, but the force walls or bars extend into the Ethereal Plane, blocking ethereal travel.</p><p>Like a <i>Wall of Force</i>, a <i>forcecage</i> resists <i>dispel magic,</i> although a mage's disjunction still functions. The walls of a <i>forcecage</i> can be damaged by spells as normal, except for <i>disintegrate,</i> which automatically destroys it. The walls of a <i>forcecage</i> can be damaged by weapons and supernatural abilities, but they have a Hardness of 30 and a number of hit points equal to 20 per caster level. Contact with a <i>sphere of annihilation</i> or <i>rod of cancellation</i> instantly destroys a <i>forcecage</i>.</p><p>Barred Cage: This version of the spell produces a 20-foot cube made of bands of force (similar to a <i>Wall of Force</i> spell) for bars. The bands are a half-inch wide, with half-inch gaps between them. Any creature capable of passing through such a small space can escape; others are confined within the barred cage. You can't attack a creature in a barred cage with a weapon unless the weapon can fit between the gaps. Even against such weapons (including arrows and similar ranged attacks), a creature in the barred cage has cover. All spells and breath weapons can pass through the gaps in the bars.</p><p><i>Windowless Cell</i>: This version of the spell produces a 10-foot cube with no way in and no way out. Solid walls of force form its six sides.</p>"
  },
  "ownership": {
    "default": 0
  },
  "_stats": {
    "systemId": "pf1",
    "systemVersion": "0.82.1",
    "coreVersion": "10.285",
    "createdTime": 1663018730917,
    "modifiedTime": 1663018744664,
    "lastModifiedBy": "DbeAbHwpEqczKjsD"
  }
}
