{
  "_id": "8z4tlk1fojr9t9yb",
  "name": "Guards and Wards",
  "type": "spell",
  "img": "systems/pf1/icons/misc/magic-swirl.png",
  "effects": [],
  "folder": null,
  "sort": 0,
  "flags": {},
  "system": {
    "tags": [],
    "actions": [
      {
        "_id": "8enbnpw8slqiwe5i",
        "name": "Use",
        "img": "systems/pf1/icons/misc/magic-swirl.png",
        "description": "",
        "tag": "",
        "activation": {
          "cost": 30,
          "type": "minute"
        },
        "unchainedAction": {
          "activation": {
            "cost": 30,
            "type": "minute"
          }
        },
        "duration": {
          "value": "2 hours/level",
          "units": ""
        },
        "target": {
          "value": ""
        },
        "range": {
          "value": null,
          "units": "",
          "maxIncrements": 1,
          "minValue": null,
          "minUnits": ""
        },
        "uses": {
          "autoDeductCharges": true,
          "autoDeductChargesCost": "1",
          "self": {
            "value": 0,
            "maxFormula": "",
            "per": null
          },
          "per": "",
          "value": 0,
          "maxFormula": ""
        },
        "measureTemplate": {
          "type": "",
          "size": "0",
          "overrideColor": false,
          "customColor": "",
          "overrideTexture": false,
          "customTexture": ""
        },
        "attackName": "",
        "actionType": "spellsave",
        "attackBonus": "",
        "critConfirmBonus": "",
        "damage": {
          "parts": [],
          "critParts": [],
          "nonCritParts": []
        },
        "attackParts": [],
        "formulaicAttacks": {
          "count": {
            "formula": ""
          },
          "bonus": {
            "formula": ""
          },
          "label": null
        },
        "formula": "",
        "ability": {
          "attack": "",
          "damage": "",
          "damageMult": 1,
          "critRange": 20,
          "critMult": 2
        },
        "save": {
          "dc": "0",
          "type": "",
          "description": "see text"
        },
        "effectNotes": [],
        "attackNotes": [],
        "soundEffect": "",
        "powerAttack": {
          "multiplier": "",
          "damageBonus": 2,
          "critMultiplier": 1
        },
        "naturalAttack": {
          "primaryAttack": true,
          "secondary": {
            "attackBonus": "-5",
            "damageMult": 0.5
          }
        },
        "nonlethal": false,
        "usesAmmo": false,
        "spellEffect": "",
        "spellArea": "up to 200 sq. ft./level",
        "conditionals": [],
        "enh": {
          "value": null
        }
      }
    ],
    "uses": {
      "per": ""
    },
    "attackNotes": [],
    "effectNotes": [],
    "links": {
      "children": []
    },
    "flags": {
      "boolean": [],
      "dictionary": []
    },
    "scriptCalls": [],
    "learnedAt": {
      "class": [
        ["sorcerer/wizard", 6],
        ["witch", 6]
      ],
      "domain": [],
      "subDomain": [
        ["Home", 7],
        ["Wards", 6],
        ["Greed", 6]
      ],
      "elementalSchool": [],
      "bloodline": [["Kobold", 6]]
    },
    "level": 6,
    "school": "abj",
    "components": {
      "verbal": true,
      "somatic": true,
      "material": true,
      "focus": true
    },
    "materials": {
      "value": "burning incense, a small measure of brimstone and oil, a knotted string, and a small amount of blood",
      "focus": "a small silver rod"
    },
    "sr": false,
    "shortDescription": "<p>This powerful spell is primarily used to defend a stronghold or fortress by creating a number of magical wards and effects. The ward protects 200 square feet per caster level. The warded area can be as much as 20 feet high, and shaped as you desire. You can ward several stories of a stronghold by dividing the area among them; you must be somewhere within the area to be warded to cast the spell. The spell creates the following magical effects within the warded area.</p><p><i>Fog: Fog</i> fills all corridors, obscuring all sight, including darkvision, beyond 5 feet. A creature within 5 feet has concealment (attacks have a 20% miss chance). Creatures farther away have total concealment (50% miss chance, and the attacker cannot use sight to locate the target). Saving Throw: none. Spell Resistance: no.</p><p><i>Arcane Locks</i>: All doors in the warded area are <i>arcane locked.</i></p><p>Saving Throw: none. Spell Resistance: no.</p><p><i>Webs: Webs</i> fill all stairs from top to bottom. These strands are identical with those created by the <i>web</i> spell, except that they regrow in 10 minutes if they are burned or torn away while the <i>guards and wards</i> spell lasts. Saving Throw: Reflex negates; see text for <i>web</i>. Spell Resistance: no.</p><p><i>Confusion:</i> Where there are choices in direction-such as a corridor intersection or side passage-a minor <i>confusion-type</i> effect functions so as to make it 50% probable that intruders believe they are going in the opposite direction from the one they actually chose. This is a mind-affecting effect. Saving Throw: none. Spell Resistance: yes.</p><p><i>Lost Doors</i>: One door per caster level is covered by a <i>silent image</i> to appear as if it were a plain wall. Saving Throw: Will disbelief (if interacted with). Spell Resistance: no.</p><p>In addition, you can place your choice of one of the following five magical effects.</p><p>1. <i>Dancing lights</i> in four corridors. You can designate a simple program that causes the lights to repeat as long as the <i>guards and wards</i> spell lasts. Saving Throw: none. Spell Resistance: no.</p><p>2. A <i>magic mouth</i> in two places. Saving Throw: none. Spell Resistance: no.</p><p>3. A <i>stinking cloud</i> in two places. The vapors appear in the places you designate; they return within 10 minutes if dispersed by wind while the <i>guards and wards</i> spell lasts. Saving Throw: Fortitude negates; see text for <i>stinking cloud</i>. Spell Resistance: no.</p><p>4. A <i>gust of wind in</i> one corridor or room. Saving Throw: Fortitude negates. Spell Resistance: yes.</p><p>5. A <i>suggestion</i> in one place. You select an area of up to 5 feet square, and any creature who enters or passes through the area receives the <i>suggestion</i> mentally. Saving Throw: Will negates.</p><p>Spell Resistance: yes.</p><p>The whole warded area radiates strong magic of the abjuration school. A <i>dispel magic</i> cast on a specific effect, if successful, removes only that effect. A successful mage's disjunction destroys the entire <i>guards and wards</i> effect.</p>"
  },
  "ownership": {
    "default": 0
  },
  "_stats": {
    "systemId": "pf1",
    "systemVersion": "0.82.1",
    "coreVersion": "10.285",
    "createdTime": 1663018731809,
    "modifiedTime": 1663018744756,
    "lastModifiedBy": "DbeAbHwpEqczKjsD"
  }
}
