{
  "_id": "57es4kax66ag4tw7",
  "name": "Naga Shape I",
  "type": "spell",
  "img": "systems/pf1/icons/misc/magic-swirl.png",
  "effects": [],
  "folder": null,
  "sort": 0,
  "flags": {},
  "system": {
    "tags": [],
    "actions": [
      {
        "_id": "c5wseyp51bfuowbk",
        "name": "Use",
        "img": "systems/pf1/icons/misc/magic-swirl.png",
        "description": "",
        "tag": "",
        "activation": {
          "cost": 1,
          "type": "standard"
        },
        "unchainedAction": {
          "activation": {
            "cost": 2,
            "type": "action"
          }
        },
        "duration": {
          "value": "1 minute/level (D)",
          "units": ""
        },
        "target": {
          "value": "you"
        },
        "range": {
          "value": null,
          "units": "personal",
          "maxIncrements": 1,
          "minValue": null,
          "minUnits": ""
        },
        "uses": {
          "autoDeductCharges": true,
          "autoDeductChargesCost": "1",
          "self": {
            "value": 0,
            "maxFormula": "",
            "per": null
          },
          "per": "",
          "value": 0,
          "maxFormula": ""
        },
        "measureTemplate": {
          "type": "",
          "size": "0",
          "overrideColor": false,
          "customColor": "",
          "overrideTexture": false,
          "customTexture": ""
        },
        "attackName": "",
        "actionType": "",
        "attackBonus": "",
        "critConfirmBonus": "",
        "damage": {
          "parts": [],
          "critParts": [],
          "nonCritParts": []
        },
        "attackParts": [],
        "formulaicAttacks": {
          "count": {
            "formula": ""
          },
          "bonus": {
            "formula": ""
          },
          "label": null
        },
        "formula": "",
        "ability": {
          "attack": "",
          "damage": "",
          "damageMult": 1,
          "critRange": 20,
          "critMult": 2
        },
        "save": {
          "dc": "0",
          "type": "",
          "description": ""
        },
        "effectNotes": [],
        "attackNotes": [],
        "soundEffect": "",
        "powerAttack": {
          "multiplier": "",
          "damageBonus": 2,
          "critMultiplier": 1
        },
        "naturalAttack": {
          "primaryAttack": true,
          "secondary": {
            "attackBonus": "-5",
            "damageMult": 0.5
          }
        },
        "nonlethal": false,
        "usesAmmo": false,
        "spellEffect": "",
        "spellArea": "",
        "conditionals": [],
        "enh": {
          "value": null
        }
      }
    ],
    "uses": {
      "per": ""
    },
    "attackNotes": [],
    "effectNotes": [],
    "links": {
      "children": []
    },
    "flags": {
      "boolean": [],
      "dictionary": []
    },
    "scriptCalls": [],
    "learnedAt": {
      "class": [
        ["sorcerer/wizard", 4],
        ["alchemist", 4],
        ["magus", 4],
        ["bloodrager", 4]
      ],
      "domain": [],
      "subDomain": [],
      "elementalSchool": [],
      "bloodline": []
    },
    "level": 4,
    "school": "trs",
    "subschool": "polymorph",
    "components": {
      "verbal": true,
      "somatic": true,
      "material": true
    },
    "materials": {
      "value": "a piece of the creature whose form you want to assume"
    },
    "sr": false,
    "shortDescription": "<p>Whenever you cast this spell, you can assume the form of any type of Large naga (including most nagas, but not royal nagas), though not the form of a specific individual. In effect, you transform into a Large serpent, gaining a +4 size bonus to your Strength, a -2 penalty to your Dexterity, and a +4 natural armor bonus. Unlike with <i>beast shape II</i>, however, you keep your own head when using this spell and can cast spells with verbal and somatic components, even though the naga form doesn't have hands.  If the form you assume has any of the following abilities, you gain the listed ability: climb 60 feet, fly 60 feet (good maneuverability), swim 60 feet, darkvision 60 feet, low-light vision, and scent.</p>"
  },
  "ownership": {
    "default": 0
  },
  "_stats": {
    "systemId": "pf1",
    "systemVersion": "0.82.1",
    "coreVersion": "10.285",
    "createdTime": 1663018730898,
    "modifiedTime": 1663018744658,
    "lastModifiedBy": "DbeAbHwpEqczKjsD"
  }
}
