{
  "_id": "qf4bqjgeff1q4hjt",
  "name": "Planar Binding",
  "type": "spell",
  "img": "systems/pf1/icons/misc/magic-swirl.png",
  "effects": [],
  "folder": null,
  "sort": 0,
  "flags": {},
  "system": {
    "tags": [],
    "actions": [
      {
        "_id": "tv3dwm5murk1jjjz",
        "name": "Use",
        "img": "systems/pf1/icons/misc/magic-swirl.png",
        "description": "",
        "tag": "",
        "activation": {
          "cost": 10,
          "type": "minute"
        },
        "unchainedAction": {
          "activation": {
            "cost": 10,
            "type": "minute"
          }
        },
        "duration": {
          "value": "instantaneous",
          "units": ""
        },
        "target": {
          "value": "up to three elementals or outsiders, totaling no more than 12 HD, no two of which can be more than 30 ft. apart when they appear"
        },
        "range": {
          "value": null,
          "units": "close",
          "maxIncrements": 1,
          "minValue": null,
          "minUnits": ""
        },
        "uses": {
          "autoDeductCharges": true,
          "autoDeductChargesCost": "1",
          "self": {
            "value": 0,
            "maxFormula": "",
            "per": null
          },
          "per": "",
          "value": 0,
          "maxFormula": ""
        },
        "measureTemplate": {
          "type": "",
          "size": "0",
          "overrideColor": false,
          "customColor": "",
          "overrideTexture": false,
          "customTexture": ""
        },
        "attackName": "",
        "actionType": "spellsave",
        "attackBonus": "",
        "critConfirmBonus": "",
        "damage": {
          "parts": [],
          "critParts": [],
          "nonCritParts": []
        },
        "attackParts": [],
        "formulaicAttacks": {
          "count": {
            "formula": ""
          },
          "bonus": {
            "formula": ""
          },
          "label": null
        },
        "formula": "",
        "ability": {
          "attack": "",
          "damage": "",
          "damageMult": 1,
          "critRange": 20,
          "critMult": 2
        },
        "save": {
          "dc": "0",
          "type": "will",
          "description": "Will negates"
        },
        "effectNotes": [],
        "attackNotes": [],
        "soundEffect": "",
        "powerAttack": {
          "multiplier": "",
          "damageBonus": 2,
          "critMultiplier": 1
        },
        "naturalAttack": {
          "primaryAttack": true,
          "secondary": {
            "attackBonus": "-5",
            "damageMult": 0.5
          }
        },
        "nonlethal": false,
        "usesAmmo": false,
        "spellEffect": "",
        "spellArea": "",
        "conditionals": [],
        "enh": {
          "value": null
        }
      }
    ],
    "uses": {
      "per": ""
    },
    "attackNotes": [],
    "effectNotes": [],
    "links": {
      "children": []
    },
    "flags": {
      "boolean": [],
      "dictionary": []
    },
    "scriptCalls": [],
    "learnedAt": {
      "class": [
        ["sorcerer/wizard", 6],
        ["summoner", 5],
        ["psychic", 6],
        ["occultist", 6],
        ["unchained Summoner", 6]
      ],
      "domain": [["Void", 6]],
      "subDomain": [
        ["Daemon", 6],
        ["Demon", 6],
        ["Devil", 6],
        ["Inevitable", 6],
        ["Protean", 6],
        ["Aeon", 6]
      ],
      "elementalSchool": [],
      "bloodline": [
        ["Efreeti", 6],
        ["Infernal", 6]
      ]
    },
    "level": 6,
    "school": "con",
    "subschool": "calling",
    "types": "see text for lesser planar binding",
    "components": {
      "verbal": true,
      "somatic": true
    },
    "spellbook": "",
    "sr": false,
    "shortDescription": "<p>This spell functions like @Compendium[pf1.spells.y4b1zmhmsa0gvf06]{Lesser Planar Binding}, except that you may call a single creature of 12 HD or less, or up to three creatures of the same kind whose Hit Dice total no more than 12. Each creature gets a saving throw, makes an independent attempt to escape, and must be individually persuaded to aid you.</p>"
  },
  "ownership": {
    "default": 0
  },
  "_stats": {
    "systemId": "pf1",
    "systemVersion": "0.82.1",
    "coreVersion": "10.285",
    "createdTime": 1663018734767,
    "modifiedTime": 1663018744927,
    "lastModifiedBy": "DbeAbHwpEqczKjsD"
  }
}
