{
  "_id": "frxwocsreolvb4tk",
  "name": "Probe History",
  "type": "spell",
  "img": "systems/pf1/icons/misc/magic-swirl.png",
  "effects": [],
  "folder": null,
  "sort": 0,
  "flags": {},
  "system": {
    "tags": [],
    "actions": [
      {
        "_id": "3fhwly01n7jvpolg",
        "name": "Use",
        "img": "systems/pf1/icons/misc/magic-swirl.png",
        "description": "",
        "tag": "",
        "activation": {
          "cost": 1,
          "type": "round"
        },
        "unchainedAction": {
          "activation": {
            "cost": 3,
            "type": "action"
          }
        },
        "duration": {
          "value": "instantaneous",
          "units": ""
        },
        "target": {
          "value": "one creature"
        },
        "range": {
          "value": null,
          "units": "close",
          "maxIncrements": 1,
          "minValue": null,
          "minUnits": ""
        },
        "uses": {
          "autoDeductCharges": true,
          "autoDeductChargesCost": "1",
          "self": {
            "value": 0,
            "maxFormula": "",
            "per": null
          },
          "per": "",
          "value": 0,
          "maxFormula": ""
        },
        "measureTemplate": {
          "type": "",
          "size": "0",
          "overrideColor": false,
          "customColor": "",
          "overrideTexture": false,
          "customTexture": ""
        },
        "attackName": "",
        "actionType": "spellsave",
        "attackBonus": "",
        "critConfirmBonus": "",
        "damage": {
          "parts": [],
          "critParts": [],
          "nonCritParts": []
        },
        "attackParts": [],
        "formulaicAttacks": {
          "count": {
            "formula": ""
          },
          "bonus": {
            "formula": ""
          },
          "label": null
        },
        "formula": "",
        "ability": {
          "attack": "",
          "damage": "",
          "damageMult": 1,
          "critRange": 20,
          "critMult": 2
        },
        "save": {
          "dc": "0",
          "type": "will",
          "description": "Will negates"
        },
        "effectNotes": [],
        "attackNotes": [],
        "soundEffect": "",
        "powerAttack": {
          "multiplier": "",
          "damageBonus": 2,
          "critMultiplier": 1
        },
        "naturalAttack": {
          "primaryAttack": true,
          "secondary": {
            "attackBonus": "-5",
            "damageMult": 0.5
          }
        },
        "nonlethal": false,
        "usesAmmo": false,
        "spellEffect": "",
        "spellArea": "",
        "conditionals": [],
        "enh": {
          "value": null
        }
      }
    ],
    "uses": {
      "per": ""
    },
    "attackNotes": [],
    "effectNotes": [],
    "links": {
      "children": []
    },
    "flags": {
      "boolean": [],
      "dictionary": []
    },
    "scriptCalls": [],
    "learnedAt": {
      "class": [
        ["sorcerer/wizard", 4],
        ["cleric/oracle", 4],
        ["bard", 3],
        ["inquisitor", 4],
        ["medium", 2],
        ["mesmerist", 3],
        ["occultist", 3]
      ],
      "domain": [],
      "subDomain": [],
      "elementalSchool": [],
      "bloodline": []
    },
    "level": 4,
    "school": "div",
    "components": {
      "verbal": true,
      "somatic": true,
      "divineFocus": 1
    },
    "shortDescription": "<p>You gain a glimpse of a potential reality similar to this one but that never was. If the target fails her Will save, you can ask about one topic and attempt the appropriate Knowledge check with a +5 competence bonus; track Knowledge checks attempted with this spell separately for the purpose of disallowing retries on Knowledge checks. You learn information on that topic from a reality in which you were an acquaintance of the target, although the differences in that reality might cause the answer to be subtly different than in your own. Once you have probed a target's history, successfully or not, you cannot target the same creature's history or search for the same information in another creature's history.</p>"
  },
  "ownership": {
    "default": 0
  },
  "_stats": {
    "systemId": "pf1",
    "systemVersion": "0.82.1",
    "coreVersion": "10.285",
    "createdTime": 1663018732991,
    "modifiedTime": 1663018744820,
    "lastModifiedBy": "DbeAbHwpEqczKjsD"
  }
}
