{
  "_id": "kikowbnn4h6anegq",
  "name": "Symbol of Strife",
  "type": "spell",
  "img": "systems/pf1/icons/misc/magic-swirl.png",
  "effects": [],
  "folder": null,
  "sort": 0,
  "flags": {},
  "system": {
    "tags": [],
    "actions": [
      {
        "_id": "r3qc2cc2e5lfeoyj",
        "name": "Use",
        "img": "systems/pf1/icons/misc/magic-swirl.png",
        "description": "",
        "tag": "",
        "activation": {
          "cost": 10,
          "type": "minute"
        },
        "unchainedAction": {
          "activation": {
            "cost": 10,
            "type": "minute"
          }
        },
        "duration": {
          "value": "see text",
          "units": ""
        },
        "target": {
          "value": ""
        },
        "range": {
          "value": "0",
          "units": "ft",
          "maxIncrements": 1,
          "minValue": null,
          "minUnits": ""
        },
        "uses": {
          "autoDeductCharges": true,
          "autoDeductChargesCost": "1",
          "self": {
            "value": 0,
            "maxFormula": "",
            "per": null
          },
          "per": "",
          "value": 0,
          "maxFormula": ""
        },
        "measureTemplate": {
          "type": "",
          "size": "0",
          "overrideColor": false,
          "customColor": "",
          "overrideTexture": false,
          "customTexture": ""
        },
        "attackName": "",
        "actionType": "spellsave",
        "attackBonus": "",
        "critConfirmBonus": "",
        "damage": {
          "parts": [],
          "critParts": [],
          "nonCritParts": []
        },
        "attackParts": [],
        "formulaicAttacks": {
          "count": {
            "formula": ""
          },
          "bonus": {
            "formula": ""
          },
          "label": null
        },
        "formula": "",
        "ability": {
          "attack": "",
          "damage": "",
          "damageMult": 1,
          "critRange": 20,
          "critMult": 2
        },
        "save": {
          "dc": "0",
          "type": "will",
          "description": "Will negates"
        },
        "effectNotes": [],
        "attackNotes": [],
        "soundEffect": "",
        "powerAttack": {
          "multiplier": "",
          "damageBonus": 2,
          "critMultiplier": 1
        },
        "naturalAttack": {
          "primaryAttack": true,
          "secondary": {
            "attackBonus": "-5",
            "damageMult": 0.5
          }
        },
        "nonlethal": false,
        "usesAmmo": false,
        "spellEffect": "one symbol",
        "spellArea": "",
        "conditionals": [],
        "enh": {
          "value": null
        }
      }
    ],
    "uses": {
      "per": ""
    },
    "attackNotes": [],
    "effectNotes": [],
    "links": {
      "children": []
    },
    "flags": {
      "boolean": [],
      "dictionary": []
    },
    "scriptCalls": [],
    "learnedAt": {
      "class": [
        ["sorcerer/wizard", 9],
        ["cleric/oracle", 9],
        ["witch", 9],
        ["occultist", 6]
      ],
      "domain": [],
      "subDomain": [["Riot", 9]],
      "elementalSchool": [],
      "bloodline": []
    },
    "level": 9,
    "school": "enc",
    "subschool": "compulsion",
    "types": "mind-affecting",
    "components": {
      "verbal": true,
      "somatic": true,
      "material": true
    },
    "materials": {
      "value": "mercury and phosphorous, plus powdered diamond and opal worth a total of 15,000 gp",
      "gpValue": 15000
    },
    "spellbook": "",
    "preparation": {
      "autoDeductCharges": false,
      "spontaneousPrepared": false
    },
    "shortDescription": "<p>This spell functions as <i>symbol of death</i>, except all creatures within the radius of a <i>symbol of strife</i> are compelled to attack the nearest conscious creaturefor 1 round per caster level (similar to the \"attack nearest creature\" result of the <i>confusion</i> spell), even after leaving the symbol's area of effect. If no other creatures are visible, an affected creature can act normally. Once triggered, the symbol remains active for 10 minutes per caster level.</p><p><i>Symbol of strife</i> can be made permanent with a <i>permanency</i> spell by a caster of 18th level or higher for the cost of 25,000 gp.</p>"
  },
  "ownership": {
    "default": 0
  },
  "_stats": {
    "systemId": "pf1",
    "systemVersion": "0.82.1",
    "coreVersion": "10.285",
    "createdTime": 1663018733644,
    "modifiedTime": 1663018744868,
    "lastModifiedBy": "DbeAbHwpEqczKjsD"
  }
}
