{
  "_id": "ikpkjoi08hs9d9tn",
  "name": "Temporal Divergence",
  "type": "spell",
  "img": "systems/pf1/icons/misc/magic-swirl.png",
  "effects": [],
  "folder": null,
  "sort": 0,
  "flags": {},
  "system": {
    "tags": [],
    "actions": [
      {
        "_id": "rza54jyxmn1a7db2",
        "name": "Use",
        "img": "systems/pf1/icons/misc/magic-swirl.png",
        "description": "",
        "tag": "",
        "activation": {
          "cost": 1,
          "type": "swift"
        },
        "unchainedAction": {
          "activation": {
            "cost": 1,
            "type": "action"
          }
        },
        "duration": {
          "value": "instantaneous",
          "units": ""
        },
        "target": {
          "value": "you"
        },
        "range": {
          "value": null,
          "units": "personal",
          "maxIncrements": 1,
          "minValue": null,
          "minUnits": ""
        },
        "uses": {
          "autoDeductCharges": true,
          "autoDeductChargesCost": "1",
          "self": {
            "value": 0,
            "maxFormula": "",
            "per": null
          },
          "per": "",
          "value": 0,
          "maxFormula": ""
        },
        "measureTemplate": {
          "type": "",
          "size": "0",
          "overrideColor": false,
          "customColor": "",
          "overrideTexture": false,
          "customTexture": ""
        },
        "attackName": "",
        "actionType": "",
        "attackBonus": "",
        "critConfirmBonus": "",
        "damage": {
          "parts": [],
          "critParts": [],
          "nonCritParts": []
        },
        "attackParts": [],
        "formulaicAttacks": {
          "count": {
            "formula": ""
          },
          "bonus": {
            "formula": ""
          },
          "label": null
        },
        "formula": "",
        "ability": {
          "attack": "",
          "damage": "",
          "damageMult": 1,
          "critRange": 20,
          "critMult": 2
        },
        "save": {
          "dc": "0",
          "type": "",
          "description": ""
        },
        "effectNotes": [],
        "attackNotes": [],
        "soundEffect": "",
        "powerAttack": {
          "multiplier": "",
          "damageBonus": 2,
          "critMultiplier": 1
        },
        "naturalAttack": {
          "primaryAttack": true,
          "secondary": {
            "attackBonus": "-5",
            "damageMult": 0.5
          }
        },
        "nonlethal": false,
        "usesAmmo": false,
        "spellEffect": "",
        "spellArea": "",
        "conditionals": [],
        "enh": {
          "value": null
        }
      }
    ],
    "uses": {
      "per": ""
    },
    "attackNotes": [],
    "effectNotes": [],
    "links": {
      "children": []
    },
    "flags": {
      "boolean": [],
      "dictionary": []
    },
    "scriptCalls": [],
    "learnedAt": {
      "class": [
        ["sorcerer/wizard", 7],
        ["witch", 7],
        ["psychic", 7]
      ],
      "domain": [],
      "subDomain": [],
      "elementalSchool": [],
      "bloodline": []
    },
    "level": 7,
    "school": "trs",
    "components": {
      "verbal": true,
      "somatic": true,
      "material": true
    },
    "materials": {
      "value": "mithral wishbone worth 100 gp",
      "gpValue": 100
    },
    "spellbook": "",
    "preparation": {
      "autoDeductCharges": false,
      "spontaneousPrepared": false
    },
    "sr": false,
    "shortDescription": "<p>This spell allows you to witness two divergent decisions and choose which to pursue. Upon completing this spell, you must immediately choose two other different spells that you could cast at that moment and that each have a casting time of 1 standard action; these spells take effect simultaneously, and you must track all resulting effects, areas of effect, saving throws, and other outcomes separately as if each had been cast normally and the other spell had never happened. Once you've seen how each spell resolves, you must choose which version of reality occurred, expending the standard action, prepared spell, and material components as necessary. The other spell's results are ignored and do not require an action or expend the prepared spell, spell slot, or material components. If the targets of the spell you did not choose expended any resources or effects to resist your spell, those resources or effects are also not expended. If you cast this spell and do not or cannot immediately follow the instructions described above, this spell has no effect.  For example, after casting this spell, a wizard could cast <i>temporal stasis</i> on a demon and <i>fireball</i> on a group of orcs. Seeing that the demon succeeds at its saving throw against <i>temporal stasis</i> and that the <i>fireball</i> kills many orcs, the wizard chooses the <i>fireball</i> to take effect. The <i>temporal stasis</i> is treated as if it had not been cast, and its spell slot and costly material component are not expended.  Casting this spell more than once in a single day is risky. On the second and subsequent casting in a 24-hour period, you must succeed at a DC 25 Will saving throw or be exposed to a crippling array of possibilities and paradoxes that leave you confused for 24 hours. Whenever this confusion would cause you to attack the nearest creature, you instead expend your highest-level remaining prepared spell or spell slot, if any, with no effect.</p>"
  },
  "ownership": {
    "default": 0
  },
  "_stats": {
    "systemId": "pf1",
    "systemVersion": "0.82.1",
    "coreVersion": "10.285",
    "createdTime": 1663018733476,
    "modifiedTime": 1663018744846,
    "lastModifiedBy": "DbeAbHwpEqczKjsD"
  }
}
