{
  "_id": "xZLcyrEKYZoJPS2k",
  "name": "Magus",
  "type": "class",
  "img": "systems/pf1/icons/spells/enchant-magenta-3.jpg",
  "effects": [],
  "folder": null,
  "sort": 0,
  "flags": {},
  "system": {
    "description": {
      "value": "<p>There are those who spend their lives poring over ancient tomes and texts, unlocking the power of magic, and there are those who spend their time perfecting the use of individual weapons, becoming masters without equal. The magus is at once a student of both philosophies, blending magical ability and martial prowess into something entirely unique, a discipline in which both spell and steel are used to devastating effect. As he grows in power, the magus unlocks powerful forms of arcana that allow him to merge his talents further, and at the pinnacle of his art, the magus becomes a blur of steel and magic, a force that few foes would dare to stand against.</p>\n<p><strong>Role</strong>: Magi spend much of their time traveling the world, learning whatever martial or arcane secrets they can find. They might spend months learning a new sword-fighting style from a master warrior, while simultaneously moonlighting in the local library, poring through tomes of ancient lore. Most who take this path dabble in all sorts of lore, picking up anything that might aid them in their search for perfection.</p>\n<p><strong>Alignment</strong>: Any.</p>\n<p><strong>Hit Die</strong>: d8.</p>\n<p><strong>Starting Wealth</strong>: 4d6 × 10 gp (average 140 gp.) In addition, each character begins play with an outfit worth 10 gp or less.</p>\n<h2><span id=\"Class_skills\">Class skills</span></h2>\n<p>The magus’s class skills are <a href=\"https://www.d20pfsrd.com/skills/climb\">Climb</a>&nbsp;(<a href=\"https://www.d20pfsrd.com/basics-ability-scores/ability-scores#TOC-Strength-Str-\">Str</a>), <a href=\"https://www.d20pfsrd.com/skills/craft\">Craft</a>&nbsp;(<a href=\"https://www.d20pfsrd.com/basics-ability-scores/ability-scores#TOC-Intelligence-Int-\">Int</a>), <a href=\"https://www.d20pfsrd.com/skills/fly\">Fly</a>&nbsp;(<a href=\"https://www.d20pfsrd.com/basics-ability-scores/ability-scores#TOC-Dexterity-Dex-\">Dex</a>), <a href=\"https://www.d20pfsrd.com/skills/intimidate\">Intimidate</a>&nbsp;(<a href=\"https://www.d20pfsrd.com/basics-ability-scores/ability-scores#TOC-Charisma-Cha-\">Cha</a>), <a href=\"https://www.d20pfsrd.com/skills/knowledge\">Knowledge</a>&nbsp;(arcana) (<a href=\"https://www.d20pfsrd.com/basics-ability-scores/ability-scores#TOC-Intelligence-Int-\">Int</a>), <a href=\"https://www.d20pfsrd.com/skills/knowledge\">Knowledge</a>&nbsp;(dungeoneering) (<a href=\"https://www.d20pfsrd.com/basics-ability-scores/ability-scores#TOC-Intelligence-Int-\">Int</a>), <a href=\"https://www.d20pfsrd.com/skills/knowledge\">Knowledge</a>&nbsp;(planes) (<a href=\"https://www.d20pfsrd.com/basics-ability-scores/ability-scores#TOC-Intelligence-Int-\">Int</a>), <a href=\"https://www.d20pfsrd.com/skills/profession\">Profession</a>&nbsp;(<a href=\"https://www.d20pfsrd.com/basics-ability-scores/ability-scores#TOC-Wisdom-Wis-\">Wis</a>), <a href=\"https://www.d20pfsrd.com/skills/ride\">Ride</a>&nbsp;(<a href=\"https://www.d20pfsrd.com/basics-ability-scores/ability-scores#TOC-Dexterity-Dex-\">Dex</a>), <a href=\"https://www.d20pfsrd.com/skills/spellcraft\">Spellcraft</a>&nbsp;(<a href=\"https://www.d20pfsrd.com/basics-ability-scores/ability-scores#TOC-Intelligence-Int-\">Int</a>), <a href=\"https://www.d20pfsrd.com/skills/swim\">Swim</a>&nbsp;(<a href=\"https://www.d20pfsrd.com/basics-ability-scores/ability-scores#TOC-Strength-Str-\">Str</a>), and <a href=\"https://www.d20pfsrd.com/skills/use-magic-device\">Use Magic Device</a>&nbsp;(<a href=\"https://www.d20pfsrd.com/basics-ability-scores/ability-scores#TOC-Charisma-Cha-\">Cha</a>).</p>\n<p><strong>Skill Ranks per Level</strong>: 2 +&nbsp;<a href=\"https://www.d20pfsrd.com/basics-ability-scores/ability-scores#TOC-Intelligence-Int-\">Int</a> modifier.</p>"
    },
    "tags": [],
    "changes": [],
    "links": {
      "children": [],
      "classAssociations": [
        {
          "id": "pf1.class-abilities.mpe3JHJMINddqLWr",
          "dataType": "compendium",
          "name": "Arcane Pool",
          "img": "systems/pf1/icons/spells/runes-blue-1.jpg",
          "level": 1,
          "_index": 0
        },
        {
          "id": "pf1.class-abilities.lj4yLDvoxGFHiwSk",
          "dataType": "compendium",
          "name": "Spell Combat",
          "img": "systems/pf1/icons/spells/enchant-red-2.jpg",
          "level": 1,
          "_index": 1
        },
        {
          "id": "pf1.class-abilities.G1z392b58wRybqjL",
          "dataType": "compendium",
          "name": "Improved Spell Combat",
          "img": "systems/pf1/icons/feats/disruptive.jpg",
          "level": 8,
          "_index": 2
        },
        {
          "id": "pf1.class-abilities.nWDMATASYzzAShr6",
          "dataType": "compendium",
          "name": "Greater Spell Combat",
          "img": "systems/pf1/icons/feats/improved-vital-strike.jpg",
          "level": 14,
          "_index": 3
        },
        {
          "id": "pf1.class-abilities.OsEuRDHP7jcJ2fIJ",
          "dataType": "compendium",
          "name": "Spellstrike",
          "img": "systems/pf1/icons/spells/enchant-royal-3.jpg",
          "level": 2,
          "_index": 4
        },
        {
          "id": "pf1.class-abilities.HJ2vLLDYkihPxFkD",
          "dataType": "compendium",
          "name": "Magus Arcana",
          "img": "systems/pf1/icons/spells/runes-magenta-1.jpg",
          "level": 3,
          "_index": 5
        },
        {
          "id": "pf1.class-abilities.QhHS0Qr5FxH4LtaI",
          "dataType": "compendium",
          "name": "Knowledge Pool",
          "img": "systems/pf1/icons/feats/blinding-critical.jpg",
          "level": 7,
          "_index": 6
        },
        {
          "id": "pf1.class-abilities.IyfoUjtyaS8lakWc",
          "dataType": "compendium",
          "name": "Spell Recall",
          "img": "systems/pf1/icons/spells/evil-eye-eerie-1.jpg",
          "level": 4,
          "_index": 7
        },
        {
          "id": "pf1.class-abilities.gzBR0qkMdu0KkLV0",
          "dataType": "compendium",
          "name": "Bonus Feats (MAG)",
          "img": "systems/pf1/icons/feats/combat-expertise.jpg",
          "level": 5,
          "_index": 8
        },
        {
          "id": "pf1.class-abilities.Js83QWyHQQ4PjP0m",
          "dataType": "compendium",
          "name": "Medium Armor",
          "img": "systems/pf1/icons/feats/arcane-armor-training.jpg",
          "level": 7,
          "_index": 9
        },
        {
          "id": "pf1.class-abilities.ePNt8fgtaAxmLnHs",
          "dataType": "compendium",
          "name": "Fighter Training",
          "img": "systems/pf1/icons/feats/double-slice.jpg",
          "level": 10,
          "_index": 10
        },
        {
          "id": "pf1.class-abilities.dakApiblq3ad7AZI",
          "dataType": "compendium",
          "name": "Improved Spell Recall",
          "img": "systems/pf1/icons/feats/extra-lay-on-hands.jpg",
          "level": 11,
          "_index": 11
        },
        {
          "id": "pf1.class-abilities.0AXAMXGLJIw7CGBd",
          "dataType": "compendium",
          "name": "Heavy Armor",
          "img": "systems/pf1/icons/feats/armor-proficiency-heavy.png",
          "level": 13,
          "_index": 12
        },
        {
          "id": "pf1.class-abilities.zLXBKnWXbZ2YKOBo",
          "dataType": "compendium",
          "name": "Counterstrike",
          "img": "systems/pf1/icons/feats/channel-smite.jpg",
          "level": 16,
          "_index": 13
        },
        {
          "id": "pf1.class-abilities.i64BU7HTfaRJEYFj",
          "dataType": "compendium",
          "name": "Greater Spell Access",
          "img": "systems/pf1/icons/feats/extend-spell.jpg",
          "level": 19,
          "_index": 14
        },
        {
          "id": "pf1.class-abilities.XAMIufM24q2qAB7o",
          "dataType": "compendium",
          "name": "True Magus",
          "img": "systems/pf1/icons/spells/enchant-sky-3.jpg",
          "level": 20,
          "_index": 15
        }
      ]
    },
    "tag": "magus",
    "useCustomTag": true,
    "armorProf": {
      "value": ["lgt"]
    },
    "weaponProf": {
      "value": ["sim", "mar"]
    },
    "languages": {
      "value": []
    },
    "flags": {
      "boolean": [],
      "dictionary": []
    },
    "scriptCalls": [],
    "bab": "med",
    "skillsPerLevel": 2,
    "savingThrows": {
      "fort": {
        "value": "high"
      },
      "will": {
        "value": "high"
      }
    },
    "classSkills": {
      "acr": false,
      "apr": false,
      "art": false,
      "blf": false,
      "clm": true,
      "crf": true,
      "dip": false,
      "dev": false,
      "dis": false,
      "esc": false,
      "fly": true,
      "han": false,
      "hea": false,
      "int": true,
      "kar": true,
      "kdu": true,
      "ken": false,
      "kge": false,
      "khi": false,
      "klo": false,
      "kna": false,
      "kno": false,
      "kpl": true,
      "kre": false,
      "lin": false,
      "lor": false,
      "per": false,
      "prf": false,
      "pro": true,
      "rid": true,
      "sen": false,
      "slt": false,
      "spl": true,
      "ste": false,
      "sur": false,
      "swm": true,
      "umd": true
    }
  },
  "ownership": {
    "default": 0
  },
  "_stats": {
    "systemId": "pf1",
    "systemVersion": "0.82.1",
    "coreVersion": "10.285",
    "createdTime": 1663018728719,
    "modifiedTime": 1663018728977,
    "lastModifiedBy": "DbeAbHwpEqczKjsD"
  }
}
