{
  "_id": "KfcnHrgAMpBhScKB",
  "name": "Warrior",
  "type": "class",
  "img": "systems/pf1/icons/items/weapons/club.PNG",
  "effects": [],
  "folder": null,
  "sort": 100001,
  "flags": {},
  "system": {
    "description": {
      "value": "<p><strong>Alignment:</strong> Any.</p>\n<p><strong>Hit Die</strong>: d10.</p>\n<h2><span id=\"Class_Skills\">Class Skills</span></h2>\n<p>The warrior’s class skills (and the key ability for each skill) are <a href=\"https://www.d20pfsrd.com/skills/climb\">Climb</a> (<a href=\"https://www.d20pfsrd.com/basics-ability-scores/ability-scores#TOC-Strength-Str-\">Str</a>), <a href=\"https://www.d20pfsrd.com/skills/craft\">Craft</a>&nbsp;(<a href=\"https://www.d20pfsrd.com/basics-ability-scores/ability-scores#TOC-Intelligence-Int-\">Int</a>), <a href=\"https://www.d20pfsrd.com/skills/handle-animal\">Handle Animal</a>&nbsp;(<a href=\"https://www.d20pfsrd.com/basics-ability-scores/ability-scores#TOC-Charisma-Cha-\">Cha</a>), <a href=\"https://www.d20pfsrd.com/skills/intimidate\">Intimidate</a>&nbsp;(<a href=\"https://www.d20pfsrd.com/basics-ability-scores/ability-scores#TOC-Charisma-Cha-\">Cha</a>), <a href=\"https://www.d20pfsrd.com/skills/profession\">Profession</a>&nbsp;(<a href=\"https://www.d20pfsrd.com/basics-ability-scores/ability-scores#TOC-Wisdom-Wis-\">Wis</a>), <a href=\"https://www.d20pfsrd.com/skills/ride\">Ride</a>&nbsp;(<a href=\"https://www.d20pfsrd.com/basics-ability-scores/ability-scores#TOC-Dexterity-Dex-\">Dex</a>), and <a href=\"https://www.d20pfsrd.com/skills/swim\">Swim</a>&nbsp;(<a href=\"https://www.d20pfsrd.com/basics-ability-scores/ability-scores#TOC-Strength-Str-\">Str</a>).</p>\n<p><strong>Skill Ranks per Level</strong>: 2 +&nbsp;<a href=\"https://www.d20pfsrd.com/basics-ability-scores/ability-scores#TOC-Intelligence-Int-\">Int</a>&nbsp;modifier.</p>"
    },
    "tags": [],
    "changes": [],
    "links": {
      "children": [],
      "classAssociations": []
    },
    "tag": "warrior",
    "useCustomTag": true,
    "armorProf": {
      "value": ["lgt", "med", "hvy", "shl", "twr"]
    },
    "weaponProf": {
      "value": ["sim", "mar"]
    },
    "languages": {
      "value": []
    },
    "flags": {
      "boolean": [],
      "dictionary": []
    },
    "scriptCalls": [],
    "classType": "npc",
    "hd": 10,
    "hp": 10,
    "bab": "high",
    "skillsPerLevel": 2,
    "savingThrows": {
      "fort": {
        "value": "high"
      }
    },
    "classSkills": {
      "clm": true,
      "acr": false,
      "apr": false,
      "art": false,
      "blf": false,
      "crf": true,
      "dip": false,
      "dev": false,
      "dis": false,
      "esc": false,
      "fly": false,
      "han": true,
      "hea": false,
      "int": true,
      "kar": false,
      "kdu": false,
      "ken": false,
      "kge": false,
      "khi": false,
      "klo": false,
      "kna": false,
      "kno": false,
      "kpl": false,
      "kre": false,
      "lin": false,
      "lor": false,
      "per": false,
      "prf": false,
      "pro": true,
      "rid": true,
      "sen": false,
      "slt": false,
      "spl": false,
      "ste": false,
      "sur": false,
      "swm": true,
      "umd": false
    }
  },
  "ownership": {
    "default": 0
  },
  "_stats": {
    "systemId": "pf1",
    "systemVersion": "0.82.1",
    "coreVersion": "10.285",
    "createdTime": 1663018728678,
    "modifiedTime": 1663018728973,
    "lastModifiedBy": "DbeAbHwpEqczKjsD"
  }
}
