{
  "name": "Conditions",
  "pages": [
    {
      "name": "Bleed",
      "type": "text",
      "title": {
        "show": false,
        "level": 1
      },
      "text": {
        "format": 1,
        "content": "<p>A creature that is taking bleed damage takes the listed amount of damage at the beginning of its turn. Bleeding can be stopped by a DC 15 @UUID[Compendium.pf1.pf1e-rules.x175kVqUfLGPt8tC.JournalEntryPage.nHbYSOoe1SzqEO9w]{Heal} check or through the application of any spell that cures hit point damage (even if the bleed is ability damage). Some bleed effects cause ability damage or even ability drain. Bleed effects do not stack with each other unless they deal different kinds of damage. When two or more bleed effects deal the same kind of damage, take the worse effect. In this case, ability drain is worse than ability damage.</p>\n<h2>FAQ</h2>\n<p><strong>Q</strong>: Do you re-roll bleed damage each round, or continue bleeding the same amount each round based on the initial bleed damage roll?<br /><strong>A</strong>: If the bleed damage is expressed as a die roll you reroll the damage each round.</p>",
        "markdown": ""
      },
      "_id": "L6DTocj1PbOtuspU",
      "image": {},
      "video": {
        "controls": true,
        "volume": 0.5
      },
      "src": null,
      "system": {},
      "sort": 0,
      "ownership": {
        "default": -1,
        "PoIR9pEzkZzq4MMu": 3
      },
      "flags": {
        "core": {
          "sourceId": "Compendium.pf1.conditions.93aTFy7v8VUq8sNi.JournalEntryPage.vJTyMs1gZXHT0R1f"
        }
      }
    },
    {
      "name": "Blinded",
      "type": "text",
      "title": {
        "show": false,
        "level": 1
      },
      "text": {
        "format": 1,
        "content": "<p>The creature cannot see. It takes a –2 penalty to <a href=\"https://www.d20pfsrd.com/gamemastering/combat#TOC-Armor-Class\">Armor Class</a>, loses its <a href=\"https://www.d20pfsrd.com/basics-ability-scores/ability-scores#TOC-Dexterity-Dex-\">Dexterity</a> bonus to <a href=\"https://www.d20pfsrd.com/gamemastering/combat#TOC-Armor-Class\">AC</a> (if any), and takes a –4 penalty on most <a href=\"https://www.d20pfsrd.com/basics-ability-scores/ability-scores#TOC-Strength-Str-\">Strength</a>– and <a href=\"https://www.d20pfsrd.com/basics-ability-scores/ability-scores#TOC-Dexterity-Dex-\">Dexterity</a>-based skill checks and on opposed <a href=\"https://www.d20pfsrd.com/skills/perception\">Perception</a> skill checks. All checks and activities that rely on vision (such as reading and <a href=\"https://www.d20pfsrd.com/skills/perception\">Perception</a> checks based on sight) automatically fail. All opponents are considered to have total <a href=\"https://www.d20pfsrd.com/gamemastering/combat#TOC-Concealment\">concealment</a> (50% miss chance) against the blinded character. Blind creatures must make a DC 10 <a href=\"https://www.d20pfsrd.com/skills/acrobatics\">Acrobatics</a> skill check to move faster than half speed. Creatures that fail this check fall @UUID[Compendium.pf1.pf1e-rules.NSqfXaj4MevUR2uJ.JournalEntryPage.VbagnIPQS523dwxa]{prone}. Characters who remain blinded for a long time grow accustomed to these drawbacks and can overcome some of them.</p>",
        "markdown": ""
      },
      "_id": "A9KUpd2bsdZZsQqj",
      "image": {},
      "video": {
        "controls": true,
        "volume": 0.5
      },
      "src": null,
      "system": {},
      "sort": 0,
      "ownership": {
        "default": -1,
        "PoIR9pEzkZzq4MMu": 3
      },
      "flags": {
        "core": {
          "sourceId": "Compendium.pf1.conditions.coxrkb6qUKBZvVxP.JournalEntryPage.KXHpDK20mkHkhXQn"
        }
      }
    },
    {
      "name": "Broken",
      "type": "text",
      "title": {
        "show": false,
        "level": 1
      },
      "text": {
        "format": 1,
        "content": "<p>Items that have taken damage in excess of half their total <a href=\"https://www.d20pfsrd.com/gamemastering/combat#TOC-Hit-Points\">hit points</a> gain the broken condition, meaning they are less effective at their designated task. The broken condition has the following effects, depending upon the item.</p>\n<ul>\n<li>If the item is a weapon, any attacks made with the item suffer a –2 penalty on attack and damage rolls. Such weapons only score a critical hit on a natural 20 and only deal ×2 damage on a confirmed critical hit.</li>\n<li>If the item is a suit of armor or a shield, the bonus it grants to <a href=\"https://www.d20pfsrd.com/gamemastering/combat#TOC-Armor-Class\">AC</a> is halved, rounding down. Broken armor doubles its armor check penalty on skills.</li>\n<li>If the item is a tool needed for a skill, any skill check made with the item takes a –2 penalty.</li>\n<li>If the item is a <a href=\"https://www.d20pfsrd.com/magic-items/wands\">wand</a> or staff, it uses up twice as many charges when used.</li>\n<li>If the item does not fit into any of these categories, the broken condition has no effect on its use. Items with the broken condition, regardless of type, are worth 75% of their normal value. If the item is magical, it can only be repaired with a @Compendium[pf1.spells.24zg8a05hqum3e6j]{Mending} or @Compendium[pf1.spells.x23pz2agjub1eh89]{Make Whole} spell cast by a character with a <a href=\"https://www.d20pfsrd.com/magic#TOC-Caster-Level\">caster level</a> equal to or higher than the item’s. Items lose the broken condition if the spell restores the object to half its original <a href=\"https://www.d20pfsrd.com/gamemastering/combat#TOC-Hit-Points\">hit points</a> or higher. Non-magical items can be repaired in a similar fashion, or through the @UUID[Compendium.pf1.pf1e-rules.x175kVqUfLGPt8tC.JournalEntryPage.3E8pxbjI8MD3JbfQ]{Craft} skill used to create it. Generally speaking, this requires a DC 20 @UUID[Compendium.pf1.pf1e-rules.x175kVqUfLGPt8tC.JournalEntryPage.3E8pxbjI8MD3JbfQ]{Craft} check and 1 hour of work per point of damage to be repaired. Most craftsmen charge one-tenth the item’s total cost to repair such damage (more if the item is badly damaged or ruined).</li>\n</ul>\n<p><strong>Special Note on Ships</strong>: Ships, and sometimes their means of propulsion—are objects, and like any other object, when they take damage in excess of half their <a href=\"https://www.d20pfsrd.com/gamemastering/combat#TOC-Hit-Points\">hit points</a>, they gain the broken condition. When a ship gains the broken condition, it takes a –2 penalty to AC, on sailing checks, saving throws, and on <a href=\"https://www.d20pfsrd.com/gamemastering/combat#TOC-Combat-Maneuvers\">combat maneuver</a> checks. If a ship or its means of propulsion becomes broken, the ship’s maximum speed is halved and the ship can no longer gain the upper hand until repaired. If the ship is in motion and traveling faster than its new maximum speed, it automatically decelerates to its new maximum speed (from <a href=\"https://www.d20pfsrd.com/Gamemastering/Conditions/other-rules/ship-combat/advanced-naval-combat\">Advanced Naval Combat</a>.)</p>"
      },
      "_id": "4SQa4AxDiAmOAtCn",
      "image": {},
      "video": {
        "controls": true,
        "volume": 0.5
      },
      "src": null,
      "system": {},
      "sort": 0,
      "ownership": {
        "default": -1,
        "PoIR9pEzkZzq4MMu": 3
      },
      "flags": {
        "core": {
          "sourceId": "Compendium.pf1.conditions.jQLJg0XQq4rx9yzx.JournalEntryPage.gJ98dGp5vpGVdd2T"
        }
      }
    },
    {
      "name": "Confused",
      "type": "text",
      "title": {
        "show": false,
        "level": 1
      },
      "text": {
        "format": 1,
        "content": "<p>A confused creature is mentally befuddled and cannot act normally. A confused creature cannot tell the difference between ally and foe, treating all creatures as enemies. Allies wishing to cast a beneficial spell that requires a touch on a confused creature must succeed on a melee <a href=\"https://www.d20pfsrd.com/gamemastering/combat#TOC-Touch-Attacks\">touch attack</a>. If a confused creature is attacked, it attacks the creature that last attacked it until that creature is @UUID[Compendium.pf1.pf1e-rules.NSqfXaj4MevUR2uJ.JournalEntryPage.YvycF7bsU1hPm4pX]{Dead} or out of sight.</p>\n<p>Roll on the following table at the beginning of each confused subject’s turn each round to see what the subject does in that round.</p>\n<table style=\"box-sizing:border-box;border-spacing:0px;background-color:#ffffff;margin:10px;table-layout:fixed;border-color:#888888;min-width:200px;max-width:90%;color:#333333;font-family:Varela, sans-serif;height:105px\" border=\"1\">\n<thead style=\"box-sizing:border-box;background-color:#cfe2f3\">\n<tr style=\"box-sizing:border-box\">\n<th style=\"box-sizing:border-box;padding:2px;text-align:left;border:1px solid #888888;width:80px;height:21px\">d%</th>\n<th style=\"box-sizing:border-box;padding:2px;text-align:left;border:1px solid #888888;height:21px;width:552px\">Behavior</th>\n</tr>\n</thead>\n<tbody style=\"box-sizing:border-box\">\n<tr style=\"box-sizing:border-box\">\n<td class=\"number\" style=\"box-sizing:border-box;padding:2px;vertical-align:top;text-align:center;border:1px solid #888888;height:21px;width:80px\">01–25</td>\n<td class=\"text\" style=\"box-sizing:border-box;padding:2px;vertical-align:top;border:1px solid #888888;height:21px;width:552px\">Act normally.</td>\n</tr>\n<tr style=\"box-sizing:border-box;background-color:#f3f3f3\">\n<td class=\"number\" style=\"box-sizing:border-box;padding:2px;vertical-align:top;text-align:center;border:1px solid #888888;height:21px;width:80px\">26–50</td>\n<td class=\"text\" style=\"box-sizing:border-box;padding:2px;vertical-align:top;border:1px solid #888888;height:21px;width:552px\">Do nothing but babble incoherently.</td>\n</tr>\n<tr style=\"box-sizing:border-box\">\n<td class=\"number\" style=\"box-sizing:border-box;padding:2px;vertical-align:top;text-align:center;border:1px solid #888888;height:21px;width:80px\">51–75</td>\n<td class=\"text\" style=\"box-sizing:border-box;padding:2px;vertical-align:top;border:1px solid #888888;height:21px;width:552px\">Deal 1d8 points of damage + Str modifier to self with item in hand.</td>\n</tr>\n<tr style=\"box-sizing:border-box;background-color:#f3f3f3\">\n<td class=\"number\" style=\"box-sizing:border-box;padding:2px;vertical-align:top;text-align:center;border:1px solid #888888;height:21px;width:80px\">76–100</td>\n<td class=\"text\" style=\"box-sizing:border-box;padding:2px;vertical-align:top;border:1px solid #888888;height:21px;width:552px\">Attack nearest creature (for this purpose, a familiar counts as part of the subject’s self).</td>\n</tr>\n</tbody>\n</table>\n<p>A confused creature who can’t carry out the indicated action does nothing but babble incoherently. Attackers are not at any special advantage when attacking a confused creature. Any confused creature who is attacked automatically attacks its attackers on its next turn, as long as it is still confused when its turn comes. Note that a confused creature will not make attacks of opportunity against anything that it is not already devoted to attacking (either because of its most recent action or because it has just been attacked).</p>",
        "markdown": ""
      },
      "_id": "J2yma0xciBKRUh9t",
      "image": {},
      "video": {
        "controls": true,
        "volume": 0.5
      },
      "src": null,
      "system": {},
      "sort": 0,
      "ownership": {
        "default": -1,
        "PoIR9pEzkZzq4MMu": 3
      },
      "flags": {
        "core": {
          "sourceId": "Compendium.pf1.conditions.VbG9W9dMz2jhgfCi.JournalEntryPage.g2Qqg7PKOAnINgde"
        }
      }
    },
    {
      "name": "Cowering",
      "type": "text",
      "title": {
        "show": false,
        "level": 1
      },
      "text": {
        "format": 1,
        "content": "<p>The character is frozen in fear and can take no actions. A cowering character takes a –2 penalty to <a href=\"https://www.d20pfsrd.com/gamemastering/combat#TOC-Armor-Class\">Armor Class</a> and loses his <a href=\"https://www.d20pfsrd.com/basics-ability-scores/ability-scores#TOC-Dexterity-Dex-\">Dexterity</a> bonus (if any).</p>"
      },
      "_id": "eNW5geiJqrnAjjNu",
      "image": {},
      "video": {
        "controls": true,
        "volume": 0.5
      },
      "src": null,
      "system": {},
      "sort": 0,
      "ownership": {
        "default": -1,
        "PoIR9pEzkZzq4MMu": 3
      },
      "flags": {
        "core": {
          "sourceId": "Compendium.pf1.conditions.M9FWe38D2J740wLH.JournalEntryPage.nxcqJm8mNOhrVaMz"
        }
      }
    },
    {
      "name": "Dazed",
      "type": "text",
      "title": {
        "show": false,
        "level": 1
      },
      "text": {
        "format": 1,
        "content": "<p>The creature is unable to act normally. A dazed creature can take no actions, but has no penalty to <a href=\"https://www.d20pfsrd.com/gamemastering/combat#TOC-Armor-Class\">AC</a>.</p>\n<p>A dazed condition typically lasts 1 round.</p>"
      },
      "_id": "2A6Gk60pLDKR2zT0",
      "image": {},
      "video": {
        "controls": true,
        "volume": 0.5
      },
      "src": null,
      "system": {},
      "sort": 0,
      "ownership": {
        "default": -1,
        "PoIR9pEzkZzq4MMu": 3
      },
      "flags": {
        "core": {
          "sourceId": "Compendium.pf1.conditions.woFU0s24URgixLm7.JournalEntryPage.1cXuZSbDu5Hc0Lvk"
        }
      }
    },
    {
      "name": "Dazzled",
      "type": "text",
      "title": {
        "show": false,
        "level": 1
      },
      "text": {
        "format": 1,
        "content": "<p>The creature is unable to see well because of over-stimulation of the eyes. A dazzled creature takes a –1 penalty on attack rolls and sight-based @UUID[Compendium.pf1.pf1e-rules.x175kVqUfLGPt8tC.JournalEntryPage.2h6hz5AkTDxKPFxr]{Perception} checks.</p>",
        "markdown": ""
      },
      "_id": "xHUnCadQ2qYsfvV0",
      "image": {},
      "video": {
        "controls": true,
        "volume": 0.5
      },
      "src": null,
      "system": {},
      "sort": 0,
      "ownership": {
        "default": -1,
        "PoIR9pEzkZzq4MMu": 3
      },
      "flags": {
        "core": {
          "sourceId": "Compendium.pf1.conditions.2pICNUG3g7O4obyu.JournalEntryPage.Z3hmA9r80GQQO7jg"
        }
      }
    },
    {
      "name": "Dead",
      "type": "text",
      "title": {
        "show": false,
        "level": 1
      },
      "text": {
        "format": 1,
        "content": "<p>The character’s <a href=\"https://www.d20pfsrd.com/gamemastering/combat#TOC-Hit-Points\">hit points</a> are reduced to a negative amount equal to his <a href=\"https://www.d20pfsrd.com/basics-ability-scores/ability-scores#TOC-Constitution-Con-\">Constitution</a> score, his <a href=\"https://www.d20pfsrd.com/basics-ability-scores/ability-scores#TOC-Constitution-Con-\">Constitution</a> drops to 0, or he is killed outright by a spell or effect. The character’s soul leaves his body. Dead characters cannot benefit from normal or magical healing, but they can be restored to life via magic. A dead body decays normally unless magically preserved, but magic that restores a dead character to life also restores the body either to full health or to its condition at the time of death (depending on the spell or device). Either way, resurrected characters need not worry about rigor mortis, decomposition, and other conditions that affect dead bodies.</p>"
      },
      "_id": "YvycF7bsU1hPm4pX",
      "image": {},
      "video": {
        "controls": true,
        "volume": 0.5
      },
      "src": null,
      "system": {},
      "sort": 0,
      "ownership": {
        "default": -1,
        "PoIR9pEzkZzq4MMu": 3
      },
      "flags": {
        "core": {
          "sourceId": "Compendium.pf1.conditions.khxmbfoDQ3LD0de5.JournalEntryPage.xUl7ZgHR9XNpYIfR"
        }
      }
    },
    {
      "name": "Deafened",
      "type": "text",
      "title": {
        "show": false,
        "level": 1
      },
      "text": {
        "format": 1,
        "content": "<p>A deafened character cannot hear. He takes a –4 penalty on <a href=\"https://www.d20pfsrd.com/gamemastering/combat#TOC-Initiative\">initiative</a> checks, automatically fails @UUID[Compendium.pf1.pf1e-rules.x175kVqUfLGPt8tC.JournalEntryPage.2h6hz5AkTDxKPFxr]{Perception} checks based on sound, takes a –4 penalty on opposed @UUID[Compendium.pf1.pf1e-rules.x175kVqUfLGPt8tC.JournalEntryPage.2h6hz5AkTDxKPFxr]{Perception} checks, and has a 20% chance of spell failure when casting spells with verbal <a href=\"https://www.d20pfsrd.com/magic#TOC-Components\">components</a>. Characters who remain deafened for a long time grow accustomed to these drawbacks and can overcome some of them.</p>",
        "markdown": ""
      },
      "_id": "3uIamlB0L1UZUwoF",
      "image": {},
      "video": {
        "controls": true,
        "volume": 0.5
      },
      "src": null,
      "system": {},
      "sort": 0,
      "ownership": {
        "default": -1,
        "PoIR9pEzkZzq4MMu": 3
      },
      "flags": {
        "core": {
          "sourceId": "Compendium.pf1.conditions.ZTA39rR8AnZcydiu.JournalEntryPage.GdyVEfKapXb02fDb"
        }
      }
    },
    {
      "name": "Disabled",
      "type": "text",
      "title": {
        "show": false,
        "level": 1
      },
      "text": {
        "format": 1,
        "content": "<p>A character with 0 <a href=\"https://www.d20pfsrd.com/gamemastering/combat#TOC-Hit-Points\">hit points</a>, or one who has negative <a href=\"https://www.d20pfsrd.com/gamemastering/combat#TOC-Hit-Points\">hit points</a> but has become @UUID[Compendium.pf1.pf1e-rules.NSqfXaj4MevUR2uJ.JournalEntryPage.krgVb43Vd62dqpYr]{stable} and conscious, is disabled. A disabled character may take a single <a href=\"https://www.d20pfsrd.com/gamemastering/combat#TOC-Move-Actions\">move action</a> or <a href=\"https://www.d20pfsrd.com/gamemastering/combat#TOC-Standard-Actions\">standard action</a> each round (but not both, nor can he take full-round actions, but he can still take swift, immediate, and free actions). He moves at half speed. Taking move actions doesn’t risk further injury, but performing any <a href=\"https://www.d20pfsrd.com/gamemastering/combat#TOC-Standard-Actions\">standard action</a> (or any other action the GM deems strenuous, including some free actions such as casting a @Compendium[pf1.feats.wFoLrh5FeeqBXsQ8]{Quicken Spell}) deals 1 point of damage after the completion of the act. Unless the action increased the disabled character’s <a href=\"https://www.d20pfsrd.com/gamemastering/combat#TOC-Hit-Points\">hit points</a>, he is now in negative <a href=\"https://www.d20pfsrd.com/gamemastering/combat#TOC-Hit-Points\">hit points</a> and @UUID[Compendium.pf1.pf1e-rules.NSqfXaj4MevUR2uJ.JournalEntryPage.zG6xEGMIerpbnND0]{dying}.</p>\n<p>A disabled character with negative <a href=\"https://www.d20pfsrd.com/gamemastering/combat#TOC-Hit-Points\">hit points</a> recovers <a href=\"https://www.d20pfsrd.com/gamemastering/combat#TOC-Hit-Points\">hit points</a> naturally if he is being helped. Otherwise, each day he can attempt a DC 10 <a href=\"https://www.d20pfsrd.com/basics-ability-scores/ability-scores#TOC-Constitution-Con-\">Constitution</a> check after resting for 8 hours, to begin recovering <a href=\"https://www.d20pfsrd.com/gamemastering/combat#TOC-Hit-Points\">hit points</a> naturally. The character takes a penalty on this roll equal to his negative hit point total. Failing this check causes the character to lose 1 hit point, but this does not cause the character to become @UUID[Compendium.pf1.pf1e-rules.NSqfXaj4MevUR2uJ.JournalEntryPage.kHwbZ38VHCa1wkUF]{unconscious}. Once a character makes this check, he continues to heal naturally and is no longer in danger of losing <a href=\"https://www.d20pfsrd.com/gamemastering/combat#TOC-Hit-Points\">hit points</a> naturally.</p>",
        "markdown": ""
      },
      "_id": "dtHHibCiKZzdjyvp",
      "image": {},
      "video": {
        "controls": true,
        "volume": 0.5
      },
      "src": null,
      "system": {},
      "sort": 0,
      "ownership": {
        "default": -1,
        "PoIR9pEzkZzq4MMu": 3
      },
      "flags": {
        "core": {
          "sourceId": "Compendium.pf1.conditions.zW6gVKSaVFTrd9PY.JournalEntryPage.OoP7P9Qw2Yd38xbJ"
        }
      }
    },
    {
      "name": "Dying",
      "type": "text",
      "title": {
        "show": false,
        "level": 1
      },
      "text": {
        "format": 1,
        "content": "<p>A dying creature is @UUID[Compendium.pf1.pf1e-rules.NSqfXaj4MevUR2uJ.JournalEntryPage.kHwbZ38VHCa1wkUF]{unconscious} and near death. Creatures that have negative <a href=\"https://www.d20pfsrd.com/gamemastering/combat#TOC-Hit-Points\">hit points</a> and have not stabilized are dying. A dying creature can take no actions. On the character’s next turn, after being reduced to negative <a href=\"https://www.d20pfsrd.com/gamemastering/combat#TOC-Hit-Points\">hit points</a> (but not @UUID[Compendium.pf1.pf1e-rules.NSqfXaj4MevUR2uJ.JournalEntryPage.YvycF7bsU1hPm4pX]{dead}), and on all subsequent turns, the character must make a DC 10 <a href=\"https://www.d20pfsrd.com/basics-ability-scores/ability-scores#TOC-Constitution-Con-\">Constitution</a> check to become @UUID[Compendium.pf1.pf1e-rules.NSqfXaj4MevUR2uJ.JournalEntryPage.krgVb43Vd62dqpYr]{stable}. The character takes a penalty on this roll equal to his negative hit point total. A character that is @UUID[Compendium.pf1.pf1e-rules.NSqfXaj4MevUR2uJ.JournalEntryPage.krgVb43Vd62dqpYr]{stable} does not need to make this check. A natural 20 on this check is an automatic success. If the character fails this check, he loses 1 hit point. If a dying creature has an amount of negative <a href=\"https://www.d20pfsrd.com/gamemastering/combat#TOC-Hit-Points\">hit points</a> equal to its <a href=\"https://www.d20pfsrd.com/basics-ability-scores/ability-scores#TOC-Constitution-Con-\">Constitution</a> score, it dies.</p>",
        "markdown": ""
      },
      "_id": "zG6xEGMIerpbnND0",
      "image": {},
      "video": {
        "controls": true,
        "volume": 0.5
      },
      "src": null,
      "system": {},
      "sort": 0,
      "ownership": {
        "default": -1,
        "PoIR9pEzkZzq4MMu": 3
      },
      "flags": {
        "core": {
          "sourceId": "Compendium.pf1.conditions.BKxrsHSBNATa0e3D.JournalEntryPage.5u32Cnr40yopt9WG"
        }
      }
    },
    {
      "name": "Energy Drained",
      "type": "text",
      "title": {
        "show": false,
        "level": 1
      },
      "text": {
        "format": 1,
        "content": "<p>The character gains one or more negative levels, which might become permanent. If the subject has at least as many negative levels as Hit Dice, he dies.</p>\n<p>See <a href=\"https://www.d20pfsrd.com/gamemastering/special-abilities#TOC-Energy-Drain-and-Negative-Levels\">Energy Drain and Negative Levels</a> and the <strong>FAQ</strong>.</p>\n<h2>FAQ</h2>\n<p><strong>Q</strong>: Does energy drain count as a death effect?<br /><strong>A</strong>:  Energy drain is not a death effect.</p>\n<p>The undead type calls out immunities to \"death effects\" and \"energy drain\" as separate things.</p>\n<p>The Death Attacks description in the Core Rulebook doesn't mention negative levels or energy drain.</p>\n<p>\"Energy Drain and Negative Levels\" is an entirely separate entry in the Core Rulebook and doesn't say energy drain is a type of death attack, not does it say that death ward protects against them.</p>\n<p>The death ward spell gives a bonus against death spells and magical death effects, and goes on to say that the target is immune to energy drain, and suspends penalties from negative levels while the spell is active.</p>\n<p>Therefore the rules treat energy drain and death effects as different things. For example, if you are immune to death effects, you aren't necessarily immune to energy drain.</p>"
      },
      "_id": "onMPh2re6fIeNgNr",
      "image": {},
      "video": {
        "controls": true,
        "volume": 0.5
      },
      "src": null,
      "system": {},
      "sort": 0,
      "ownership": {
        "default": -1,
        "PoIR9pEzkZzq4MMu": 3
      },
      "flags": {
        "core": {
          "sourceId": "Compendium.pf1.conditions.cPwNCkLiLxlTAQS7.JournalEntryPage.Vjyl9ceo2Su5LlJX"
        }
      }
    },
    {
      "name": "Entangled",
      "type": "text",
      "title": {
        "show": false,
        "level": 1
      },
      "text": {
        "format": 1,
        "content": "<p>The character is ensnared. Being entangled impedes movement, but does not entirely prevent it unless the bonds are anchored to an immobile object or tethered by an opposing force. An entangled creature moves at half speed, cannot run or <a href=\"https://www.d20pfsrd.com/gamemastering/combat#TOC-Charge\">charge</a>, and takes a –2 penalty on all attack rolls and a –4 penalty to <a href=\"https://www.d20pfsrd.com/basics-ability-scores/ability-scores#TOC-Dexterity-Dex-\">Dexterity</a>. An entangled character who attempts to cast a spell must make a <a href=\"https://www.d20pfsrd.com/magic#TOC-Concentration\">concentration</a> check (DC 15 + spell level) or lose the spell.</p>",
        "markdown": ""
      },
      "_id": "oxmugd8SoxVjvRRl",
      "image": {},
      "video": {
        "controls": true,
        "volume": 0.5
      },
      "src": null,
      "system": {},
      "sort": 0,
      "ownership": {
        "default": -1,
        "PoIR9pEzkZzq4MMu": 3
      },
      "flags": {
        "core": {
          "sourceId": "Compendium.pf1.conditions.WH3Hop5fUDUzVUVg.JournalEntryPage.xQ5PIf4Pd9oVDhJ9"
        }
      }
    },
    {
      "name": "Exhausted",
      "type": "text",
      "title": {
        "show": false,
        "level": 1
      },
      "text": {
        "format": 1,
        "content": "<p>An exhausted character moves at half speed, cannot run or <a href=\"https://www.d20pfsrd.com/gamemastering/combat#TOC-Charge\">charge</a>, and takes a –6 penalty to <a href=\"https://www.d20pfsrd.com/basics-ability-scores/ability-scores#TOC-Strength-Str-\">Strength</a> and <a href=\"https://www.d20pfsrd.com/basics-ability-scores/ability-scores#TOC-Dexterity-Dex-\">Dexterity</a>. After 1 hour of complete rest, an exhausted character becomes fatigued. A fatigued character becomes exhausted by doing something else that would normally cause @UUID[Compendium.pf1.pf1e-rules.NSqfXaj4MevUR2uJ.JournalEntryPage.AVaxTNildXRzYnQm]{fatigue}.</p>",
        "markdown": ""
      },
      "_id": "ITxxh53qgl74wWcE",
      "image": {},
      "video": {
        "controls": true,
        "volume": 0.5
      },
      "src": null,
      "system": {},
      "sort": 0,
      "ownership": {
        "default": -1,
        "PoIR9pEzkZzq4MMu": 3
      },
      "flags": {
        "core": {
          "sourceId": "Compendium.pf1.conditions.I1cKXhfBaFIrL9Ix.JournalEntryPage.o17zCLdANiM663Y4"
        }
      }
    },
    {
      "name": "Fascinated",
      "type": "text",
      "title": {
        "show": false,
        "level": 1
      },
      "text": {
        "format": 1,
        "content": "<p>A fascinated creature is entranced by a supernatural or spell effect. The creature stands or sits quietly, taking no actions other than to pay attention to the fascinating effect, for as long as the effect lasts. It takes a –4 penalty on skill checks made as reactions, such as @UUID[Compendium.pf1.pf1e-rules.x175kVqUfLGPt8tC.JournalEntryPage.2h6hz5AkTDxKPFxr]{Perception} checks. Any potential threat, such as a hostile creature approaching, allows the fascinated creature a new <a href=\"https://www.d20pfsrd.com/gamemastering/combat#TOC-Saving-Throws\">saving throw</a> against the fascinating effect. Any obvious threat, such as someone drawing a weapon, casting a spell, or aiming a ranged weapon at the fascinated creature, automatically breaks the effect. A fascinated creature’s ally may shake it free of the spell as a <a href=\"https://www.d20pfsrd.com/gamemastering/combat#TOC-Standard-Actions\">standard action</a>.</p>",
        "markdown": ""
      },
      "_id": "Hy0MHwpRRr5QxVj5",
      "image": {},
      "video": {
        "controls": true,
        "volume": 0.5
      },
      "src": null,
      "system": {},
      "sort": 0,
      "ownership": {
        "default": -1,
        "PoIR9pEzkZzq4MMu": 3
      },
      "flags": {
        "core": {
          "sourceId": "Compendium.pf1.conditions.fDeN1Ze5F2uCiUPj.JournalEntryPage.tdj440wCvZKzqcYp"
        }
      }
    },
    {
      "name": "Fatigued",
      "type": "text",
      "title": {
        "show": false,
        "level": 1
      },
      "text": {
        "format": 1,
        "content": "<p>A fatigued character can neither <a href=\"https://www.d20pfsrd.com/gamemastering/combat#TOC-Run\">run</a> nor <a href=\"https://www.d20pfsrd.com/gamemastering/combat#TOC-Charge\">charge</a> and takes a –2 penalty to <a href=\"https://www.d20pfsrd.com/basics-ability-scores/ability-scores#TOC-Strength-Str-\">Strength</a> and <a href=\"https://www.d20pfsrd.com/basics-ability-scores/ability-scores#TOC-Dexterity-Dex-\">Dexterity</a>. Doing anything that would normally cause fatigue causes the fatigued character to become @UUID[Compendium.pf1.pf1e-rules.NSqfXaj4MevUR2uJ.JournalEntryPage.ITxxh53qgl74wWcE]{exhausted}. After 8 hours of complete rest, fatigued characters are no longer fatigued.</p>",
        "markdown": ""
      },
      "_id": "AVaxTNildXRzYnQm",
      "image": {},
      "video": {
        "controls": true,
        "volume": 0.5
      },
      "src": null,
      "system": {},
      "sort": 0,
      "ownership": {
        "default": -1,
        "PoIR9pEzkZzq4MMu": 3
      },
      "flags": {
        "core": {
          "sourceId": "Compendium.pf1.conditions.nku8mgRBNt0iXqzB.JournalEntryPage.IIB37cYn0cuS0OaL"
        }
      }
    },
    {
      "name": "Flat-Footed",
      "type": "text",
      "title": {
        "show": false,
        "level": 1
      },
      "text": {
        "format": 1,
        "content": "<p>A character who has not yet acted during a combat is flat-footed, unable to react normally to the situation. A flat-footed character loses his <a href=\"https://www.d20pfsrd.com/basics-ability-scores/ability-scores#TOC-Dexterity-Dex-\">Dexterity</a> bonus to <a href=\"https://www.d20pfsrd.com/gamemastering/combat#TOC-Armor-Class\">AC</a> and Combat Maneuver Defense (CMD) (if any) and cannot make attacks of opportunity, unless he has the @Compendium[pf1.feats.h9nHYLxXvIXBTmup]{Combat Reflexes} feat or Uncanny Dodge class ability.</p>\n<p>Characters with Uncanny Dodge retain their <a href=\"https://www.d20pfsrd.com/basics-ability-scores/ability-scores#TOC-Dexterity-Dex-\">Dexterity</a> bonus to their <a href=\"https://www.d20pfsrd.com/gamemastering/combat#TOC-Armor-Class\">AC</a> and can make attacks of opportunity before they have acted in the first round of combat.</p>\n<blockquote>\n<p>Editor's Note: <em>reference from immediate action rules: You cannot take immediate actions while flat-footed.</em></p>\n</blockquote>"
      },
      "_id": "eSvkrrl3US7RJTai",
      "image": {},
      "video": {
        "controls": true,
        "volume": 0.5
      },
      "src": null,
      "system": {},
      "sort": 0,
      "ownership": {
        "default": -1,
        "PoIR9pEzkZzq4MMu": 3
      },
      "flags": {
        "core": {
          "sourceId": "Compendium.pf1.conditions.VwiEwv8Ks0iTl6vQ.JournalEntryPage.JFieEhBHOpm25o6m"
        }
      }
    },
    {
      "name": "Frightened",
      "type": "text",
      "title": {
        "show": false,
        "level": 1
      },
      "text": {
        "format": 1,
        "content": "<p>A frightened creature flees from the source of its fear as best it can. If unable to flee, it may fight. A frightened creature takes a –2 penalty on all attack rolls, <a href=\"https://www.d20pfsrd.com/gamemastering/combat#TOC-Saving-Throws\">saving throws</a>, skill checks, and ability checks. A frightened creature can use special abilities, including spells, to flee; indeed, the creature must use such means if they are the only way to escape.</p>\n<p>Frightened is like @UUID[Compendium.pf1.pf1e-rules.NSqfXaj4MevUR2uJ.JournalEntryPage.XxLUswkCuXnXmA5T]{shaken}, except that the creature must flee if possible. Panicked is a more extreme state of fear.</p>"
      },
      "_id": "uqpJ7ZMnWF5qjOTl",
      "image": {},
      "video": {
        "controls": true,
        "volume": 0.5
      },
      "src": null,
      "system": {},
      "sort": 0,
      "ownership": {
        "default": -1,
        "PoIR9pEzkZzq4MMu": 3
      },
      "flags": {
        "core": {
          "sourceId": "Compendium.pf1.conditions.QdwliEzfA3ZK9YtS.JournalEntryPage.T1ZJX796Gvufz1aP"
        }
      }
    },
    {
      "name": "Grappled",
      "type": "text",
      "title": {
        "show": false,
        "level": 1
      },
      "text": {
        "format": 1,
        "content": "<p>A grappled creature is restrained by a creature, trap, or effect. Grappled creatures cannot move and take a –4 penalty to <a href=\"https://www.d20pfsrd.com/basics-ability-scores/ability-scores#TOC-Dexterity-Dex-\">Dexterity</a>. A grappled creature takes a –2 penalty on all attack rolls and combat maneuver checks, except those made to grapple or escape a grapple. In addition, grappled creatures can take no action that requires two hands to perform. A grappled character who attempts to cast a spell or use a spell-like ability must make a <a href=\"https://www.d20pfsrd.com/magic#TOC-Concentration\">concentration</a> check (DC 10 + grappler’s CMB + spell level), or lose the spell. Grappled creatures cannot make attacks of opportunity.</p>\n<p>A grappled creature cannot use @UUID[Compendium.pf1.pf1e-rules.x175kVqUfLGPt8tC.JournalEntryPage.wRWHk7tCUHR99PzD]{Stealth} to hide from the creature grappling it, even if a special ability, such as hide in plain sight, would normally allow it to do so. If a grappled creature becomes @UUID[Compendium.pf1.pf1e-rules.NSqfXaj4MevUR2uJ.JournalEntryPage.Wr2ZWUZcyVWQ4GtX]{invisible}, through a spell or other ability, it gains a +2 <a href=\"https://www.d20pfsrd.com/basics-ability-scores/glossary#TOC-Circumstance-Bonus\">circumstance bonus</a> on its CMD to avoid being grappled, but receives no other benefit.</p>\n<p><strong>Casting Spells while Grappled/Grappling</strong>: The only spells which can be cast while grappling or @UUID[Compendium.pf1.pf1e-rules.NSqfXaj4MevUR2uJ.JournalEntryPage.poCq8gXdDi5leaMT]{pinned} are those without somatic <a href=\"https://www.d20pfsrd.com/magic/#TOC-Components\">components</a> and whose material <a href=\"https://www.d20pfsrd.com/magic/#TOC-Components\">components</a> (if any) you have in hand. Even so, you must make a <a href=\"https://www.d20pfsrd.com/magic/#TOC-Concentration\">concentration</a> check (DC 10 + the grappler’s <a href=\"https://www.d20pfsrd.com/gamemastering/combat#TOC-Combat-Maneuver-Bonus\">CMB</a> + the level of the spell you’re casting) or lose the spell.</p>"
      },
      "_id": "i4gHNAVajJWs4cFI",
      "image": {},
      "video": {
        "controls": true,
        "volume": 0.5
      },
      "src": null,
      "system": {},
      "sort": 0,
      "ownership": {
        "default": -1,
        "PoIR9pEzkZzq4MMu": 3
      },
      "flags": {
        "core": {
          "sourceId": "Compendium.pf1.conditions.zemoWcP2SR6FTiS1.JournalEntryPage.7niDdtdv4682SjSo"
        }
      }
    },
    {
      "name": "Helpless",
      "type": "text",
      "title": {
        "show": false,
        "level": 1
      },
      "text": {
        "format": 1,
        "content": "<p>A helpless character is @UUID[Compendium.pf1.pf1e-rules.NSqfXaj4MevUR2uJ.JournalEntryPage.24p2Koq4FFCLDKnj]{paralyzed}, held, bound, sleeping, @UUID[Compendium.pf1.pf1e-rules.NSqfXaj4MevUR2uJ.JournalEntryPage.kHwbZ38VHCa1wkUF]{unconscious}, or otherwise completely at an opponent’s mercy. A helpless target is treated as having a <a href=\"https://www.d20pfsrd.com/basics-ability-scores/ability-scores#TOC-Dexterity-Dex-\">Dexterity</a> of 0 (–5 modifier). Melee attacks against a helpless target get a +4 bonus (equivalent to attacking a @UUID[Compendium.pf1.pf1e-rules.NSqfXaj4MevUR2uJ.JournalEntryPage.VbagnIPQS523dwxa]{prone} target). Ranged attacks get no special bonus against helpless targets. @Compendium[pf1.classes.24b0LaabeAlUx5gN]{Rogues} can sneak attack helpless targets.</p>\n<p>As a <a href=\"https://www.d20pfsrd.com/gamemastering/combat#TOC-Full-Round-Actions\">full-round action</a>, an enemy can use a melee weapon to deliver a coup de grace to a helpless foe. An enemy can also use a bow or crossbow, provided he is adjacent to the target. The attacker automatically hits and scores a critical hit. (A @Compendium[pf1.classes.24b0LaabeAlUx5gN]{Rogue} also gets his sneak attack damage bonus against a helpless foe when delivering a coup de grace.) If the defender survives, he must make a <a href=\"https://www.d20pfsrd.com/gamemastering/combat#TOC-Fortitude\">Fortitude</a> save (DC 10 + damage dealt) or die. Delivering a coup de grace provokes attacks of opportunity.</p>\n<p>Creatures that are immune to critical hits do not take critical damage, nor do they need to make <a href=\"https://www.d20pfsrd.com/gamemastering/combat#TOC-Fortitude\">Fortitude</a> saves to avoid being killed by a coup de grace.</p>",
        "markdown": ""
      },
      "_id": "6dtCytJsNkO8Hwq4",
      "image": {},
      "video": {
        "controls": true,
        "volume": 0.5
      },
      "src": null,
      "system": {},
      "sort": 0,
      "ownership": {
        "default": -1,
        "PoIR9pEzkZzq4MMu": 3
      },
      "flags": {
        "core": {
          "sourceId": "Compendium.pf1.conditions.g84rPrlfDnkUopAa.JournalEntryPage.bSFqSXclTy8e7Wt7"
        }
      }
    },
    {
      "name": "Incorporeal",
      "type": "text",
      "title": {
        "show": false,
        "level": 1
      },
      "text": {
        "format": 1,
        "content": "<p>Creatures with the incorporeal condition do not have a physical body. Incorporeal creatures are immune to all nonmagical attack forms. Incorporeal creatures take half damage (50%) from magic weapons, spells, spell-like effects, and supernatural effects. Incorporeal creatures take full damage from other incorporeal creatures and effects, as well as all force effects. See <a href=\"https://www.d20pfsrd.com/bestiary/rules-for-monsters/universal-monster-rules/#Incorporeal_Ex\">here</a> for additional information.</p>"
      },
      "_id": "acqGBiMxTbXZ47zU",
      "image": {},
      "video": {
        "controls": true,
        "volume": 0.5
      },
      "src": null,
      "system": {},
      "sort": 0,
      "ownership": {
        "default": -1,
        "PoIR9pEzkZzq4MMu": 3
      },
      "flags": {
        "core": {
          "sourceId": "Compendium.pf1.conditions.75ojKVcFLHBi80J9.JournalEntryPage.nBBtfavdf7R1hV3R"
        }
      }
    },
    {
      "name": "Invisible",
      "type": "text",
      "title": {
        "show": false,
        "level": 1
      },
      "text": {
        "format": 1,
        "content": "<p>Invisible creatures are visually undetectable. An invisible creature gains a +2 bonus on attack rolls against sighted opponents, and ignores its opponents’ <a href=\"https://www.d20pfsrd.com/basics-ability-scores/ability-scores#TOC-Dexterity-Dex-\">Dexterity</a> bonuses to <a href=\"https://www.d20pfsrd.com/gamemastering/combat#TOC-Armor-Class\">AC</a> (if any). See the <a href=\"https://www.d20pfsrd.com/gamemastering/special-abilities/#TOC-Invisibility\">invisibility special ability</a>.</p>"
      },
      "_id": "Wr2ZWUZcyVWQ4GtX",
      "image": {},
      "video": {
        "controls": true,
        "volume": 0.5
      },
      "src": null,
      "system": {},
      "sort": 0,
      "ownership": {
        "default": -1,
        "PoIR9pEzkZzq4MMu": 3
      },
      "flags": {
        "core": {
          "sourceId": "Compendium.pf1.conditions.L3hNCX9kLGlmoQhc.JournalEntryPage.vonVLckGnuPccdkH"
        }
      }
    },
    {
      "name": "Nauseated",
      "type": "text",
      "title": {
        "show": false,
        "level": 1
      },
      "text": {
        "format": 1,
        "content": "<p>Creatures with the nauseated condition experience stomach distress. Nauseated creatures are unable to attack, cast spells, concentrate on spells, or do anything else requiring attention. The only action such a character can take is a single move action per turn.</p>"
      },
      "_id": "ySiyyK1BMAyKPY4I",
      "image": {},
      "video": {
        "controls": true,
        "volume": 0.5
      },
      "src": null,
      "system": {},
      "sort": 0,
      "ownership": {
        "default": -1,
        "PoIR9pEzkZzq4MMu": 3
      },
      "flags": {
        "core": {
          "sourceId": "Compendium.pf1.conditions.1fkE2juoZHXjU90M.JournalEntryPage.GGpwSP8WWifE5ivD"
        }
      }
    },
    {
      "name": "Panicked",
      "type": "text",
      "title": {
        "show": false,
        "level": 1
      },
      "text": {
        "format": 1,
        "content": "<p>A panicked creature must drop anything it holds and flee at top speed from the source of its fear, as well as any other dangers it encounters, along a random path. It can’t take any other actions. In addition, the creature takes a –2 penalty on all <a href=\"https://www.d20pfsrd.com/gamemastering/combat#TOC-Saving-Throws\">saving throws</a>, skill checks, and ability checks. If cornered, a panicked creature cowers and does not attack, typically using the <a href=\"https://www.d20pfsrd.com/gamemastering/combat#TOC-Total-Defense\">total defense</a> action in combat. A panicked creature can use special abilities, including spells, to flee; indeed, the creature must use such means if they are the only way to escape.</p>\n<p>Panicked is a more extreme state of fear than @UUID[Compendium.pf1.pf1e-rules.NSqfXaj4MevUR2uJ.JournalEntryPage.XxLUswkCuXnXmA5T]{shaken} or @UUID[Compendium.pf1.pf1e-rules.NSqfXaj4MevUR2uJ.JournalEntryPage.uqpJ7ZMnWF5qjOTl]{frightened}.</p>",
        "markdown": ""
      },
      "_id": "nGTsTfpWcJTTU3rk",
      "image": {},
      "video": {
        "controls": true,
        "volume": 0.5
      },
      "src": null,
      "system": {},
      "sort": 0,
      "ownership": {
        "default": -1,
        "PoIR9pEzkZzq4MMu": 3
      },
      "flags": {
        "core": {
          "sourceId": "Compendium.pf1.conditions.xhQma4Gl4wLO0jnZ.JournalEntryPage.zwdpKTLqsuzrvHBj"
        }
      }
    },
    {
      "name": "Paralyzed",
      "type": "text",
      "title": {
        "show": false,
        "level": 1
      },
      "text": {
        "format": 1,
        "content": "<p>A paralyzed character is frozen in place and unable to move or act. A paralyzed character has effective <a href=\"https://www.d20pfsrd.com/basics-ability-scores/ability-scores#TOC-Dexterity-Dex-\">Dexterity</a> and <a href=\"https://www.d20pfsrd.com/basics-ability-scores/ability-scores#TOC-Strength-Str-\">Strength</a> scores of 0 and is @UUID[Compendium.pf1.pf1e-rules.NSqfXaj4MevUR2uJ.JournalEntryPage.6dtCytJsNkO8Hwq4]{helpless}, but can take purely mental actions. A winged creature flying in the air at the time that it becomes paralyzed cannot flap its wings and falls. A paralyzed swimmer can’t swim and may drown. A creature can move through a space occupied by a paralyzed creature—ally or not. Each square occupied by a paralyzed creature, however, counts as 2 squares to move through.</p>",
        "markdown": ""
      },
      "_id": "24p2Koq4FFCLDKnj",
      "image": {},
      "video": {
        "controls": true,
        "volume": 0.5
      },
      "src": null,
      "system": {},
      "sort": 0,
      "ownership": {
        "default": -1,
        "PoIR9pEzkZzq4MMu": 3
      },
      "flags": {
        "core": {
          "sourceId": "Compendium.pf1.conditions.8zG4yDD2zGVSAJFH.JournalEntryPage.XqLLCTZEyqOFvUUp"
        }
      }
    },
    {
      "name": "Petrified",
      "type": "text",
      "title": {
        "show": false,
        "level": 1
      },
      "text": {
        "format": 1,
        "content": "<p>A petrified character has been turned to stone and is considered @UUID[Compendium.pf1.pf1e-rules.NSqfXaj4MevUR2uJ.JournalEntryPage.kHwbZ38VHCa1wkUF]{unconscious}. If a petrified character cracks or breaks, but the broken pieces are joined with the body as he returns to flesh, he is unharmed. If the character’s petrified body is incomplete when it returns to flesh, the body is likewise incomplete and there is some amount of permanent hit point loss and/or debilitation.</p>",
        "markdown": ""
      },
      "_id": "ayGQWwbrhAc99pkH",
      "image": {},
      "video": {
        "controls": true,
        "volume": 0.5
      },
      "src": null,
      "system": {},
      "sort": 0,
      "ownership": {
        "default": -1,
        "PoIR9pEzkZzq4MMu": 3
      },
      "flags": {
        "core": {
          "sourceId": "Compendium.pf1.conditions.qLQsdbMorUOjOJWJ.JournalEntryPage.j9luUTAyyy9JVXD6"
        }
      }
    },
    {
      "name": "Pinned",
      "type": "text",
      "title": {
        "show": false,
        "level": 1
      },
      "text": {
        "format": 1,
        "content": "<p>A pinned creature is tightly bound and can take few actions. A pinned creature cannot move and is denied its Dexterity bonus. A pinned character also takes an additional –4 penalty to his <a href=\"https://www.d20pfsrd.com/gamemastering/combat#TOC-Armor-Class\">Armor Class</a>. A pinned creature is limited in the actions that it can take. A pinned creature can always attempt to free itself, usually through a combat maneuver check or @UUID[Compendium.pf1.pf1e-rules.x175kVqUfLGPt8tC.JournalEntryPage.DTNlXXg77s3178WJ]{Escape Artist} check. A pinned creature can take verbal and mental actions, but cannot cast any spells that require a somatic or material component. A pinned character who attempts to cast a spell or use a spell-like ability must make a <a href=\"https://www.d20pfsrd.com/magic#TOC-Concentration\">concentration</a> check (DC 10 + grappler’s CMB + spell level) or lose the spell. Pinned is a more severe version of @UUID[Compendium.pf1.pf1e-rules.NSqfXaj4MevUR2uJ.JournalEntryPage.i4gHNAVajJWs4cFI]{grappled}, and their effects do not stack.</p>\n<p><strong>Casting Spells while Pinned</strong>: The only spells which can be cast while grappling or pinned are those without somatic <a href=\"https://www.d20pfsrd.com/magic/#TOC-Components\">components</a> and whose material <a href=\"https://www.d20pfsrd.com/magic/#TOC-Components\">components</a> (if any) you have in hand. Even so, you must make a <a href=\"https://www.d20pfsrd.com/magic/#TOC-Concentration\">concentration</a> check (DC 10 + the grappler’s <a href=\"https://www.d20pfsrd.com/gamemastering/combat#TOC-Combat-Maneuver-Bonus\">CMB</a> + the level of the spell you’re casting) or lose the spell.</p>",
        "markdown": ""
      },
      "_id": "poCq8gXdDi5leaMT",
      "image": {},
      "video": {
        "controls": true,
        "volume": 0.5
      },
      "src": null,
      "system": {},
      "sort": 0,
      "ownership": {
        "default": -1,
        "PoIR9pEzkZzq4MMu": 3
      },
      "flags": {
        "core": {
          "sourceId": "Compendium.pf1.conditions.uxkaA2RC6METVN6w.JournalEntryPage.5vvH97ll8Hdy7aKj"
        }
      }
    },
    {
      "name": "Prone",
      "type": "text",
      "title": {
        "show": false,
        "level": 1
      },
      "text": {
        "format": 1,
        "content": "<p>The character is lying on the ground. A prone attacker has a –4 penalty on melee attack rolls and cannot use a ranged weapon (except for a crossbow). A prone defender gains a +4 bonus to <a href=\"https://www.d20pfsrd.com/gamemastering/combat#TOC-Armor-Class\">Armor Class</a> against ranged attacks, but takes a –4 penalty to <a href=\"https://www.d20pfsrd.com/gamemastering/combat#TOC-Armor-Class\">AC</a> against melee attacks.</p>\n<p>Standing up is a move-equivalent action that provokes an attack of opportunity.</p>"
      },
      "_id": "VbagnIPQS523dwxa",
      "image": {},
      "video": {
        "controls": true,
        "volume": 0.5
      },
      "src": null,
      "system": {},
      "sort": 0,
      "ownership": {
        "default": -1,
        "PoIR9pEzkZzq4MMu": 3
      },
      "flags": {
        "core": {
          "sourceId": "Compendium.pf1.conditions.Av5KcblR1Wd68uWY.JournalEntryPage.lEoviCrHlwf5HD04"
        }
      }
    },
    {
      "name": "Shaken",
      "type": "text",
      "title": {
        "show": false,
        "level": 1
      },
      "text": {
        "format": 1,
        "content": "<p>A shaken character takes a –2 penalty on attack rolls, <a href=\"https://www.d20pfsrd.com/gamemastering/combat#TOC-Saving-Throws\">saving throws</a>, skill checks, and ability checks. Shaken is a less severe state of fear than @UUID[Compendium.pf1.pf1e-rules.NSqfXaj4MevUR2uJ.JournalEntryPage.uqpJ7ZMnWF5qjOTl]{frightened} or @UUID[Compendium.pf1.pf1e-rules.NSqfXaj4MevUR2uJ.JournalEntryPage.nGTsTfpWcJTTU3rk]{panicked}.</p>",
        "markdown": ""
      },
      "_id": "XxLUswkCuXnXmA5T",
      "image": {},
      "video": {
        "controls": true,
        "volume": 0.5
      },
      "src": null,
      "system": {},
      "sort": 0,
      "ownership": {
        "default": -1,
        "PoIR9pEzkZzq4MMu": 3
      },
      "flags": {
        "core": {
          "sourceId": "Compendium.pf1.conditions.07JPXUqIPshVnTCL.JournalEntryPage.2FhWUz9c1bqGgNBe"
        }
      }
    },
    {
      "name": "Sickened",
      "type": "text",
      "title": {
        "show": false,
        "level": 1
      },
      "text": {
        "format": 1,
        "content": "<p>The character takes a –2 penalty on all attack rolls, weapon damage rolls, <a href=\"https://www.d20pfsrd.com/gamemastering/combat#TOC-Saving-Throws\">saving throws</a>, skill checks, and ability checks.</p>"
      },
      "_id": "7LwCMwrX3tchvrjW",
      "image": {},
      "video": {
        "controls": true,
        "volume": 0.5
      },
      "src": null,
      "system": {},
      "sort": 0,
      "ownership": {
        "default": -1,
        "PoIR9pEzkZzq4MMu": 3
      },
      "flags": {
        "core": {
          "sourceId": "Compendium.pf1.conditions.0AJZKIpP3lS3FVKa.JournalEntryPage.iKpsiGFXj3Zk9kAx"
        }
      }
    },
    {
      "name": "Sinking",
      "type": "text",
      "title": {
        "show": false,
        "level": 1
      },
      "text": {
        "format": 1,
        "content": "<p>A ship that is reduced to 0 or fewer <a href=\"https://www.d20pfsrd.com/gamemastering/combat#TOC-Hit-Points\">hit points</a> gains the sinking condition. A sinking ship cannot move or attack, and it sinks completely 10 rounds after it gains the sinking condition. Each additional hit on a sinking ship that deals more than 25 points of damage reduces the remaining time for it to sink by 1 round. A ship that sinks completely drops to the bottom of the body of water and is considered destroyed. A destroyed ship cannot be repaired—it is so significantly damaged it cannot even be used for scrap material. Magic (such as @Compendium[pf1.spells.x23pz2agjub1eh89]{Make Whole}) can repair a sinking ship if the ship’s <a href=\"https://www.d20pfsrd.com/gamemastering/combat#TOC-Hit-Points\">hit points</a> are raised above 0, at which point the ship loses the sinking condition. Generally, non-magical repairs take too long to save a ship from sinking once it begins to go down.</p>",
        "markdown": ""
      },
      "_id": "1VCVI7QZrrLobxsX",
      "image": {},
      "video": {
        "controls": true,
        "volume": 0.5
      },
      "src": null,
      "system": {},
      "sort": 0,
      "ownership": {
        "default": -1,
        "PoIR9pEzkZzq4MMu": 3
      },
      "flags": {
        "core": {
          "sourceId": "Compendium.pf1.conditions.ZdXLbgF9YxUEjfbu.JournalEntryPage.3k9pmg9xgdHgEEUL"
        }
      }
    },
    {
      "name": "Stable",
      "type": "text",
      "title": {
        "show": false,
        "level": 1
      },
      "text": {
        "format": 1,
        "content": "<p>A character who was @UUID[Compendium.pf1.pf1e-rules.NSqfXaj4MevUR2uJ.JournalEntryPage.zG6xEGMIerpbnND0]{dying} but who has stopped losing <a href=\"https://www.d20pfsrd.com/gamemastering/combat#TOC-Hit-Points\">hit points</a> each round and still has negative <a href=\"https://www.d20pfsrd.com/gamemastering/combat#TOC-Hit-Points\">hit points</a> is stable. The character is no longer @UUID[Compendium.pf1.pf1e-rules.NSqfXaj4MevUR2uJ.JournalEntryPage.zG6xEGMIerpbnND0]{dying}, but is still @UUID[Compendium.pf1.pf1e-rules.NSqfXaj4MevUR2uJ.JournalEntryPage.kHwbZ38VHCa1wkUF]{unconscious}. If the character has become stable because of aid from another character (such as a @UUID[Compendium.pf1.pf1e-rules.x175kVqUfLGPt8tC.JournalEntryPage.nHbYSOoe1SzqEO9w]{Heal} check or magical healing), then the character no longer loses <a href=\"https://www.d20pfsrd.com/gamemastering/combat#TOC-Hit-Points\">hit points</a>. The character can make a DC 10 <a href=\"https://www.d20pfsrd.com/basics-ability-scores/ability-scores#TOC-Constitution-Con-\">Constitution</a> check each hour to become conscious and @UUID[Compendium.pf1.pf1e-rules.NSqfXaj4MevUR2uJ.JournalEntryPage.dtHHibCiKZzdjyvp]{disabled} (even though his <a href=\"https://www.d20pfsrd.com/gamemastering/combat#TOC-Hit-Points\">hit points</a> are still negative). The character takes a penalty on this roll equal to his negative hit point total.</p>\n<p>If a character has become stable on his own and hasn’t had help, he is still at risk of losing <a href=\"https://www.d20pfsrd.com/gamemastering/combat#TOC-Hit-Points\">hit points</a>. Each hour he can make a <a href=\"https://www.d20pfsrd.com/basics-ability-scores/ability-scores#TOC-Constitution-Con-\">Constitution</a> check to become stable (as a character that has received aid), but each failed check causes him to lose 1 hit point.</p>",
        "markdown": ""
      },
      "_id": "krgVb43Vd62dqpYr",
      "image": {},
      "video": {
        "controls": true,
        "volume": 0.5
      },
      "src": null,
      "system": {},
      "sort": 0,
      "ownership": {
        "default": -1,
        "PoIR9pEzkZzq4MMu": 3
      },
      "flags": {
        "core": {
          "sourceId": "Compendium.pf1.conditions.46ZlrP3X8yCLyMYG.JournalEntryPage.kuszEdEQEPGuRkks"
        }
      }
    },
    {
      "name": "Staggered",
      "type": "text",
      "title": {
        "show": false,
        "level": 1
      },
      "text": {
        "format": 1,
        "content": "<p>A staggered creature may take a single <a href=\"https://www.d20pfsrd.com/gamemastering/combat#TOC-Move-Actions\">move action</a> or <a href=\"https://www.d20pfsrd.com/gamemastering/combat#TOC-Standard-Actions\">standard action</a> each round (but not both, nor can he take full-round actions). A staggered creature can still take free, swift, and immediate actions. A creature with <a href=\"https://www.d20pfsrd.com/gamemastering/combat#TOC-Nonlethal-Damage\">nonlethal damage</a> exactly equal to its current <a href=\"https://www.d20pfsrd.com/gamemastering/combat#TOC-Hit-Points\">hit points</a> gains the staggered condition.</p>"
      },
      "_id": "TTp8q9Vb2PNAujWu",
      "image": {},
      "video": {
        "controls": true,
        "volume": 0.5
      },
      "src": null,
      "system": {},
      "sort": 0,
      "ownership": {
        "default": -1,
        "PoIR9pEzkZzq4MMu": 3
      },
      "flags": {
        "core": {
          "sourceId": "Compendium.pf1.conditions.6LpiJdKskDFD4zLC.JournalEntryPage.vriywENzrdsawN9h"
        }
      }
    },
    {
      "name": "Stunned",
      "type": "text",
      "title": {
        "show": false,
        "level": 1
      },
      "text": {
        "format": 1,
        "content": "<p>A stunned creature drops everything held, can’t take actions, takes a –2 penalty to <a href=\"https://www.d20pfsrd.com/gamemastering/combat#TOC-Armor-Class\">AC</a>, and loses its <a href=\"https://www.d20pfsrd.com/basics-ability-scores/ability-scores#TOC-Dexterity-Dex-\">Dexterity</a> bonus to <a href=\"https://www.d20pfsrd.com/gamemastering/combat#TOC-Armor-Class\">AC</a> (if any).</p>\n<p>Attackers receive a +4 bonus on attack rolls to perform <a href=\"https://www.d20pfsrd.com/gamemastering/combat#TOC-Combat-Maneuvers\">combat maneuvers</a> against a stunned opponent.</p>"
      },
      "_id": "ZgsBPY0uVCVl6SGh",
      "image": {},
      "video": {
        "controls": true,
        "volume": 0.5
      },
      "src": null,
      "system": {},
      "sort": 0,
      "ownership": {
        "default": -1,
        "PoIR9pEzkZzq4MMu": 3
      },
      "flags": {
        "core": {
          "sourceId": "Compendium.pf1.conditions.assqfdN6G1URo9MZ.JournalEntryPage.ZdsGgSlTyE6OeDbc"
        }
      }
    },
    {
      "name": "Unconscious",
      "type": "text",
      "title": {
        "show": false,
        "level": 1
      },
      "text": {
        "format": 1,
        "content": "<p>Unconscious creatures are knocked out and @UUID[Compendium.pf1.pf1e-rules.NSqfXaj4MevUR2uJ.JournalEntryPage.6dtCytJsNkO8Hwq4]{helpless}. Unconsciousness can result from having negative <a href=\"https://www.d20pfsrd.com/gamemastering/combat#TOC-Hit-Points\">hit points</a> (but not more than the creature’s <a href=\"https://www.d20pfsrd.com/basics-ability-scores/ability-scores#TOC-Constitution-Con-\">Constitution</a> score), or from <a href=\"https://www.d20pfsrd.com/gamemastering/combat#TOC-Nonlethal-Damage\">nonlethal damage</a> in excess of current <a href=\"https://www.d20pfsrd.com/gamemastering/combat#TOC-Hit-Points\">hit points</a>.</p>",
        "markdown": ""
      },
      "_id": "kHwbZ38VHCa1wkUF",
      "image": {},
      "video": {
        "controls": true,
        "volume": 0.5
      },
      "src": null,
      "system": {},
      "sort": 0,
      "ownership": {
        "default": -1,
        "PoIR9pEzkZzq4MMu": 3
      },
      "flags": {
        "core": {
          "sourceId": "Compendium.pf1.conditions.bj36eCfZGJG5AGTQ.JournalEntryPage.VOpPdnDltqwtRErj"
        }
      }
    }
  ],
  "ownership": {
    "default": 0
  },
  "flags": {},
  "_stats": {
    "systemId": "pf1",
    "systemVersion": "0.81.2",
    "coreVersion": "10.276",
    "createdTime": 1659496736338,
    "modifiedTime": 1659496736338,
    "lastModifiedBy": "PoIR9pEzkZzq4MMu"
  },
  "folder": null,
  "sort": 0,
  "_id": "NSqfXaj4MevUR2uJ"
}
